{
  "url": "/api/public/referential/ps/localmarket/BatchComposition/fr.ird.referential.ps.localmarket.BatchComposition-1464000000000-01",
  "method": "DELETE",
  "headers": {
    "authenticationToken": "XXX"
  },
  "parameters": {}
}