{
  "url": "/api/public/referential/ps/observation/NonTargetCatchReleaseConformity/fr.ird.referential.ps.observation.NonTargetCatchReleaseConformity-0-1",
  "method": "PUT",
  "headers": {
    "authenticationToken": "XXX",
    "Content-Type": "application/json"
  },
  "parameters": {},
  "payload": {
    "code": "C",
    "uri": null,
    "homeId": null,
    "needComment": false,
    "status": "enabled",
    "label1": "Conform",
    "label2": "Conforme",
    "label3": "Conforme",
    "label4": null,
    "label5": null,
    "label6": null,
    "label7": null,
    "label8": null
  }
}