{
  "path": "fr.ird.observe.navigation.tree.navigation.data.ll.landing.LandingNavigationTreeNode:fr.ird.data.ll.landing.Landing#1464000000000#0.00017977",
  "content": [
    {
      "topiaId": "fr.ird.data.ll.landing.Landing#1464000000000#0.00017977",
      "topiaCreateDate": "2021-01-06T22:07:35.000Z",
      "lastUpdateDate": "2021-02-15T13:15:24.098Z",
      "homeId": "FINSS-017977",
      "comment": null,
      "startDate": "2018-08-12T00:00:00.000Z",
      "endDate": "2018-09-01T00:00:00.000Z",
      "latitude": null,
      "longitude": null,
      "dataSource": "fr.ird.referential.ll.landing.DataSource#666#15",
      "processingCompany": "fr.ird.referential.ll.landing.Company#1464000000000#0.26",
      "shippingCompany": "fr.ird.referential.ll.landing.Company#1464000000000#0.30",
      "brokerageCompany": "fr.ird.referential.ll.landing.Company#1464000000000#0.30",
      "person": null,
      "harbour": "fr.ird.referential.common.Harbour#11#0.41",
      "vessel": "fr.ird.referential.common.Vessel#1464000000000#0.16791",
      "landingPart": [
        {
          "topiaId": "fr.ird.data.ll.landing.LandingPart#1609975393941#0.412674413528293",
          "topiaCreateDate": "2021-01-06T23:23:13.000Z",
          "lastUpdateDate": "2021-01-06T23:23:13.000Z",
          "homeId": "FINSS-00022051",
          "species": "fr.ird.referential.common.Species#1603361174123#0.4481382481686691",
          "dataQuality": null,
          "categoryMin": null,
          "categoryMax": null,
          "onBoardProcessing": "fr.ird.referential.ll.common.OnBoardProcessing#1464000000000#0.3",
          "conservation": null,
          "count": null,
          "weight": 312.9,
          "weightMeasureMethod": "fr.ird.referential.common.WeightMeasureMethod#666#01"
        },
        {
          "topiaId": "fr.ird.data.ll.landing.LandingPart#1609975393948#0.6089437243063",
          "topiaCreateDate": "2021-01-06T23:23:13.000Z",
          "lastUpdateDate": "2021-01-06T23:23:13.000Z",
          "homeId": "FINSS-00022050",
          "species": "fr.ird.referential.common.Species#1239832683791#0.20975568563021063",
          "dataQuality": null,
          "categoryMin": null,
          "categoryMax": null,
          "onBoardProcessing": "fr.ird.referential.ll.common.OnBoardProcessing#1464000000000#0.3",
          "conservation": null,
          "count": null,
          "weight": 370.75,
          "weightMeasureMethod": "fr.ird.referential.common.WeightMeasureMethod#666#01"
        }
      ]
    }
  ]
}