{
  "topiaId": "fr.ird.referential.ll.landing.Company#1464000000000#0.01",
  "topiaCreateDate": "2020-10-01T00:00:00.000Z",
  "lastUpdateDate": "2020-10-01T00:00:00.000Z",
  "code": "AFM",
  "uri": null,
  "homeId": "FINSS-00003638",
  "needComment": false,
  "status": "enabled",
  "label1": "[type: Unknown] Amedee [id:n/a]",
  "label2": "[type: Unknown] Amedee [id:n/a]",
  "label3": "[type: Unknown] Amedee [id:n/a]",
  "label4": null,
  "label5": null,
  "label6": null,
  "label7": null,
  "label8": null
}