{
  "url": "/api/public/referential/ll/landing/Company",
  "method": "POST",
  "headers": {
    "authenticationToken": "XXX",
    "Content-Type": "application/json"
  },
  "parameters": {},
  "payload": {
    "code": "AFM",
    "uri": null,
    "homeId": "FINSS-00003638",
    "needComment": false,
    "status": "enabled",
    "label1": "[type: Unknown] Amedee [id:n/a]",
    "label2": "[type: Unknown] Amedee [id:n/a]",
    "label3": "[type: Unknown] Amedee [id:n/a]",
    "label4": null,
    "label5": null,
    "label6": null,
    "label7": null,
    "label8": null
  }
}