{
  "homeId": "String",
  "comment": "String",
  "startDate": "Date",
  "endDate": "Date",
  "latitude": "Float",
  "longitude": "Float",
  "dataSource": "fr.ird.observe.entities.referential.ll.landing.DataSource",
  "processingCompany": "fr.ird.observe.entities.referential.ll.landing.Company",
  "shippingCompany": "fr.ird.observe.entities.referential.ll.landing.Company",
  "brokerageCompany": "fr.ird.observe.entities.referential.ll.landing.Company",
  "person": "fr.ird.observe.entities.referential.common.Person",
  "harbour": "fr.ird.observe.entities.referential.common.Harbour",
  "vessel": "fr.ird.observe.entities.referential.common.Vessel",
  "landingPart": "java.util.Set:fr.ird.observe.entities.data.ll.landing.LandingPart"
}