{
  "path": "fr.ird.observe.navigation.tree.navigation.referential.common.SpeciesListNavigationTreeNode:fr.ird.referential.common.SpeciesList#1239832675370#0.2",
  "content": [
    {
      "topiaId": "fr.ird.referential.common.SpeciesList#1239832675370#0.2",
      "topiaCreateDate": "2014-06-23T00:00:00.000Z",
      "lastUpdateDate": "2019-11-12T11:11:34.433Z",
      "code": "1",
      "uri": null,
      "homeId": null,
      "needComment": false,
      "status": "enabled",
      "label1": "PS - Non target species",
      "label2": "PS - Faune associée (espèces non ciblée)",
      "label3": "PS - Non target species",
      "label4": null,
      "label5": null,
      "label6": null,
      "label7": null,
      "label8": null,
      "species": [
        "fr.ird.referential.common.Species#1239832683725#0.39445809291491807",
        "fr.ird.referential.common.Species#1239832683731#0.3892121873590658"
      ]
    }
  ]
}