{
  "url": "/api/public/referential/ll/common/VesselActivity/fr.ird.referential.ll.common.VesselActivity-1239832686138-0.1",
  "method": "PUT",
  "headers": {
    "authenticationToken": "XXX",
    "Content-Type": "application/json"
  },
  "parameters": {},
  "payload": {
    "code": "FO",
    "uri": null,
    "homeId": null,
    "needComment": false,
    "status": "enabled",
    "label1": "Fishing operation",
    "label2": "Opération de pêche",
    "label3": "Fishing operation",
    "label4": null,
    "label5": null,
    "label6": null,
    "label7": null,
    "label8": null,
    "allowSet": true,
    "observation": true,
    "logbook": true
  }
}