{
  "path": "fr.ird.observe.navigation.tree.navigation.referential.ll.observation.StomachFullnessNavigationTreeNode:fr.ird.referential.ll.observation.StomachFullness#1239832686135#0.1",
  "content": [
    {
      "topiaId": "fr.ird.referential.ll.observation.StomachFullness#1239832686135#0.1",
      "topiaCreateDate": "2014-07-26T00:00:00.000Z",
      "lastUpdateDate": "2016-12-06T15:54:27.727Z",
      "code": "1",
      "uri": null,
      "homeId": null,
      "needComment": false,
      "status": "enabled",
      "label1": "1",
      "label2": "1",
      "label3": "1",
      "label4": null,
      "label5": null,
      "label6": null,
      "label7": null,
      "label8": null
    }
  ]
}