{
  "path": "fr.ird.observe.navigation.tree.navigation.referential.ps.common.AcquisitionStatusNavigationTreeNode",
  "content": [
    {
      "topiaId": "fr.ird.referential.ps.common.AcquisitionStatus#1464000000000#001",
      "topiaCreateDate": "2021-09-17T00:00:00.000Z",
      "lastUpdateDate": "2021-09-17T00:00:00.000Z",
      "code": "1",
      "uri": null,
      "homeId": null,
      "needComment": false,
      "status": "enabled",
      "label1": "Done",
      "label2": "Réalisé",
      "label3": "Done TODO",
      "label4": null,
      "label5": null,
      "label6": null,
      "label7": null,
      "label8": null,
      "observation": true,
      "logbook": true,
      "landing": true,
      "targetWellsSampling": true,
      "localMarket": true,
      "localMarketWellsSampling": true,
      "localMarketSurveySampling": true,
      "advancedSampling": true,
      "fieldEnabler": true
    },
    {
      "topiaId": "fr.ird.referential.ps.common.AcquisitionStatus#1464000000000#002",
      "topiaCreateDate": "2021-09-17T00:00:00.000Z",
      "lastUpdateDate": "2021-09-17T00:00:00.000Z",
      "code": "2",
      "uri": null,
      "homeId": null,
      "needComment": false,
      "status": "enabled",
      "label1": "Not done, insufficient loading (<100t)",
      "label2": "Non réalisé, chargement insuffisant (<100t)",
      "label3": "Not done, insufficient loading (<100t) TODO",
      "label4": null,
      "label5": null,
      "label6": null,
      "label7": null,
      "label8": null,
      "observation": false,
      "logbook": false,
      "landing": false,
      "targetWellsSampling": true,
      "localMarket": false,
      "localMarketWellsSampling": false,
      "localMarketSurveySampling": false,
      "advancedSampling": false,
      "fieldEnabler": false
    }
  ]
}