{
  "url": "/api/public/data/ll/observation/Activity/fr.ird.data.ll.observation.Activity-1538025383462-0.7048860714573149",
  "method": "GET",
  "headers": {
    "authenticationToken": "XXX"
  },
  "parameters": {
    "config.recursive": "true",
    "config.prettyPrint": "true",
    "config.serializeNulls": "true"
  }
}