{
  "url": "/api/public/referential/ll/common/Program/fr.ird.referential.ll.common.Program-1239832686139-0.1",
  "method": "DELETE",
  "headers": {
    "authenticationToken": "XXX"
  },
  "parameters": {}
}