{
  "path": "fr.ird.observe.navigation.tree.navigation.referential.ll.common.ProgramNavigationTreeNode:fr.ird.referential.ll.common.Program#1239832686139#0.1",
  "content": [
    {
      "topiaId": "fr.ird.referential.ll.common.Program#1239832686139#0.1",
      "topiaCreateDate": "2014-08-05T00:00:00.000Z",
      "lastUpdateDate": "2021-09-17T00:00:00.000Z",
      "code": null,
      "uri": null,
      "homeId": null,
      "needComment": false,
      "status": "enabled",
      "label1": "DCF Longline (IRD)",
      "label2": "DCF Palangre (IRD)",
      "label3": "DCF Longline (IRD)",
      "label4": null,
      "label5": null,
      "label6": null,
      "label7": null,
      "label8": null,
      "organism": "fr.ird.referential.common.Organism#1267835067241#0.6705236825871838",
      "startDate": "2008-01-01T00:00:00.000Z",
      "endDate": null,
      "comment": null,
      "observation": true,
      "logbook": false
    }
  ]
}