{
  "topiaId": "fr.ird.data.ps.observation.Sample#1612861249115#0.09925784341428623",
  "topiaCreateDate": "2019-04-01T11:58:55.526Z",
  "lastUpdateDate": "2021-02-09T09:47:43.099Z",
  "homeId": null,
  "comment": null,
  "sampleMeasure": [
    {
      "topiaId": "fr.ird.data.ps.observation.SampleMeasure#1612861249139#0.99644487513718",
      "topiaCreateDate": "2021-02-09T10:00:05.279Z",
      "lastUpdateDate": "2021-02-09T10:00:43.807Z",
      "homeId": null,
      "length": 12.0,
      "isLengthComputed": false,
      "picturesReferences": null,
      "weight": 12.0,
      "isWeightComputed": false,
      "count": 1.0,
      "acquisitionMode": 1.0,
      "tagNumber": "1",
      "species": "fr.ird.referential.common.Species#1239832685477#0.5989181185528589",
      "sex": "fr.ird.referential.common.Sex#1239832686121#0.0",
      "speciesFate": "fr.ird.referential.ps.common.SpeciesFate#1239832683619#0.5722739932065866",
      "sizeMeasureType": "fr.ird.referential.common.SizeMeasureType#1433499465700#0.0902433863375336",
      "weightMeasureType": "fr.ird.referential.common.WeightMeasureType#1239832686139#0.2",
      "weightMeasureMethod": "fr.ird.referential.common.WeightMeasureMethod#666#01",
      "sizeMeasureMethod": "fr.ird.referential.common.SizeMeasureMethod#666#01"
    },
    {
      "topiaId": "fr.ird.data.ps.observation.SampleMeasure#1612861249145#0.8349959676361562",
      "topiaCreateDate": "2021-02-09T10:00:22.984Z",
      "lastUpdateDate": "2021-02-09T10:00:43.808Z",
      "homeId": null,
      "length": 13.0,
      "isLengthComputed": false,
      "picturesReferences": null,
      "weight": 14.0,
      "isWeightComputed": false,
      "count": 1.0,
      "acquisitionMode": 1.0,
      "tagNumber": "2",
      "species": "fr.ird.referential.common.Species#1239832685477#0.5989181185528589",
      "sex": "fr.ird.referential.common.Sex#1239832686121#0.0",
      "speciesFate": "fr.ird.referential.ps.common.SpeciesFate#1239832683619#0.5722739932065866",
      "sizeMeasureType": "fr.ird.referential.common.SizeMeasureType#1433499465700#0.0902433863375336",
      "weightMeasureType": "fr.ird.referential.common.WeightMeasureType#1239832686139#0.2",
      "weightMeasureMethod": "fr.ird.referential.common.WeightMeasureMethod#666#02",
      "sizeMeasureMethod": "fr.ird.referential.common.SizeMeasureMethod#666#01"
    }
  ]
}