{
  "homeId": "String",
  "length": "Float",
  "proportion": "Integer",
  "tracelineLength": "Float",
  "topType": "fr.ird.observe.entities.referential.ll.common.LineType",
  "tracelineType": "fr.ird.observe.entities.referential.ll.common.LineType"
}