{
  "code": "String",
  "uri": "String",
  "homeId": "String",
  "needComment": "boolean",
  "status": "enum:fr.ird.observe.dto.referential.ReferenceStatus:[disabled, enabled]",
  "label1": "String",
  "label2": "String",
  "label3": "String",
  "label4": "String",
  "label5": "String",
  "label6": "String",
  "label7": "String",
  "label8": "String",
  "discard": "Boolean",
  "weightRangeAllowed": "boolean",
  "observation": "boolean",
  "logbook": "boolean"
}