{
  "homeId": "String",
  "comment": "String",
  "catchWeight": "Float",
  "catchWeightComputedSource": "enum:fr.ird.observe.dto.data.ps.CatchComputedValueSource:[fromData, fromSample, fromReferentiel]",
  "minWeight": "Float",
  "meanWeight": "Float",
  "maxWeight": "Float",
  "meanWeightComputedSource": "enum:fr.ird.observe.dto.data.ps.CatchComputedValueSource:[fromData, fromSample, fromReferentiel]",
  "meanLength": "Float",
  "meanLengthComputedSource": "enum:fr.ird.observe.dto.data.ps.CatchComputedValueSource:[fromData, fromSample, fromReferentiel]",
  "totalCount": "Integer",
  "totalCountComputedSource": "enum:fr.ird.observe.dto.data.ps.CatchComputedValueSource:[fromData, fromSample, fromReferentiel]",
  "well": "String",
  "reasonForDiscard": "fr.ird.observe.entities.referential.ps.observation.ReasonForDiscard",
  "informationSource": "fr.ird.observe.entities.referential.ps.observation.InformationSource",
  "species": "fr.ird.observe.entities.referential.common.Species",
  "weightMeasureMethod": "fr.ird.observe.entities.referential.common.WeightMeasureMethod",
  "sizeMeasureMethod": "fr.ird.observe.entities.referential.common.SizeMeasureMethod",
  "speciesFate": "fr.ird.observe.entities.referential.ps.common.SpeciesFate"
}