{
  "code": "I",
  "uri": null,
  "homeId": null,
  "needComment": false,
  "status": "enabled",
  "label1": "Unacceptable",
  "label2": "Inacceptable",
  "label3": "Inaceptable",
  "label4": null,
  "label5": null,
  "label6": null,
  "label7": null,
  "label8": null
}