{
  "url": "/api/public/referential/ps/observation/NonTargetCatchReleaseStatus/fr.ird.referential.ps.observation.NonTargetCatchReleaseStatus-0-5",
  "method": "GET",
  "headers": {
    "authenticationToken": "XXX"
  },
  "parameters": {
    "config.recursive": "true",
    "config.prettyPrint": "true",
    "config.serializeNulls": "true"
  }
}