{
  "url": "/api/public/referential/ps/logbook/WellContentStatus",
  "method": "GET",
  "headers": {
    "authenticationToken": "XXX"
  },
  "parameters": {
    "config.recursive": "true",
    "config.prettyPrint": "true",
    "config.serializeNulls": "true",
    "filters.code": "1"
  }
}