{
  "url": "/api/public/referential/ps/logbook/WellSamplingConformity/fr.ird.referential.ps.logbook.WellSamplingConformity-1464000000000-01",
  "method": "DELETE",
  "headers": {
    "authenticationToken": "XXX"
  },
  "parameters": {}
}