{
  "homeId": "String",
  "length": "Float",
  "isLengthComputed": "boolean",
  "picturesReferences": "String",
  "weight": "Float",
  "isWeightComputed": "boolean",
  "count": "Integer",
  "acquisitionMode": "int",
  "tagNumber": "String",
  "species": "fr.ird.observe.entities.referential.common.Species",
  "sex": "fr.ird.observe.entities.referential.common.Sex",
  "speciesFate": "fr.ird.observe.entities.referential.ps.common.SpeciesFate",
  "sizeMeasureType": "fr.ird.observe.entities.referential.common.SizeMeasureType",
  "weightMeasureType": "fr.ird.observe.entities.referential.common.WeightMeasureType",
  "weightMeasureMethod": "fr.ird.observe.entities.referential.common.WeightMeasureMethod",
  "sizeMeasureMethod": "fr.ird.observe.entities.referential.common.SizeMeasureMethod"
}