{
  "url": "/api/public/referential/common/Sex/fr.ird.referential.common.Sex-1239832686121-0.0",
  "method": "GET",
  "headers": {
    "authenticationToken": "XXX"
  },
  "parameters": {
    "config.recursive": "true",
    "config.prettyPrint": "true",
    "config.serializeNulls": "true"
  }
}