{
  "path": "fr.ird.observe.navigation.tree.navigation.RootNavigationTreeNode:fr.ird.data.ll.landing.LandingPart#1609975393941#0.412674413528293",
  "content": [
    {
      "topiaId": "fr.ird.data.ll.landing.LandingPart#1609975393941#0.412674413528293",
      "topiaCreateDate": "2021-01-06T23:23:13.000Z",
      "lastUpdateDate": "2021-01-06T23:23:13.000Z",
      "homeId": "FINSS-00022051",
      "species": "fr.ird.referential.common.Species#1603361174123#0.4481382481686691",
      "dataQuality": null,
      "categoryMin": null,
      "categoryMax": null,
      "onBoardProcessing": "fr.ird.referential.ll.common.OnBoardProcessing#1464000000000#0.3",
      "conservation": null,
      "count": null,
      "weight": 312.9,
      "weightMeasureMethod": "fr.ird.referential.common.WeightMeasureMethod#666#01"
    }
  ]
}