{
  "path": "fr.ird.observe.navigation.tree.navigation.referential.ps.logbook.InformationSourceNavigationTreeNode:fr.ird.referential.ps.logbook.InformationSource#1464000000000#01",
  "content": [
    {
      "topiaId": "fr.ird.referential.ps.logbook.InformationSource#1464000000000#01",
      "topiaCreateDate": "2021-09-17T00:00:00.000Z",
      "lastUpdateDate": "2021-09-17T00:00:00.000Z",
      "code": "A",
      "uri": null,
      "homeId": null,
      "needComment": false,
      "status": "enabled",
      "label1": "AVDTH migration",
      "label2": "Migration AVDTH",
      "label3": "Migración de AVDTH",
      "label4": null,
      "label5": null,
      "label6": null,
      "label7": null,
      "label8": null
    }
  ]
}