{
  "url": "/api/public/referential/common/SpeciesList/fr.ird.referential.common.SpeciesList-1239832675370-0.2",
  "method": "DELETE",
  "headers": {
    "authenticationToken": "XXX"
  },
  "parameters": {}
}