{
  "url": "/api/public/referential/ps/common/AcquisitionStatus/fr.ird.referential.ps.common.AcquisitionStatus-1464000000000-001",
  "method": "DELETE",
  "headers": {
    "authenticationToken": "XXX"
  },
  "parameters": {}
}