{
  "path": "fr.ird.observe.navigation.tree.navigation.referential.ps.common.ReasonForNullSetNavigationTreeNode:fr.ird.referential.ps.common.ReasonForNullSet#1239832683529#0.10743661058036036",
  "content": [
    {
      "topiaId": "fr.ird.referential.ps.common.ReasonForNullSet#1239832683529#0.10743661058036036",
      "topiaCreateDate": "2009-04-15T00:00:00.000Z",
      "lastUpdateDate": "2017-11-16T16:22:20.729Z",
      "code": "0",
      "uri": null,
      "homeId": null,
      "needComment": false,
      "status": "enabled",
      "label1": "Unknown",
      "label2": "Inconnue",
      "label3": "Inconnue",
      "label4": null,
      "label5": null,
      "label6": null,
      "label7": null,
      "label8": null
    }
  ]
}