{
  "path": "fr.ird.observe.navigation.tree.navigation.referential.ll.common.TripTypeNavigationTreeNode:fr.ird.referential.ll.common.TripType#1464000000000#01",
  "content": [
    {
      "topiaId": "fr.ird.referential.ll.common.TripType#1464000000000#01",
      "topiaCreateDate": "2020-10-01T00:00:00.000Z",
      "lastUpdateDate": "2020-10-01T00:00:00.000Z",
      "code": "SC",
      "uri": null,
      "homeId": null,
      "needComment": false,
      "status": "enabled",
      "label1": "Scientific trip",
      "label2": "Marée scientifique",
      "label3": "Marea experimental",
      "label4": null,
      "label5": null,
      "label6": null,
      "label7": null,
      "label8": null
    }
  ]
}