{
  "url": "/api/public/referential/common/LengthLengthParameter/fr.ird.referential.common.LengthLengthParameter-1464000000000-0",
  "method": "DELETE",
  "headers": {
    "authenticationToken": "XXX"
  },
  "parameters": {}
}