{
  "url": "/api/public/referential/ll/landing/Company/fr.ird.referential.ll.landing.Company-1464000000000-0.01",
  "method": "GET",
  "headers": {
    "authenticationToken": "XXX"
  },
  "parameters": {
    "config.recursive": "true",
    "config.prettyPrint": "true",
    "config.serializeNulls": "true"
  }
}