{
  "homeId": "String",
  "startDate": "Date",
  "endDate": "Date",
  "formsUrl": "String",
  "reportsUrl": "String",
  "historicalData": "boolean",
  "ersId": "String",
  "ocean": "fr.ird.observe.entities.referential.common.Ocean",
  "timeAtSea": "Integer",
  "fishingTime": "Integer",
  "landingTotalWeight": "Float",
  "localMarketTotalWeight": "Float",
  "loch": "Integer",
  "generalComment": "String",
  "observationsComment": "String",
  "logbookComment": "String",
  "gearUseFeatures": "java.util.Set:fr.ird.observe.entities.data.ps.common.GearUseFeatures",
  "routeObs": "java.util.Set:fr.ird.observe.entities.data.ps.observation.Route",
  "routeLogbook": "java.util.Set:fr.ird.observe.entities.data.ps.logbook.Route",
  "well": "java.util.Set:fr.ird.observe.entities.data.ps.logbook.Well",
  "sample": "java.util.Set:fr.ird.observe.entities.data.ps.logbook.Sample",
  "landing": "java.util.List:fr.ird.observe.entities.data.ps.landing.Landing",
  "localmarketBatch": "java.util.Set:fr.ird.observe.entities.data.ps.localmarket.Batch",
  "localmarketSurvey": "java.util.Set:fr.ird.observe.entities.data.ps.localmarket.Survey",
  "localmarketSample": "java.util.Set:fr.ird.observe.entities.data.ps.localmarket.Sample",
  "vessel": "fr.ird.observe.entities.referential.common.Vessel",
  "observationsProgram": "fr.ird.observe.entities.referential.ps.common.Program",
  "logbookProgram": "fr.ird.observe.entities.referential.ps.common.Program",
  "observer": "fr.ird.observe.entities.referential.common.Person",
  "captain": "fr.ird.observe.entities.referential.common.Person",
  "observationsDataEntryOperator": "fr.ird.observe.entities.referential.common.Person",
  "logbookDataEntryOperator": "fr.ird.observe.entities.referential.common.Person",
  "departureHarbour": "fr.ird.observe.entities.referential.common.Harbour",
  "landingHarbour": "fr.ird.observe.entities.referential.common.Harbour",
  "observationsDataQuality": "fr.ird.observe.entities.referential.common.DataQuality",
  "logbookDataQuality": "fr.ird.observe.entities.referential.common.DataQuality",
  "departureWellContentStatus": "fr.ird.observe.entities.referential.ps.logbook.WellContentStatus",
  "landingWellContentStatus": "fr.ird.observe.entities.referential.ps.logbook.WellContentStatus",
  "observationsAcquisitionStatus": "fr.ird.observe.entities.referential.ps.common.AcquisitionStatus",
  "logbookAcquisitionStatus": "fr.ird.observe.entities.referential.ps.common.AcquisitionStatus",
  "targetWellsSamplingAcquisitionStatus": "fr.ird.observe.entities.referential.ps.common.AcquisitionStatus",
  "landingAcquisitionStatus": "fr.ird.observe.entities.referential.ps.common.AcquisitionStatus",
  "localMarketAcquisitionStatus": "fr.ird.observe.entities.referential.ps.common.AcquisitionStatus",
  "localMarketWellsSamplingAcquisitionStatus": "fr.ird.observe.entities.referential.ps.common.AcquisitionStatus",
  "localMarketSurveySamplingAcquisitionStatus": "fr.ird.observe.entities.referential.ps.common.AcquisitionStatus",
  "advancedSamplingAcquisitionStatus": "fr.ird.observe.entities.referential.ps.common.AcquisitionStatus",
  "activitiesAcquisitionMode": "enum:fr.ird.observe.dto.data.ps.ActivitiesAcquisitionMode:[BY_NUMBER, BY_TIME]"
}