{
  "url": "/api/public/referential/ps/landing/Fate",
  "method": "POST",
  "headers": {
    "authenticationToken": "XXX",
    "Content-Type": "application/json"
  },
  "parameters": {},
  "payload": {
    "code": "1",
    "uri": null,
    "homeId": null,
    "needComment": false,
    "status": "enabled",
    "label1": "Processed",
    "label2": "Traité",
    "label3": "Procesado",
    "label4": null,
    "label5": null,
    "label6": null,
    "label7": null,
    "label8": null,
    "discard": false
  }
}