{
  "url": "/api/public/referential/ps/common/ReasonForNoFishing/fr.ird.referential.ps.common.ReasonForNoFishing-1239832683550-0.5793978455280235",
  "method": "DELETE",
  "headers": {
    "authenticationToken": "XXX"
  },
  "parameters": {}
}