{
  "path": "fr.ird.observe.navigation.tree.navigation.referential.ps.common.ReasonForNoFishingNavigationTreeNode",
  "content": [
    {
      "topiaId": "fr.ird.referential.ps.common.ReasonForNoFishing#1239832683550#0.5793978455280235",
      "topiaCreateDate": "2009-04-15T00:00:00.000Z",
      "lastUpdateDate": "2017-11-16T16:11:42.902Z",
      "code": "0",
      "uri": null,
      "homeId": null,
      "needComment": false,
      "status": "enabled",
      "label1": "Nothing to be signalled (not observed)",
      "label2": "Rien à signaler (pas d'observation)",
      "label3": "Rien à signaler (pas d'observation)",
      "label4": null,
      "label5": null,
      "label6": null,
      "label7": null,
      "label8": null
    },
    {
      "topiaId": "fr.ird.referential.ps.common.ReasonForNoFishing#1239832683551#0.9835503687831603",
      "topiaCreateDate": "2009-04-15T00:00:00.001Z",
      "lastUpdateDate": "2017-11-16T16:11:50.158Z",
      "code": "1",
      "uri": null,
      "homeId": null,
      "needComment": false,
      "status": "enabled",
      "label1": "School too small",
      "label2": "Banc trop petit",
      "label3": "Banc trop petit",
      "label4": null,
      "label5": null,
      "label6": null,
      "label7": null,
      "label8": null
    }
  ]
}