{
  "url": "/api/public/referential/ps/common/Program",
  "method": "POST",
  "headers": {
    "authenticationToken": "XXX",
    "Content-Type": "application/json"
  },
  "parameters": {},
  "payload": {
    "code": "9",
    "uri": null,
    "homeId": null,
    "needComment": false,
    "status": "enabled",
    "label1": "Indéterminé (IRD)",
    "label2": "Indéterminé (IRD)",
    "label3": "Indéterminé (IRD)",
    "label4": null,
    "label5": null,
    "label6": null,
    "label7": null,
    "label8": null,
    "organism": "fr.ird.referential.common.Organism#1267835067241#0.6705236825871838",
    "startDate": null,
    "endDate": null,
    "comment": null,
    "observation": true,
    "logbook": true
  }
}