{
  "path": "fr.ird.observe.navigation.tree.navigation.referential.ps.common.ProgramNavigationTreeNode",
  "content": [
    {
      "topiaId": "fr.ird.referential.ps.common.Program#1539251726380#0.8022101576807099",
      "topiaCreateDate": "2018-10-11T11:54:44.663Z",
      "lastUpdateDate": "2021-09-17T00:00:00.000Z",
      "code": null,
      "uri": null,
      "homeId": null,
      "needComment": false,
      "status": "enabled",
      "label1": "DCF Seine (OD)",
      "label2": "DCF Senne (OD)",
      "label3": "DCF Seine (OD)",
      "label4": null,
      "label5": null,
      "label6": null,
      "label7": null,
      "label8": null,
      "organism": "fr.ird.referential.common.Organism#1267835067241#0.6705236825871838",
      "startDate": null,
      "endDate": null,
      "comment": null,
      "observation": true,
      "logbook": false
    },
    {
      "topiaId": "fr.ird.referential.ps.common.Program#1539949992432#0.4308822110391043",
      "topiaCreateDate": "2018-10-19T13:51:57.160Z",
      "lastUpdateDate": "2021-09-17T00:00:00.000Z",
      "code": null,
      "uri": null,
      "homeId": null,
      "needComment": false,
      "status": "enabled",
      "label1": "OOE (OD)",
      "label2": "OOE (OD)",
      "label3": "OOE (OD)",
      "label4": null,
      "label5": null,
      "label6": null,
      "label7": null,
      "label8": null,
      "organism": "fr.ird.referential.common.Organism#1539251468084#0.4304283149693777",
      "startDate": "2018-10-01T00:00:00.000Z",
      "endDate": null,
      "comment": null,
      "observation": true,
      "logbook": false
    }
  ]
}