{
  "topiaId": "fr.ird.referential.common.Person#1433500174886#0.521677529672161",
  "topiaCreateDate": "2015-06-05T14:29:34.891Z",
  "lastUpdateDate": "2021-09-17T00:00:00.000Z",
  "code": "0",
  "uri": null,
  "homeId": null,
  "needComment": false,
  "status": "enabled",
  "lastName": "Romanova",
  "firstName": "Natalya",
  "observer": false,
  "captain": false,
  "dataEntryOperator": true,
  "dataSource": false,
  "psSampler": false,
  "country": "fr.ird.referential.common.Country#1308140312730#0.23814082967457195"
}