{
  "url": "/api/public/referential/common/Person/fr.ird.referential.common.Person-1433500174886-0.521677529672161",
  "method": "GET",
  "headers": {
    "authenticationToken": "XXX"
  },
  "parameters": {
    "config.recursive": "true",
    "config.prettyPrint": "true",
    "config.serializeNulls": "true"
  }
}