{
  "url": "/api/public/referential/common/Person",
  "method": "GET",
  "headers": {
    "authenticationToken": "XXX"
  },
  "parameters": {
    "config.recursive": "true",
    "config.prettyPrint": "true",
    "config.serializeNulls": "true",
    "filters.lastName": "Romanova",
    "filters.firstName": "Natalya"
  }
}