{
  "topiaId": "fr.ird.referential.common.Ocean#1239832686151#0.17595105505051245",
  "topiaCreateDate": "2009-04-15T00:00:00.000Z",
  "lastUpdateDate": "2021-09-17T00:00:00.000Z",
  "code": "1",
  "uri": null,
  "homeId": null,
  "needComment": false,
  "status": "enabled",
  "label1": "Atlantic",
  "label2": "Atlantique",
  "label3": "Atlántico",
  "label4": null,
  "label5": null,
  "label6": null,
  "label7": null,
  "label8": null,
  "northEastAllowed": true,
  "southEastAllowed": true,
  "southWestAllowed": true,
  "northWestAllowed": true
}