{
  "url": "/api/public/referential/common/Ocean",
  "method": "POST",
  "headers": {
    "authenticationToken": "XXX",
    "Content-Type": "application/json"
  },
  "parameters": {},
  "payload": {
    "code": "1",
    "uri": null,
    "homeId": null,
    "needComment": false,
    "status": "enabled",
    "label1": "Atlantic",
    "label2": "Atlantique",
    "label3": "Atlántico",
    "label4": null,
    "label5": null,
    "label6": null,
    "label7": null,
    "label8": null,
    "northEastAllowed": true,
    "southEastAllowed": true,
    "southWestAllowed": true,
    "northWestAllowed": true
  }
}