{
  "url": "/api/public/referential/common/Harbour/fr.ird.referential.common.Harbour-11-0.7",
  "method": "GET",
  "headers": {
    "authenticationToken": "XXX"
  },
  "parameters": {
    "config.recursive": "true",
    "config.prettyPrint": "true",
    "config.serializeNulls": "true"
  }
}