{
  "path": "fr.ird.observe.navigation.tree.navigation.data.ll.logbook.SetNavigationTreeNode:fr.ird.data.ll.logbook.Set#1464000000000#0.01093484",
  "content": [
    {
      "topiaId": "fr.ird.data.ll.logbook.Set#1464000000000#0.01093484",
      "topiaCreateDate": "2021-01-05T03:40:31.000Z",
      "lastUpdateDate": "2021-05-01T10:22:25.226Z",
      "homeId": "FINSS-1093484",
      "comment": null,
      "number": null,
      "basketsPerSectionCount": null,
      "branchlinesPerBasketCount": null,
      "totalSectionsCount": null,
      "totalBasketsCount": null,
      "totalHooksCount": null,
      "lightsticksPerBasketCount": null,
      "totalLightsticksCount": null,
      "weightedSnap": false,
      "snapWeight": null,
      "weightedSwivel": false,
      "swivelWeight": null,
      "timeBetweenHooks": null,
      "shooterUsed": false,
      "shooterSpeed": null,
      "maxDepthTargeted": null,
      "settingStartTimeStamp": "2018-08-16T14:15:00.000Z",
      "settingStartLatitude": -2.116667,
      "settingStartLongitude": 55.05,
      "settingEndTimeStamp": null,
      "settingEndLatitude": null,
      "settingEndLongitude": null,
      "settingVesselSpeed": null,
      "haulingDirectionSameAsSetting": null,
      "haulingStartTimeStamp": null,
      "haulingStartLatitude": null,
      "haulingStartLongitude": null,
      "haulingEndTimeStamp": "2018-08-16T18:02:00.000Z",
      "haulingEndLatitude": -1.65,
      "haulingEndLongitude": 54.816666,
      "haulingBreaks": null,
      "monitored": false,
      "totalLineLength": null,
      "basketLineLength": null,
      "lengthBetweenBranchlines": null,
      "baitsComposition": [
        {
          "topiaId": "fr.ird.data.ll.logbook.BaitsComposition#1619857303896#0.6134138605054349",
          "topiaCreateDate": "2021-05-01T10:21:09.867Z",
          "lastUpdateDate": "2021-05-01T10:21:43.889Z",
          "homeId": null,
          "proportion": 34.0,
          "individualSize": 1.0,
          "individualWeight": 0.49,
          "baitSettingStatus": "fr.ird.referential.ll.common.BaitSettingStatus#1239832686123#0.1",
          "baitType": "fr.ird.referential.ll.common.BaitType#1239832686124#0.1"
        },
        {
          "topiaId": "fr.ird.data.ll.logbook.BaitsComposition#1619857303906#0.0664527281048275",
          "topiaCreateDate": "2021-05-01T10:21:25.410Z",
          "lastUpdateDate": "2021-05-01T10:21:43.889Z",
          "homeId": null,
          "proportion": 66.0,
          "individualSize": 2.0,
          "individualWeight": 1.0,
          "baitSettingStatus": "fr.ird.referential.ll.common.BaitSettingStatus#1239832686123#0.3",
          "baitType": "fr.ird.referential.ll.common.BaitType#1239832686124#1.0"
        }
      ],
      "floatlinesComposition": [
        {
          "topiaId": "fr.ird.data.ll.logbook.FloatlinesComposition#1619857303907#0.32805502665532116",
          "topiaCreateDate": "2021-05-01T10:20:06.339Z",
          "lastUpdateDate": "2021-05-01T10:21:43.890Z",
          "homeId": null,
          "length": 12.0,
          "proportion": 90.0,
          "lineType": "fr.ird.referential.ll.common.LineType#1239832686157#0.9"
        },
        {
          "topiaId": "fr.ird.data.ll.logbook.FloatlinesComposition#1619857303907#0.5309737173581921",
          "topiaCreateDate": "2021-05-01T10:20:11.978Z",
          "lastUpdateDate": "2021-05-01T10:21:43.890Z",
          "homeId": null,
          "length": 1.0,
          "proportion": 10.0,
          "lineType": "fr.ird.referential.ll.common.LineType#1239832686157#0.9"
        }
      ],
      "hooksComposition": [
        {
          "topiaId": "fr.ird.data.ll.logbook.HooksComposition#1619857303907#0.654348861131534",
          "topiaCreateDate": "2021-05-01T10:20:45.734Z",
          "lastUpdateDate": "2021-05-01T10:21:43.890Z",
          "homeId": null,
          "proportion": 23.0,
          "hookOffset": 12.0,
          "hookType": "fr.ird.referential.ll.common.HookType#1433499457247#0.796845980919898",
          "hookSize": "fr.ird.referential.ll.common.HookSize#1239832686151#0.2"
        },
        {
          "topiaId": "fr.ird.data.ll.logbook.HooksComposition#1619857303908#0.403981338233389",
          "topiaCreateDate": "2021-05-01T10:20:52.481Z",
          "lastUpdateDate": "2021-05-01T10:21:43.890Z",
          "homeId": null,
          "proportion": 77.0,
          "hookOffset": 1.0,
          "hookType": "fr.ird.referential.ll.common.HookType#1239832686152#0.5",
          "hookSize": "fr.ird.referential.ll.common.HookSize#1239832686151#0.3"
        }
      ],
      "settingShape": null,
      "catches": [
        {
          "topiaId": "fr.ird.data.ll.logbook.Catch#1609949762034#0.172401036834344",
          "topiaCreateDate": "2021-01-06T16:16:02.000Z",
          "lastUpdateDate": "2021-01-06T16:16:02.000Z",
          "homeId": "FINSS-01110090",
          "comment": null,
          "count": 1.0,
          "totalWeight": 18.0,
          "hookWhenDiscarded": false,
          "depredated": true,
          "beatDiameter": 12.0,
          "photoReferences": null,
          "number": null,
          "acquisitionMode": 1.0,
          "countDepredated": 1.0,
          "depredatedProportion": 33.0,
          "tagNumber": null,
          "catchFate": "fr.ird.referential.ll.common.CatchFate#1239832686125#0.2",
          "discardHealthStatus": null,
          "species": "fr.ird.referential.common.Species#1239832685474#0.8943253454598569",
          "predator": [
            "fr.ird.referential.common.Species#1433499245237#0.58819441543892",
            "fr.ird.referential.common.Species#1433499258033#0.552436746191233"
          ],
          "catchHealthStatus": "fr.ird.referential.ll.common.HealthStatus#1239832686128#0.4",
          "onBoardProcessing": "fr.ird.referential.ll.common.OnBoardProcessing#1464000000000#0.3",
          "weightMeasureMethod": "fr.ird.referential.common.WeightMeasureMethod#666#03"
        },
        {
          "topiaId": "fr.ird.data.ll.logbook.Catch#1609949762055#0.0801979571115226",
          "topiaCreateDate": "2021-01-06T16:16:02.000Z",
          "lastUpdateDate": "2021-01-06T16:16:02.000Z",
          "homeId": "FINSS-01110091",
          "comment": null,
          "count": 1.0,
          "totalWeight": 6.0,
          "hookWhenDiscarded": false,
          "depredated": false,
          "beatDiameter": null,
          "photoReferences": null,
          "number": null,
          "acquisitionMode": 1.0,
          "countDepredated": null,
          "depredatedProportion": null,
          "tagNumber": null,
          "catchFate": "fr.ird.referential.ll.common.CatchFate#1239832686125#0.2",
          "discardHealthStatus": null,
          "species": "fr.ird.referential.common.Species#1239832683725#0.39445809291491807",
          "predator": [],
          "catchHealthStatus": "fr.ird.referential.ll.common.HealthStatus#1239832686128#0.4",
          "onBoardProcessing": "fr.ird.referential.ll.common.OnBoardProcessing#1464000000000#0.3",
          "weightMeasureMethod": "fr.ird.referential.common.WeightMeasureMethod#666#03"
        }
      ],
      "lineType": null,
      "lightsticksUsed": false,
      "lightsticksType": null,
      "lightsticksColor": null,
      "mitigationType": [
        "fr.ird.referential.ll.common.MitigationType#1239832686140#0.12",
        "fr.ird.referential.ll.common.MitigationType#1239832686140#0.14"
      ],
      "branchlinesComposition": [
        {
          "topiaId": "fr.ird.data.ll.logbook.BranchlinesComposition#1619857303908#0.463973082762536",
          "topiaCreateDate": "2021-05-01T10:20:26.243Z",
          "lastUpdateDate": "2021-05-01T10:21:43.890Z",
          "homeId": null,
          "length": 12.0,
          "proportion": 97.0,
          "tracelineLength": null,
          "topType": "fr.ird.referential.ll.common.LineType#1239832686157#0.9",
          "tracelineType": "fr.ird.referential.ll.common.LineType#1239832686157#0.9"
        },
        {
          "topiaId": "fr.ird.data.ll.logbook.BranchlinesComposition#1619857303908#0.44387553791115864",
          "topiaCreateDate": "2021-05-01T10:20:32.459Z",
          "lastUpdateDate": "2021-05-01T10:21:43.890Z",
          "homeId": null,
          "length": 1.0,
          "proportion": 3.0,
          "tracelineLength": null,
          "topType": "fr.ird.referential.ll.common.LineType#1239832686157#0.5",
          "tracelineType": "fr.ird.referential.ll.common.LineType#1239832686157#0.6"
        }
      ]
    }
  ]
}