{
  "url": "/api/public/referential/common/ShipOwner/fr.ird.referential.common.ShipOwner-0-0",
  "method": "PUT",
  "headers": {
    "authenticationToken": "XXX",
    "Content-Type": "application/json"
  },
  "parameters": {},
  "payload": {
    "code": "1",
    "uri": null,
    "homeId": null,
    "needComment": false,
    "status": "enabled",
    "label": "SAUPIQUET",
    "startDate": null,
    "endDate": null,
    "country": "fr.ird.referential.common.Country#1239832675583#0.9493110781716075"
  }
}