{
  "url": "/api/public/referential/ps/landing/Fate/fr.ird.referential.ps.landing.Fate-1464000000000-01",
  "method": "DELETE",
  "headers": {
    "authenticationToken": "XXX"
  },
  "parameters": {}
}