{
  "url": "/api/public/referential/ll/landing/DataSource/fr.ird.referential.ll.landing.DataSource-666-01",
  "method": "DELETE",
  "headers": {
    "authenticationToken": "XXX"
  },
  "parameters": {}
}