{
  "url": "/api/public/referential/ps/observation/DetectionMode/fr.ird.referential.ps.observation.DetectionMode-1239832686122-0.047471332037872016",
  "method": "GET",
  "headers": {
    "authenticationToken": "XXX"
  },
  "parameters": {
    "config.recursive": "true",
    "config.prettyPrint": "true",
    "config.serializeNulls": "true"
  }
}