{
  "path": "fr.ird.observe.navigation.tree.navigation.referential.ll.observation.SensorDataFormatNavigationTreeNode:fr.ird.referential.ll.observation.SensorDataFormat#1239832686137#0.1",
  "content": [
    {
      "topiaId": "fr.ird.referential.ll.observation.SensorDataFormat#1239832686137#0.1",
      "topiaCreateDate": "2014-12-11T00:00:00.000Z",
      "lastUpdateDate": "2016-12-06T15:54:27.727Z",
      "code": "TXT",
      "uri": null,
      "homeId": null,
      "needComment": true,
      "status": "enabled",
      "label1": "Text file",
      "label2": "Fichier texte",
      "label3": "Text file",
      "label4": null,
      "label5": null,
      "label6": null,
      "label7": null,
      "label8": null
    }
  ]
}