{
  "url": "/api/public/init/open",
  "method": "GET",
  "headers": {},
  "parameters": {
    "config.modelVersion": "${_config.modelVersion}",
    "config.login": "${_config.login}",
    "config.password": "${_config.password}",
    "config.databaseName": "${_config.databaseName}",
    "referentialLocale": "${_referentialLocale}"
  }
}