{
  "url": "/api/public/referential/ll/observation/ItemVerticalPosition/fr.ird.referential.ll.observation.ItemVerticalPosition-1239832686154-0.1",
  "method": "GET",
  "headers": {
    "authenticationToken": "XXX"
  },
  "parameters": {
    "config.recursive": "true",
    "config.prettyPrint": "true",
    "config.serializeNulls": "true"
  }
}