{
  "url": "/api/public/referential/common/GearCharacteristic",
  "method": "GET",
  "headers": {
    "authenticationToken": "XXX"
  },
  "parameters": {
    "config.recursive": "true",
    "config.prettyPrint": "true",
    "config.serializeNulls": "true",
    "properties.code": "1"
  }
}