{
  "content": {
    "fr.ird.observe.entities.referential.ll.common.BaitSettingStatus": [
      {
        "topiaId": "fr.ird.referential.ll.common.BaitSettingStatus#1239832686123#0.2",
        "topiaCreateDate": "2014-07-26T00:00:00.000Z",
        "lastUpdateDate": "2016-12-06T15:54:27.727Z",
        "code": "DEF",
        "uri": null,
        "homeId": null,
        "needComment": false,
        "status": "enabled",
        "label1": "Defrosted",
        "label2": "Décongelé",
        "label3": "Defrosted",
        "label4": null,
        "label5": null,
        "label6": null,
        "label7": null,
        "label8": null
      },
      {
        "topiaId": "fr.ird.referential.ll.common.BaitSettingStatus#1239832686123#0.3",
        "topiaCreateDate": "2014-07-26T00:00:00.000Z",
        "lastUpdateDate": "2016-12-06T15:54:27.727Z",
        "code": "FRE",
        "uri": null,
        "homeId": null,
        "needComment": false,
        "status": "enabled",
        "label1": "Fresh",
        "label2": "Frais",
        "label3": "Fresh",
        "label4": null,
        "label5": null,
        "label6": null,
        "label7": null,
        "label8": null
      }
    ],
    "fr.ird.observe.entities.referential.ll.common.BaitType": [
      {
        "topiaId": "fr.ird.referential.ll.common.BaitType#1239832686124#0.1",
        "topiaCreateDate": "2014-07-26T00:00:00.000Z",
        "lastUpdateDate": "2016-12-06T15:54:27.727Z",
        "code": "ARR",
        "uri": null,
        "homeId": null,
        "needComment": false,
        "status": "enabled",
        "label1": "Artificial fish",
        "label2": "Poisson artificiel",
        "label3": "Artificial fish",
        "label4": null,
        "label5": null,
        "label6": null,
        "label7": null,
        "label8": null
      },
      {
        "topiaId": "fr.ird.referential.ll.common.BaitType#1433499459394#0.0606418340466917",
        "topiaCreateDate": "2015-06-05T00:00:00.000Z",
        "lastUpdateDate": "2016-12-06T15:54:27.727Z",
        "code": "ARS",
        "uri": null,
        "homeId": null,
        "needComment": false,
        "status": "enabled",
        "label1": "Artificial squid",
        "label2": "Calamar artificiel",
        "label3": "Artificial squid",
        "label4": null,
        "label5": null,
        "label6": null,
        "label7": null,
        "label8": null
      }
    ],
    "fr.ird.observe.entities.referential.ll.common.CatchFate": [
      {
        "topiaId": "fr.ird.referential.ll.common.CatchFate#1239832686125#0.3",
        "topiaCreateDate": "2014-07-26T00:00:00.000Z",
        "lastUpdateDate": "2023-07-20T00:00:00.000Z",
        "code": "DISC",
        "uri": null,
        "homeId": null,
        "needComment": false,
        "status": "enabled",
        "label1": "Discarded",
        "label2": "Rejeté",
        "label3": "Discarded",
        "label4": null,
        "label5": null,
        "label6": null,
        "label7": null,
        "label8": null,
        "observation": true,
        "logbook": true
      },
      {
        "topiaId": "fr.ird.referential.ll.common.CatchFate#1239832686125#0.4",
        "topiaCreateDate": "2014-07-26T00:00:00.000Z",
        "lastUpdateDate": "2023-07-20T00:00:00.000Z",
        "code": "ESC",
        "uri": null,
        "homeId": null,
        "needComment": false,
        "status": "enabled",
        "label1": "Escaped",
        "label2": "Echappé",
        "label3": "Escaped",
        "label4": null,
        "label5": null,
        "label6": null,
        "label7": null,
        "label8": null,
        "observation": true,
        "logbook": true
      }
    ],
    "fr.ird.observe.entities.referential.ll.common.HealthStatus": [
      {
        "topiaId": "fr.ird.referential.ll.common.HealthStatus#1239832686128#0.1",
        "topiaCreateDate": "2014-07-26T00:00:00.000Z",
        "lastUpdateDate": "2016-12-06T15:54:27.727Z",
        "code": "A",
        "uri": null,
        "homeId": null,
        "needComment": false,
        "status": "enabled",
        "label1": "Alive",
        "label2": "Vivant",
        "label3": "Alive",
        "label4": null,
        "label5": null,
        "label6": null,
        "label7": null,
        "label8": null
      },
      {
        "topiaId": "fr.ird.referential.ll.common.HealthStatus#1239832686128#0.2",
        "topiaCreateDate": "2014-07-26T00:00:00.000Z",
        "lastUpdateDate": "2016-12-06T15:54:27.727Z",
        "code": "AUSC",
        "uri": null,
        "homeId": null,
        "needComment": false,
        "status": "enabled",
        "label1": "Active but unknown survival chance",
        "label2": "Actif mais survie incertaine",
        "label3": "Active but unknown survival chance",
        "label4": null,
        "label5": null,
        "label6": null,
        "label7": null,
        "label8": null
      }
    ],
    "fr.ird.observe.entities.referential.ll.common.HookSize": [
      {
        "topiaId": "fr.ird.referential.ll.common.HookSize#1239832686151#0.18",
        "topiaCreateDate": "2014-07-26T00:00:00.000Z",
        "lastUpdateDate": "2016-12-06T15:54:27.727Z",
        "code": "1",
        "uri": null,
        "homeId": null,
        "needComment": false,
        "status": "enabled",
        "label1": "1",
        "label2": "1",
        "label3": "1",
        "label4": null,
        "label5": null,
        "label6": null,
        "label7": null,
        "label8": null
      },
      {
        "topiaId": "fr.ird.referential.ll.common.HookSize#1239832686151#0.3",
        "topiaCreateDate": "2014-07-26T00:00:00.000Z",
        "lastUpdateDate": "2016-12-06T15:54:27.727Z",
        "code": "10/0",
        "uri": null,
        "homeId": null,
        "needComment": false,
        "status": "enabled",
        "label1": "10/0",
        "label2": "10/0",
        "label3": "10/0",
        "label4": null,
        "label5": null,
        "label6": null,
        "label7": null,
        "label8": null
      }
    ],
    "fr.ird.observe.entities.referential.ll.common.HookType": [
      {
        "topiaId": "fr.ird.referential.ll.common.HookType#1239832686152#0.1",
        "topiaCreateDate": "2014-07-26T00:00:00.000Z",
        "lastUpdateDate": "2016-12-06T15:54:27.727Z",
        "code": "01",
        "uri": null,
        "homeId": null,
        "needComment": false,
        "status": "enabled",
        "label1": "Circle hook",
        "label2": "Hameçon circulaire (perroquet)",
        "label3": "Circle hook",
        "label4": null,
        "label5": null,
        "label6": null,
        "label7": null,
        "label8": null
      },
      {
        "topiaId": "fr.ird.referential.ll.common.HookType#1239832686152#0.10",
        "topiaCreateDate": "2014-07-26T00:00:00.000Z",
        "lastUpdateDate": "2016-12-06T15:54:27.727Z",
        "code": "02",
        "uri": null,
        "homeId": null,
        "needComment": false,
        "status": "enabled",
        "label1": "Flat shank J hook",
        "label2": "Hameçon américain (en J) à section plate",
        "label3": "Flat shank J hook",
        "label4": null,
        "label5": null,
        "label6": null,
        "label7": null,
        "label8": null
      }
    ],
    "fr.ird.observe.entities.referential.ll.common.LightsticksColor": [
      {
        "topiaId": "fr.ird.referential.ll.common.LightsticksColor#1239832686155#0.3",
        "topiaCreateDate": "2014-07-26T00:00:00.000Z",
        "lastUpdateDate": "2016-12-06T15:54:27.727Z",
        "code": "B",
        "uri": null,
        "homeId": null,
        "needComment": false,
        "status": "enabled",
        "label1": "Blue",
        "label2": "Bleu",
        "label3": "Azul",
        "label4": null,
        "label5": null,
        "label6": null,
        "label7": null,
        "label8": null
      },
      {
        "topiaId": "fr.ird.referential.ll.common.LightsticksColor#1239832686155#0.2",
        "topiaCreateDate": "2014-07-26T00:00:00.000Z",
        "lastUpdateDate": "2016-12-06T15:54:27.727Z",
        "code": "G",
        "uri": null,
        "homeId": null,
        "needComment": false,
        "status": "enabled",
        "label1": "Green",
        "label2": "Vert",
        "label3": "Verde",
        "label4": null,
        "label5": null,
        "label6": null,
        "label7": null,
        "label8": null
      }
    ],
    "fr.ird.observe.entities.referential.ll.common.LightsticksType": [
      {
        "topiaId": "fr.ird.referential.ll.common.LightsticksType#1239832686156#0.1",
        "topiaCreateDate": "2014-07-26T00:00:00.000Z",
        "lastUpdateDate": "2016-12-06T15:54:27.727Z",
        "code": "CH",
        "uri": null,
        "homeId": null,
        "needComment": false,
        "status": "enabled",
        "label1": "Chemical",
        "label2": "Chimique",
        "label3": "Chemical",
        "label4": null,
        "label5": null,
        "label6": null,
        "label7": null,
        "label8": null
      },
      {
        "topiaId": "fr.ird.referential.ll.common.LightsticksType#1239832686156#0.2",
        "topiaCreateDate": "2014-07-26T00:00:00.000Z",
        "lastUpdateDate": "2016-12-06T15:54:27.727Z",
        "code": "EL",
        "uri": null,
        "homeId": null,
        "needComment": false,
        "status": "enabled",
        "label1": "Electrical",
        "label2": "Electrique",
        "label3": "Electrical",
        "label4": null,
        "label5": null,
        "label6": null,
        "label7": null,
        "label8": null
      }
    ],
    "fr.ird.observe.entities.referential.ll.common.LineType": [
      {
        "topiaId": "fr.ird.referential.ll.common.LineType#1239832686157#0.8",
        "topiaCreateDate": "2014-07-26T00:00:00.000Z",
        "lastUpdateDate": "2016-12-06T15:54:27.727Z",
        "code": "3STR",
        "uri": null,
        "homeId": null,
        "needComment": false,
        "status": "enabled",
        "label1": "3 strand tarred rope",
        "label2": "Cordage goudronné à trois torons",
        "label3": "3 strand tarred rope",
        "label4": null,
        "label5": null,
        "label6": null,
        "label7": null,
        "label8": null
      },
      {
        "topiaId": "fr.ird.referential.ll.common.LineType#1239832686157#0.5",
        "topiaCreateDate": "2014-07-26T00:00:00.000Z",
        "lastUpdateDate": "2016-12-06T15:54:27.727Z",
        "code": "GALV",
        "uri": null,
        "homeId": null,
        "needComment": false,
        "status": "enabled",
        "label1": "Galvanized wire",
        "label2": "Câble galvanisé",
        "label3": "Galvanized wire",
        "label4": null,
        "label5": null,
        "label6": null,
        "label7": null,
        "label8": null
      }
    ],
    "fr.ird.observe.entities.referential.ll.common.MitigationType": [
      {
        "topiaId": "fr.ird.referential.ll.common.MitigationType#1239832686140#0.1",
        "topiaCreateDate": "2014-07-26T00:00:00.000Z",
        "lastUpdateDate": "2016-12-06T15:54:27.727Z",
        "code": "01",
        "uri": null,
        "homeId": null,
        "needComment": false,
        "status": "enabled",
        "label1": "Avoiding fishing area",
        "label2": "Abandon d'une zone de pêche",
        "label3": "Avoiding fishing area",
        "label4": null,
        "label5": null,
        "label6": null,
        "label7": null,
        "label8": null
      },
      {
        "topiaId": "fr.ird.referential.ll.common.MitigationType#1239832686140#0.10",
        "topiaCreateDate": "2014-07-26T00:00:00.000Z",
        "lastUpdateDate": "2016-12-06T15:54:27.727Z",
        "code": "02",
        "uri": null,
        "homeId": null,
        "needComment": false,
        "status": "enabled",
        "label1": "Strategic offal discharge",
        "label2": "Limter les rejets de déchets pendant la pêche",
        "label3": "Strategic offal discharge",
        "label4": null,
        "label5": null,
        "label6": null,
        "label7": null,
        "label8": null
      }
    ],
    "fr.ird.observe.entities.referential.ll.common.ObservationMethod": [
      {
        "topiaId": "fr.ird.referential.ll.common.ObservationMethod#1239832686136#0.2",
        "topiaCreateDate": "2014-07-26T00:00:00.000Z",
        "lastUpdateDate": "2017-02-20T15:55:55.155Z",
        "code": "OB",
        "uri": null,
        "homeId": null,
        "needComment": false,
        "status": "enabled",
        "label1": "Observer-monitored commercial cruise",
        "label2": "Marée commerciale avec observateur embarqué",
        "label3": "Observer-monitored commercial cruise",
        "label4": null,
        "label5": null,
        "label6": null,
        "label7": null,
        "label8": null
      },
      {
        "topiaId": "fr.ird.referential.ll.common.ObservationMethod#1239832686136#0.1",
        "topiaCreateDate": "2014-07-26T00:00:00.000Z",
        "lastUpdateDate": "2017-02-20T15:55:51.332Z",
        "code": "SR",
        "uri": null,
        "homeId": null,
        "needComment": false,
        "status": "enabled",
        "label1": "Self-reporting commercial cruise",
        "label2": "Marée commerciale auto-échantillonnée",
        "label3": "Self-reporting commercial cruise",
        "label4": null,
        "label5": null,
        "label6": null,
        "label7": null,
        "label8": null
      }
    ],
    "fr.ird.observe.entities.referential.ll.common.OnBoardProcessing": [
      {
        "topiaId": "fr.ird.referential.ll.common.OnBoardProcessing#1464000000000#0.20",
        "topiaCreateDate": "2020-10-21T00:00:00.000Z",
        "lastUpdateDate": "2020-10-21T00:00:00.000Z",
        "code": "DOGFD",
        "uri": null,
        "homeId": null,
        "needComment": false,
        "status": "enabled",
        "label1": "Fish used for animal feed",
        "label2": "Alimentation pour animal",
        "label3": "Fish used for animal feed #TODO",
        "label4": null,
        "label5": null,
        "label6": null,
        "label7": null,
        "label8": null
      },
      {
        "topiaId": "fr.ird.referential.ll.common.OnBoardProcessing#1464000000000#0.21",
        "topiaCreateDate": "2020-10-21T00:00:00.000Z",
        "lastUpdateDate": "2020-10-21T00:00:00.000Z",
        "code": "DR",
        "uri": null,
        "homeId": null,
        "needComment": false,
        "status": "enabled",
        "label1": "Dried",
        "label2": "Séché",
        "label3": "Dried #TODO",
        "label4": null,
        "label5": null,
        "label6": null,
        "label7": null,
        "label8": null
      }
    ],
    "fr.ird.observe.entities.referential.ll.common.Program": [
      {
        "topiaId": "fr.ird.referential.ll.common.Program#1574078003724#0.7327731619625379",
        "topiaCreateDate": "2019-11-18T12:51:39.226Z",
        "lastUpdateDate": "2021-09-17T00:00:00.000Z",
        "code": null,
        "uri": null,
        "homeId": null,
        "needComment": false,
        "status": "enabled",
        "label1": "PSP Ivory Coast",
        "label2": "PSP Côte d'Ivoire",
        "label3": "PSP Costa de Marfil",
        "label4": null,
        "label5": null,
        "label6": null,
        "label7": null,
        "label8": null,
        "organism": "fr.ird.referential.common.Organism#1267835067241#0.5652983591594903",
        "startDate": "2019-01-01T00:00:00.000Z",
        "endDate": null,
        "comment": null,
        "observation": true,
        "logbook": false
      },
      {
        "topiaId": "fr.ird.referential.ll.common.Program#1239832686139#0.1",
        "topiaCreateDate": "2014-08-05T00:00:00.000Z",
        "lastUpdateDate": "2021-09-17T00:00:00.000Z",
        "code": null,
        "uri": null,
        "homeId": null,
        "needComment": false,
        "status": "enabled",
        "label1": "DCF Longline (IRD)",
        "label2": "DCF Palangre (IRD)",
        "label3": "DCF Longline (IRD)",
        "label4": null,
        "label5": null,
        "label6": null,
        "label7": null,
        "label8": null,
        "organism": "fr.ird.referential.common.Organism#1267835067241#0.6705236825871838",
        "startDate": "2008-01-01T00:00:00.000Z",
        "endDate": null,
        "comment": null,
        "observation": true,
        "logbook": false
      }
    ],
    "fr.ird.observe.entities.referential.ll.common.SettingShape": [
      {
        "topiaId": "fr.ird.referential.ll.common.SettingShape#1239832686128#0.1",
        "topiaCreateDate": "2014-07-26T00:00:00.000Z",
        "lastUpdateDate": "2016-12-06T15:54:27.727Z",
        "code": "D",
        "uri": null,
        "homeId": null,
        "needComment": false,
        "status": "enabled",
        "label1": "Rectilinear",
        "label2": "Rectiligne",
        "label3": "Rectilinear",
        "label4": null,
        "label5": null,
        "label6": null,
        "label7": null,
        "label8": null
      },
      {
        "topiaId": "fr.ird.referential.ll.common.SettingShape#1239832686128#0.4",
        "topiaCreateDate": "2014-07-26T00:00:00.000Z",
        "lastUpdateDate": "2016-12-06T15:54:27.727Z",
        "code": "I",
        "uri": null,
        "homeId": null,
        "needComment": false,
        "status": "enabled",
        "label1": "According to isobath",
        "label2": "Selon isobathe",
        "label3": "According to isobath",
        "label4": null,
        "label5": null,
        "label6": null,
        "label7": null,
        "label8": null
      }
    ],
    "fr.ird.observe.entities.referential.ll.common.TripType": [
      {
        "topiaId": "fr.ird.referential.ll.common.TripType#1464000000000#02",
        "topiaCreateDate": "2020-10-01T00:00:00.000Z",
        "lastUpdateDate": "2020-10-01T00:00:00.000Z",
        "code": "CM",
        "uri": null,
        "homeId": null,
        "needComment": false,
        "status": "enabled",
        "label1": "Commercial trip",
        "label2": "Marée de pêche commerciale",
        "label3": "Marea commercial",
        "label4": null,
        "label5": null,
        "label6": null,
        "label7": null,
        "label8": null
      },
      {
        "topiaId": "fr.ird.referential.ll.common.TripType#1464000000000#01",
        "topiaCreateDate": "2020-10-01T00:00:00.000Z",
        "lastUpdateDate": "2020-10-01T00:00:00.000Z",
        "code": "SC",
        "uri": null,
        "homeId": null,
        "needComment": false,
        "status": "enabled",
        "label1": "Scientific trip",
        "label2": "Marée scientifique",
        "label3": "Marea experimental",
        "label4": null,
        "label5": null,
        "label6": null,
        "label7": null,
        "label8": null
      }
    ],
    "fr.ird.observe.entities.referential.ll.common.VesselActivity": [
      {
        "topiaId": "fr.ird.referential.ll.common.VesselActivity#666#01",
        "topiaCreateDate": "2020-10-01T00:00:00.000Z",
        "lastUpdateDate": "2023-07-20T00:00:00.000Z",
        "code": "CRUISE",
        "uri": null,
        "homeId": null,
        "needComment": false,
        "status": "enabled",
        "label1": "Cruising",
        "label2": "Route",
        "label3": "Route #TODO",
        "label4": null,
        "label5": null,
        "label6": null,
        "label7": null,
        "label8": null,
        "allowSet": false,
        "observation": false,
        "logbook": true
      },
      {
        "topiaId": "fr.ird.referential.ll.common.VesselActivity#666#02",
        "topiaCreateDate": "2020-10-01T00:00:00.000Z",
        "lastUpdateDate": "2023-07-20T00:00:00.000Z",
        "code": "DRIFT",
        "uri": null,
        "homeId": null,
        "needComment": false,
        "status": "enabled",
        "label1": "Drifting",
        "label2": "En dérive",
        "label3": "En dérive #TODO",
        "label4": null,
        "label5": null,
        "label6": null,
        "label7": null,
        "label8": null,
        "allowSet": false,
        "observation": false,
        "logbook": true
      }
    ],
    "fr.ird.observe.entities.referential.ll.observation.BaitHaulingStatus": [
      {
        "topiaId": "fr.ird.referential.ll.observation.BaitHaulingStatus#1239832686122#0.1",
        "topiaCreateDate": "2014-07-26T00:00:00.000Z",
        "lastUpdateDate": "2016-12-06T15:54:27.727Z",
        "code": "ABS",
        "uri": null,
        "homeId": null,
        "needComment": false,
        "status": "enabled",
        "label1": "Absent",
        "label2": "Absent",
        "label3": "Absent",
        "label4": null,
        "label5": null,
        "label6": null,
        "label7": null,
        "label8": null
      },
      {
        "topiaId": "fr.ird.referential.ll.observation.BaitHaulingStatus#1239832686122#0.4",
        "topiaCreateDate": "2014-07-26T00:00:00.000Z",
        "lastUpdateDate": "2016-12-06T15:54:27.727Z",
        "code": "BIT",
        "uri": null,
        "homeId": null,
        "needComment": false,
        "status": "enabled",
        "label1": "Bitten",
        "label2": "Attaqué",
        "label3": "Bitten",
        "label4": null,
        "label5": null,
        "label6": null,
        "label7": null,
        "label8": null
      }
    ],
    "fr.ird.observe.entities.referential.ll.observation.EncounterType": [
      {
        "topiaId": "fr.ird.referential.ll.observation.EncounterType#1239832686126#0.1",
        "topiaCreateDate": "2014-07-26T00:00:00.000Z",
        "lastUpdateDate": "2016-12-06T15:54:27.727Z",
        "code": "01",
        "uri": null,
        "homeId": null,
        "needComment": false,
        "status": "enabled",
        "label1": "Spotted, no precision",
        "label2": "Vu sans précisions",
        "label3": "Spotted, no precision",
        "label4": null,
        "label5": null,
        "label6": null,
        "label7": null,
        "label8": null
      },
      {
        "topiaId": "fr.ird.referential.ll.observation.EncounterType#1239832686126#0.10",
        "topiaCreateDate": "2014-07-26T00:00:00.000Z",
        "lastUpdateDate": "2016-12-06T15:54:27.727Z",
        "code": "02",
        "uri": null,
        "homeId": null,
        "needComment": false,
        "status": "enabled",
        "label1": "Swimming at the surface",
        "label2": "Nage à la surface",
        "label3": "Swimming at the surface",
        "label4": null,
        "label5": null,
        "label6": null,
        "label7": null,
        "label8": null
      }
    ],
    "fr.ird.observe.entities.referential.ll.observation.HookPosition": [
      {
        "topiaId": "fr.ird.referential.ll.observation.HookPosition#1239832686150#0.7",
        "topiaCreateDate": "2014-07-26T00:00:00.000Z",
        "lastUpdateDate": "2016-12-06T15:54:27.727Z",
        "code": "A",
        "uri": null,
        "homeId": null,
        "needComment": false,
        "status": "enabled",
        "label1": "Anal fin",
        "label2": "Nageoire anale",
        "label3": "Anal fin",
        "label4": null,
        "label5": null,
        "label6": null,
        "label7": null,
        "label8": null
      },
      {
        "topiaId": "fr.ird.referential.ll.observation.HookPosition#1239832686150#0.3",
        "topiaCreateDate": "2014-07-26T00:00:00.000Z",
        "lastUpdateDate": "2016-12-06T15:54:27.727Z",
        "code": "BIL",
        "uri": null,
        "homeId": null,
        "needComment": false,
        "status": "enabled",
        "label1": "Bill",
        "label2": "Rostre",
        "label3": "Bill",
        "label4": null,
        "label5": null,
        "label6": null,
        "label7": null,
        "label8": null
      }
    ],
    "fr.ird.observe.entities.referential.ll.observation.ItemHorizontalPosition": [
      {
        "topiaId": "fr.ird.referential.ll.observation.ItemHorizontalPosition#1239832686153#0.1",
        "topiaCreateDate": "2014-07-26T00:00:00.000Z",
        "lastUpdateDate": "2016-12-06T15:54:27.727Z",
        "code": "1",
        "uri": null,
        "homeId": null,
        "needComment": false,
        "status": "enabled",
        "label1": "Basket",
        "label2": "Basket",
        "label3": "Basket",
        "label4": null,
        "label5": null,
        "label6": null,
        "label7": null,
        "label8": null
      },
      {
        "topiaId": "fr.ird.referential.ll.observation.ItemHorizontalPosition#1239832686153#0.2",
        "topiaCreateDate": "2014-07-26T00:00:00.000Z",
        "lastUpdateDate": "2016-12-06T15:54:27.727Z",
        "code": "2",
        "uri": null,
        "homeId": null,
        "needComment": false,
        "status": "enabled",
        "label1": "Branchline",
        "label2": "Avançon",
        "label3": "Branchline",
        "label4": null,
        "label5": null,
        "label6": null,
        "label7": null,
        "label8": null
      }
    ],
    "fr.ird.observe.entities.referential.ll.observation.ItemVerticalPosition": [
      {
        "topiaId": "fr.ird.referential.ll.observation.ItemVerticalPosition#1239832686154#0.1",
        "topiaCreateDate": "2014-07-26T00:00:00.000Z",
        "lastUpdateDate": "2016-12-06T15:54:27.727Z",
        "code": "1",
        "uri": null,
        "homeId": null,
        "needComment": false,
        "status": "enabled",
        "label1": "Mainline (basket)",
        "label2": "Haute",
        "label3": "Mainline (basket)",
        "label4": null,
        "label5": null,
        "label6": null,
        "label7": null,
        "label8": null
      },
      {
        "topiaId": "fr.ird.referential.ll.observation.ItemVerticalPosition#1239832686154#0.2",
        "topiaCreateDate": "2014-07-26T00:00:00.000Z",
        "lastUpdateDate": "2016-12-06T15:54:27.727Z",
        "code": "2",
        "uri": null,
        "homeId": null,
        "needComment": false,
        "status": "enabled",
        "label1": "Traceline",
        "label2": "Intermédiaire",
        "label3": "Traceline",
        "label4": null,
        "label5": null,
        "label6": null,
        "label7": null,
        "label8": null
      }
    ],
    "fr.ird.observe.entities.referential.ll.observation.MaturityStatus": [
      {
        "topiaId": "fr.ird.referential.ll.observation.MaturityStatus#1239832686182#0.1",
        "topiaCreateDate": "2014-07-26T00:00:00.000Z",
        "lastUpdateDate": "2016-12-06T15:54:27.727Z",
        "code": "1",
        "uri": null,
        "homeId": null,
        "needComment": false,
        "status": "enabled",
        "label1": "1",
        "label2": "1",
        "label3": "1",
        "label4": null,
        "label5": null,
        "label6": null,
        "label7": null,
        "label8": null,
        "lowerValue": "1",
        "upperValue": "1"
      },
      {
        "topiaId": "fr.ird.referential.ll.observation.MaturityStatus#1239832686182#0.2",
        "topiaCreateDate": "2014-07-26T00:00:00.000Z",
        "lastUpdateDate": "2016-12-06T15:54:27.727Z",
        "code": "1-2",
        "uri": null,
        "homeId": null,
        "needComment": false,
        "status": "enabled",
        "label1": "1-2",
        "label2": "1-2",
        "label3": "1-2",
        "label4": null,
        "label5": null,
        "label6": null,
        "label7": null,
        "label8": null,
        "lowerValue": "1",
        "upperValue": "2"
      }
    ],
    "fr.ird.observe.entities.referential.ll.observation.SensorBrand": [
      {
        "topiaId": "fr.ird.referential.ll.observation.SensorBrand#1239832686130#0.1",
        "topiaCreateDate": "2014-07-26T00:00:00.000Z",
        "lastUpdateDate": "2016-12-06T15:54:27.727Z",
        "code": "NKE",
        "uri": null,
        "homeId": null,
        "needComment": false,
        "status": "enabled",
        "brandName": "NKE"
      },
      {
        "topiaId": "fr.ird.referential.ll.observation.SensorBrand#1239832686130#0.4",
        "topiaCreateDate": "2014-07-26T00:00:00.000Z",
        "lastUpdateDate": "2016-12-06T15:54:27.727Z",
        "code": "OTH",
        "uri": null,
        "homeId": null,
        "needComment": false,
        "status": "enabled",
        "brandName": "Other"
      }
    ],
    "fr.ird.observe.entities.referential.ll.observation.SensorDataFormat": [
      {
        "topiaId": "fr.ird.referential.ll.observation.SensorDataFormat#1239832686137#0.2",
        "topiaCreateDate": "2014-12-11T00:00:00.000Z",
        "lastUpdateDate": "2016-12-06T15:54:27.727Z",
        "code": "BIN",
        "uri": null,
        "homeId": null,
        "needComment": true,
        "status": "enabled",
        "label1": "Binary file",
        "label2": "Fichier binaire",
        "label3": "binary file",
        "label4": null,
        "label5": null,
        "label6": null,
        "label7": null,
        "label8": null
      },
      {
        "topiaId": "fr.ird.referential.ll.observation.SensorDataFormat#1239832686137#0.1",
        "topiaCreateDate": "2014-12-11T00:00:00.000Z",
        "lastUpdateDate": "2016-12-06T15:54:27.727Z",
        "code": "TXT",
        "uri": null,
        "homeId": null,
        "needComment": true,
        "status": "enabled",
        "label1": "Text file",
        "label2": "Fichier texte",
        "label3": "Text file",
        "label4": null,
        "label5": null,
        "label6": null,
        "label7": null,
        "label8": null
      }
    ],
    "fr.ird.observe.entities.referential.ll.observation.SensorType": [
      {
        "topiaId": "fr.ird.referential.ll.observation.SensorType#1239832686131#0.1",
        "topiaCreateDate": "2014-07-26T00:00:00.000Z",
        "lastUpdateDate": "2017-01-18T14:51:09.672Z",
        "code": "CTD",
        "uri": null,
        "homeId": null,
        "needComment": false,
        "status": "enabled",
        "label1": "Conductivity Temperature Depth equipment",
        "label2": "Sonde de Conductivité, Temperature, profonDeur",
        "label3": "Conductivity Temperature Depth equipment",
        "label4": null,
        "label5": null,
        "label6": null,
        "label7": null,
        "label8": null
      },
      {
        "topiaId": "fr.ird.referential.ll.observation.SensorType#1239832686131#0.3",
        "topiaCreateDate": "2014-07-26T00:00:00.000Z",
        "lastUpdateDate": "2017-01-18T14:51:42.569Z",
        "code": "TDR",
        "uri": null,
        "homeId": null,
        "needComment": false,
        "status": "enabled",
        "label1": "Temperature-Depth Recorder",
        "label2": "Temperature-Depth Recorder",
        "label3": "Temperature-Depth Recorder",
        "label4": null,
        "label5": null,
        "label6": null,
        "label7": null,
        "label8": null
      }
    ],
    "fr.ird.observe.entities.referential.ll.observation.StomachFullness": [
      {
        "topiaId": "fr.ird.referential.ll.observation.StomachFullness#1239832686135#0.1",
        "topiaCreateDate": "2014-07-26T00:00:00.000Z",
        "lastUpdateDate": "2016-12-06T15:54:27.727Z",
        "code": "1",
        "uri": null,
        "homeId": null,
        "needComment": false,
        "status": "enabled",
        "label1": "1",
        "label2": "1",
        "label3": "1",
        "label4": null,
        "label5": null,
        "label6": null,
        "label7": null,
        "label8": null
      },
      {
        "topiaId": "fr.ird.referential.ll.observation.StomachFullness#1239832686135#0.2",
        "topiaCreateDate": "2014-07-26T00:00:00.000Z",
        "lastUpdateDate": "2016-12-06T15:54:27.727Z",
        "code": "2",
        "uri": null,
        "homeId": null,
        "needComment": false,
        "status": "enabled",
        "label1": "2",
        "label2": "2",
        "label3": "2",
        "label4": null,
        "label5": null,
        "label6": null,
        "label7": null,
        "label8": null
      }
    ],
    "fr.ird.observe.entities.referential.ll.landing.Company": [
      {
        "topiaId": "fr.ird.referential.ll.landing.Company#1464000000000#0.01",
        "topiaCreateDate": "2020-10-01T00:00:00.000Z",
        "lastUpdateDate": "2020-10-01T00:00:00.000Z",
        "code": "AFM",
        "uri": null,
        "homeId": "FINSS-00003638",
        "needComment": false,
        "status": "enabled",
        "label1": "[type: Unknown] Amedee [id:n/a]",
        "label2": "[type: Unknown] Amedee [id:n/a]",
        "label3": "[type: Unknown] Amedee [id:n/a]",
        "label4": null,
        "label5": null,
        "label6": null,
        "label7": null,
        "label8": null
      },
      {
        "topiaId": "fr.ird.referential.ll.landing.Company#1464000000000#0.02",
        "topiaCreateDate": "2020-10-01T00:00:00.000Z",
        "lastUpdateDate": "2020-10-01T00:00:00.000Z",
        "code": "AMIRANTES",
        "uri": null,
        "homeId": "FINSS-00003643",
        "needComment": false,
        "status": "enabled",
        "label1": "[type: Unknown] AMIRANTES FISHERIES [id:n/a]",
        "label2": "[type: Unknown] AMIRANTES FISHERIES [id:n/a]",
        "label3": "[type: Unknown] AMIRANTES FISHERIES [id:n/a]",
        "label4": null,
        "label5": null,
        "label6": null,
        "label7": null,
        "label8": null
      }
    ],
    "fr.ird.observe.entities.referential.ll.landing.Conservation": [
      {
        "topiaId": "fr.ird.referential.ll.landing.Conservation#666#03",
        "topiaCreateDate": "2020-10-01T00:00:00.000Z",
        "lastUpdateDate": "2020-10-01T00:00:00.000Z",
        "code": "DRIED",
        "uri": null,
        "homeId": null,
        "needComment": false,
        "status": "enabled",
        "label1": "Dried",
        "label2": "Séché",
        "label3": "Secado",
        "label4": null,
        "label5": null,
        "label6": null,
        "label7": null,
        "label8": null
      },
      {
        "topiaId": "fr.ird.referential.ll.landing.Conservation#666#01",
        "topiaCreateDate": "2020-10-01T00:00:00.000Z",
        "lastUpdateDate": "2020-10-01T00:00:00.000Z",
        "code": "FRESH",
        "uri": null,
        "homeId": null,
        "needComment": false,
        "status": "enabled",
        "label1": "Fresh",
        "label2": "Frais",
        "label3": "Frais #TODO",
        "label4": null,
        "label5": null,
        "label6": null,
        "label7": null,
        "label8": null
      }
    ],
    "fr.ird.observe.entities.referential.ll.landing.DataSource": [
      {
        "topiaId": "fr.ird.referential.ll.landing.DataSource#666#01",
        "topiaCreateDate": "2020-10-01T00:00:00.000Z",
        "lastUpdateDate": "2020-10-01T00:00:00.000Z",
        "code": "CUSTOMS",
        "uri": null,
        "homeId": null,
        "needComment": false,
        "status": "enabled",
        "label1": "Customs",
        "label2": "Douanes",
        "label3": "Douanes #TODO",
        "label4": null,
        "label5": null,
        "label6": null,
        "label7": null,
        "label8": null
      },
      {
        "topiaId": "fr.ird.referential.ll.landing.DataSource#666#02",
        "topiaCreateDate": "2020-10-01T00:00:00.000Z",
        "lastUpdateDate": "2020-10-01T00:00:00.000Z",
        "code": "DBLOGBOOK",
        "uri": null,
        "homeId": null,
        "needComment": false,
        "status": "enabled",
        "label1": "Auto-Calculated from Database Logbooks",
        "label2": "Auto-calculé depuis la BDD logbooks",
        "label3": "Auto-calculé depuis la BDD logbooks #TODO",
        "label4": null,
        "label5": null,
        "label6": null,
        "label7": null,
        "label8": null
      }
    ]
  }
}