{
  "url": "/api/public/data/ll/observation/HooksComposition",
  "method": "GET",
  "headers": {
    "authenticationToken": "XXX"
  },
  "parameters": {
    "config.recursive": "true",
    "config.prettyPrint": "true",
    "config.serializeNulls": "true",
    "filters.lastUpdateDate": "2018-09-27T09:22:30.030Z"
  }
}