{
  "path": "fr.ird.observe.navigation.tree.navigation.referential.ps.observation.InformationSourceNavigationTreeNode:fr.ird.referential.ps.observation.InformationSource#1464000000000#01",
  "content": [
    {
      "topiaId": "fr.ird.referential.ps.observation.InformationSource#1464000000000#01",
      "topiaCreateDate": "2021-09-17T00:00:00.000Z",
      "lastUpdateDate": "2021-09-17T00:00:00.000Z",
      "code": "O",
      "uri": null,
      "homeId": null,
      "needComment": false,
      "status": "enabled",
      "label1": "Observer",
      "label2": "Observateur",
      "label3": "Observateur #TODO",
      "label4": null,
      "label5": null,
      "label6": null,
      "label7": null,
      "label8": null
    }
  ]
}