{
  "url": "/api/public/referential/ll/observation/ItemHorizontalPosition",
  "method": "GET",
  "headers": {
    "authenticationToken": "XXX"
  },
  "parameters": {
    "properties": "${_properties}",
    "orders": "${_orders}",
    "caseSensitive": "${_caseSensitive}",
    "config.loadReferential": "${_config.loadReferential}",
    "config.recursive": "${_config.recursive}",
    "config.prettyPrint": "${_config.prettyPrint}",
    "config.serializeNulls": "${_config.serializeNulls}",
    "referentialLocale": "${_referentialLocale}"
  }
}