{
  "path": "fr.ird.observe.navigation.tree.navigation.referential.ll.common.LightsticksColorNavigationTreeNode:fr.ird.referential.ll.common.LightsticksColor#1239832686155#0.1",
  "content": [
    {
      "topiaId": "fr.ird.referential.ll.common.LightsticksColor#1239832686155#0.1",
      "topiaCreateDate": "2014-07-26T00:00:00.000Z",
      "lastUpdateDate": "2016-12-06T15:54:27.727Z",
      "code": "R",
      "uri": null,
      "homeId": null,
      "needComment": false,
      "status": "enabled",
      "label1": "Red",
      "label2": "Rouge",
      "label3": "Rojo",
      "label4": null,
      "label5": null,
      "label6": null,
      "label7": null,
      "label8": null
    }
  ]
}