{
  "url": "/api/public/data/ps/observation/Catch/fr.ird.data.ps.observation.Catch-1554119972110-0.2402835209929618",
  "method": "PUT",
  "headers": {
    "authenticationToken": "XXX",
    "Content-Type": "application/json"
  },
  "parameters": {},
  "payload": {
    "homeId": null,
    "comment": null,
    "catchWeight": 0.0584,
    "catchWeightComputedSource": "fromData",
    "minWeight": null,
    "meanWeight": 29.2,
    "maxWeight": null,
    "meanWeightComputedSource": "fromData",
    "meanLength": 188.0,
    "meanLengthComputedSource": null,
    "totalCount": 2.0,
    "totalCountComputedSource": null,
    "well": null,
    "reasonForDiscard": null,
    "informationSource": "fr.ird.referential.ps.observation.InformationSource#1464000000000#01",
    "species": "fr.ird.referential.common.Species#1239832683743#0.8616022446692306",
    "weightMeasureMethod": null,
    "sizeMeasureMethod": null,
    "speciesFate": "fr.ird.referential.ps.common.SpeciesFate#1239832683619#0.5722739932065866"
  }
}