{
  "path": "fr.ird.observe.tree.navigation.referential.ll.common.HookTypeNavigationTreeNode:fr.ird.referential.ll.common.HookType#1239832686152#0.11",
  "content": [
    {
      "topiaId": "fr.ird.referential.ll.common.HookType#1239832686152#0.11",
      "topiaCreateDate": "2014-07-26T00:00:00.000Z",
      "lastUpdateDate": "2016-12-06T15:54:27.727Z",
      "code": "03",
      "uri": null,
      "homeId": null,
      "needComment": false,
      "status": "enabled",
      "label1": "Teracima hook",
      "label2": "Hameçon Teracima",
      "label3": "Teracima hook",
      "label4": null,
      "label5": null,
      "label6": null,
      "label7": null,
      "label8": null
    }
  ]
}