{
  "path": "fr.ird.observe.navigation.tree.navigation.data.ps.common.GearUseFeaturesNavigationTreeNode:fr.ird.data.ps.common.GearUseFeatures#1612698996131#0.6058958440089384",
  "content": [
    {
      "topiaId": "fr.ird.data.ps.common.GearUseFeatures#1612698996131#0.6058958440089384",
      "topiaCreateDate": "2021-02-07T12:55:59.507Z",
      "lastUpdateDate": "2021-02-07T12:56:36.158Z",
      "homeId": null,
      "comment": null,
      "number": 1.0,
      "usedInTrip": true,
      "gear": "fr.ird.referential.common.Gear#1239832686125#0.23",
      "gearUseFeaturesMeasurement": [
        {
          "topiaId": "fr.ird.data.ps.common.GearUseFeaturesMeasurement#1612698996149#0.4415127885939093",
          "topiaCreateDate": "2021-02-07T12:56:14.908Z",
          "lastUpdateDate": "2021-02-07T12:56:36.158Z",
          "homeId": null,
          "measurementValue": "12DF",
          "gearCharacteristic": "fr.ird.referential.common.GearCharacteristic#1239832686124#0.6"
        },
        {
          "topiaId": "fr.ird.data.ps.common.GearUseFeaturesMeasurement#1612698996149#0.6987455069734627",
          "topiaCreateDate": "2021-02-07T12:56:14.908Z",
          "lastUpdateDate": "2021-02-07T12:56:36.158Z",
          "homeId": null,
          "measurementValue": "Copain",
          "gearCharacteristic": "fr.ird.referential.common.GearCharacteristic#1239832686124#0.17"
        }
      ]
    }
  ]
}