{
  "url": "/api/public/data/ps/common/GearUseFeatures",
  "method": "GET",
  "headers": {
    "authenticationToken": "XXX"
  },
  "parameters": {
    "config.recursive": "true",
    "config.prettyPrint": "true",
    "config.serializeNulls": "true",
    "filters.lastUpdateDate": "2021-02-07T12:56:36.158Z"
  }
}