{
  "url": "/api/public/data/ps/common/GearUseFeatures/fr.ird.data.ps.common.GearUseFeatures-1612698996131-0.6058958440089384",
  "method": "PUT",
  "headers": {
    "authenticationToken": "XXX",
    "Content-Type": "application/json"
  },
  "parameters": {},
  "payload": {
    "homeId": null,
    "comment": null,
    "number": 1.0,
    "usedInTrip": true,
    "gear": "fr.ird.referential.common.Gear#1239832686125#0.23",
    "gearUseFeaturesMeasurement": [
      {
        "homeId": null,
        "measurementValue": "12DF",
        "gearCharacteristic": "fr.ird.referential.common.GearCharacteristic#1239832686124#0.6"
      },
      {
        "homeId": null,
        "measurementValue": "Copain",
        "gearCharacteristic": "fr.ird.referential.common.GearCharacteristic#1239832686124#0.17"
      }
    ]
  }
}