{
  "topiaId": "fr.ird.data.ps.logbook.FloatingObjectPart#1616955312002#0.004817068771328259",
  "topiaCreateDate": "2021-03-28T20:15:11.926Z",
  "lastUpdateDate": "2021-03-28T20:15:12.002Z",
  "homeId": null,
  "whenArriving": "true",
  "whenLeaving": "true",
  "objectMaterial": "fr.ird.referential.ps.common.ObjectMaterial#0#0.2"
}