{
  "url": "/api/public/referential/ps/common/Program/fr.ird.referential.ps.common.Program-1239832686262-0.42751447061198444",
  "method": "DELETE",
  "headers": {
    "authenticationToken": "XXX"
  },
  "parameters": {}
}