{
  "path": "fr.ird.observe.tree.navigation.referential.ll.landing.CompanyNavigationTreeNode",
  "content": [
    {
      "topiaId": "fr.ird.referential.ll.landing.Company#1464000000000#0.01",
      "topiaCreateDate": "2020-10-01T00:00:00.000Z",
      "lastUpdateDate": "2020-10-01T00:00:00.000Z",
      "code": "AFM",
      "homeId": "FINSS-00003638",
      "needComment": false,
      "status": "enabled",
      "label1": "[type: Unknown] Amedee [id:n/a]",
      "label2": "[type: Unknown] Amedee [id:n/a]",
      "label3": "[type: Unknown] Amedee [id:n/a]"
    },
    {
      "topiaId": "fr.ird.referential.ll.landing.Company#1464000000000#0.02",
      "topiaCreateDate": "2020-10-01T00:00:00.000Z",
      "lastUpdateDate": "2020-10-01T00:00:00.000Z",
      "code": "AMIRANTES",
      "homeId": "FINSS-00003643",
      "needComment": false,
      "status": "enabled",
      "label1": "[type: Unknown] AMIRANTES FISHERIES [id:n/a]",
      "label2": "[type: Unknown] AMIRANTES FISHERIES [id:n/a]",
      "label3": "[type: Unknown] AMIRANTES FISHERIES [id:n/a]"
    }
  ]
}