{
  "url": "/api/public/referential/ps/logbook/InformationSource/fr.ird.referential.ps.logbook.InformationSource-1464000000000-01",
  "method": "GET",
  "headers": {
    "authenticationToken": "XXX"
  },
  "parameters": {
    "config.recursive": "true",
    "config.prettyPrint": "true",
    "config.serializeNulls": "true"
  }
}