{
  "path": "fr.ird.observe.navigation.tree.navigation.referential.common.WeightMeasureMethodNavigationTreeNode:fr.ird.referential.common.WeightMeasureMethod#666#01",
  "content": [
    {
      "topiaId": "fr.ird.referential.common.WeightMeasureMethod#666#01",
      "topiaCreateDate": "2020-10-01T00:00:00.000Z",
      "lastUpdateDate": "2021-09-17T00:00:00.000Z",
      "code": "1",
      "uri": null,
      "homeId": null,
      "needComment": false,
      "status": "enabled",
      "label1": "Hanging scale",
      "label2": "Peson",
      "label3": "Dinamómetro",
      "label4": null,
      "label5": null,
      "label6": null,
      "label7": null,
      "label8": null
    }
  ]
}