{
  "url": "/api/public/referential/common/WeightMeasureType",
  "method": "POST",
  "headers": {
    "authenticationToken": "XXX",
    "Content-Type": "application/json"
  },
  "parameters": {},
  "payload": {
    "code": "VDK",
    "uri": null,
    "homeId": null,
    "needComment": false,
    "status": "enabled",
    "label1": "Gutted and beheaded",
    "label2": "Vidé et décapité",
    "label3": "Gutted and beheaded",
    "label4": null,
    "label5": null,
    "label6": null,
    "label7": null,
    "label8": null
  }
}