{
  "url": "/api/public/referential/common/WeightMeasureType/fr.ird.referential.common.WeightMeasureType-12398326861390.1",
  "method": "DELETE",
  "headers": {
    "authenticationToken": "XXX"
  },
  "parameters": {}
}