{
  "topiaId": "fr.ird.referential.common.Vessel#1239832676660#0.38397681020258445",
  "topiaCreateDate": "2009-04-15T00:00:00.008Z",
  "lastUpdateDate": "2016-12-06T15:54:27.727Z",
  "code": "25",
  "uri": null,
  "homeId": null,
  "needComment": false,
  "status": "disabled",
  "label1": "BENIGUET",
  "label2": "BENIGUET",
  "label3": "BENIGUET",
  "label4": null,
  "label5": null,
  "label6": null,
  "label7": null,
  "label8": null,
  "vesselSizeCategory": "fr.ird.referential.common.VesselSizeCategory#1239832675540#0.8706856200939851",
  "vesselType": "fr.ird.referential.common.VesselType#1239832675734#0.4191950326431938",
  "flagCountry": "fr.ird.referential.common.Country#1239832675583#0.9493110781716075",
  "keelCode": 25.0,
  "fleetCountry": "fr.ird.referential.common.Country#1239832675583#0.9493110781716075",
  "changeDate": null,
  "yearService": 1958.0,
  "length": 24.75,
  "capacity": 110.0,
  "powerCv": 330.0,
  "powerKW": null,
  "searchMaximum": null,
  "comment": "Arrete fin 73",
  "source": null,
  "iccatId": null,
  "iotcId": null,
  "nationalId": null,
  "comId": null,
  "tuviId": null,
  "imoId": null,
  "radioCallSignId": null,
  "lloydId": null,
  "cfrId": null,
  "wellRegex": null,
  "startDate": null,
  "endDate": null,
  "shipOwner": null
}