#oldName;newName;oldPropertyName;newPropertyName;attributes;removeAttributes
observationActivitesDetaillees;detailledActivitiesObservation;PROPERTY_OBSERVATION_ACTIVITES_DETAILLEES;PROPERTY_DETAILLED_ACTIVITIES_OBSERVATION;;
vitesseMaximaleProcespection;searchMaximum;PROPERTY_VITESSE_MAXIMALE_PROCESPECTION;PROPERTY_SEARCH_MAXIMUM;;
libelleHauteurMoyenneVagues;waveHeight;PROPERTY_LIBELLE_HAUTEUR_MOYENNE_VAGUES;PROPERTY_WAVE_HEIGHT;;
tailleMoyenneCalculeSource;meanLengthSource;PROPERTY_TAILLE_MOYENNE_CALCULE_SOURCE;PROPERTY_MEAN_LENGTH_SOURCE;;
nombreEstimeCalculeSource;totalCountSource;PROPERTY_NOMBRE_ESTIME_CALCULE_SOURCE;PROPERTY_TOTAL_COUNT_SOURCE;;
puissanceGroupePrincipal;power;PROPERTY_PUISSANCE_GROUPE_PRINCIPAL;PROPERTY_POWER;;
poidsEstimeCalculeSource;catchWeightSource;PROPERTY_POIDS_ESTIME_CALCULE_SOURCE;PROPERTY_CATCH_WEIGHT_SOURCE;;
observationObjetFlottant;objectsObservation;PROPERTY_OBSERVATION_OBJET_FLOTTANT;PROPERTY_OBJECTS_OBSERVATION;;
observationFauneAssociee;nonTargetObservation;PROPERTY_OBSERVATION_FAUNE_ASSOCIEE;PROPERTY_NON_TARGET_OBSERVATION;;
poidsMoyenCalculeSource;meanWeightSource;PROPERTY_POIDS_MOYEN_CALCULE_SOURCE;PROPERTY_MEAN_WEIGHT_SOURCE;;
observationMensurations;samplesObservation;PROPERTY_OBSERVATION_MENSURATIONS;PROPERTY_SAMPLES_OBSERVATION;;
profondeurMaximumEngin;maxGearDepth;PROPERTY_PROFONDEUR_MAXIMUM_ENGIN;PROPERTY_MAX_GEAR_DEPTH;;
observationRejetsThons;targetDiscardsObservation;PROPERTY_OBSERVATION_REJETS_THONS;PROPERTY_TARGET_DISCARDS_OBSERVATION;;
distanceSystemeObserve;observedSystemDistance;PROPERTY_DISTANCE_SYSTEME_OBSERVE;PROPERTY_OBSERVED_SYSTEM_DISTANCE;;
profondeurMoyenneBanc;schoolMeanDepth;PROPERTY_PROFONDEUR_MOYENNE_BANC;PROPERTY_SCHOOL_MEAN_DEPTH;;
observationMammiferes;mammalsObservation;PROPERTY_OBSERVATION_MAMMIFERES;PROPERTY_MAMMALS_OBSERVATION;;
libelleDescriptifVent;description;PROPERTY_LIBELLE_DESCRIPTIF_VENT;PROPERTY_DESCRIPTION;;
profondeurSommetBanc;schoolTopDepth;PROPERTY_PROFONDEUR_SOMMET_BANC;PROPERTY_SCHOOL_TOP_DEPTH;;
libelleDescriptifMer;seaSurface;PROPERTY_LIBELLE_DESCRIPTIF_MER;PROPERTY_SEA_SURFACE;;
activiteEnvironnante;surroundingActivity;PROPERTY_ACTIVITE_ENVIRONNANTE;PROPERTY_SURROUNDING_ACTIVITY;;
libelleScientifique;scientificLabel;PROPERTY_LIBELLE_SCIENTIFIQUE;PROPERTY_SCIENTIFIC_LABEL;;
estimationBancObjet;schoolEstimate;PROPERTY_ESTIMATION_BANC_OBJET;PROPERTY_SCHOOL_ESTIMATE;;
especeFauneObservee;objectObservedSpecie;PROPERTY_ESPECE_FAUNE_OBSERVEE;PROPERTY_OBJECT_OBSERVED_SPECIE;;
temperatureSurface;seaSurfaceTemperature;PROPERTY_TEMPERATURE_SURFACE;PROPERTY_SEA_SURFACE_TEMPERATURE;;
senneCirconference;seineCircumference;PROPERTY_SENNE_CIRCONFERENCE;PROPERTY_SEINE_CIRCUMFERENCE;;
observationOiseaux;birdsObservation;PROPERTY_OBSERVATION_OISEAUX;PROPERTY_BIRDS_OBSERVATION;;
niveauVerification;checkLevel;PROPERTY_NIVEAU_VERIFICATION;PROPERTY_CHECK_LEVEL;;
libelleVitesseVent;speedRange;PROPERTY_LIBELLE_VITESSE_VENT;PROPERTY_SPEED_RANGE;;
heureFinCoulissage;endPursingTimeStamp;PROPERTY_HEURE_FIN_COULISSAGE;PROPERTY_END_PURSING_TIME_STAMP;;
dateDebutProgramme;startDate;PROPERTY_DATE_DEBUT_PROGRAMME;PROPERTY_START_DATE;;
observationGleure;baitObservation;PROPERTY_OBSERVATION_GLEURE;PROPERTY_BAIT_OBSERVATION;;
longueurHorsToute;length;PROPERTY_LONGUEUR_HORS_TOUTE;PROPERTY_LENGTH;;
causeNonCoupSenne;reasonForNoFishing;PROPERTY_CAUSE_NON_COUP_SENNE;PROPERTY_REASON_FOR_NO_FISHING;;
capaciteTransport;capacity;PROPERTY_CAPACITE_TRANSPORT;PROPERTY_CAPACITY;;
utilisationSonar;sonarUsed;PROPERTY_UTILISATION_SONAR;PROPERTY_SONAR_USED;;
profondeurMesure;currentMeasureDepth;PROPERTY_PROFONDEUR_MESURE;PROPERTY_CURRENT_MEASURE_DEPTH;;
heureObservation;time;PROPERTY_HEURE_OBSERVATION;PROPERTY_TIME;;
echantillonFaune;nonTargetSample;PROPERTY_ECHANTILLON_FAUNE;PROPERTY_NON_TARGET_SAMPLE;;
directionCourant;currentDirection;PROPERTY_DIRECTION_COURANT;PROPERTY_CURRENT_DIRECTION;;
dateFinProgramme;endDate;PROPERTY_DATE_FIN_PROGRAMME;PROPERTY_END_DATE;;
senneProfondeur;seineDepth;PROPERTY_SENNE_PROFONDEUR;PROPERTY_SEINE_DEPTH;;
poidsIndividuel;meanWeight;PROPERTY_POIDS_INDIVIDUEL;PROPERTY_MEAN_WEIGHT;;
operationBalise;operation;PROPERTY_OPERATION_BALISE;PROPERTY_OPERATION;;
longueurCalcule;lengthSource;PROPERTY_LONGUEUR_CALCULE;PROPERTY_LENGTH_SOURCE;;
libelleCapacite;capacityLabel;PROPERTY_LIBELLE_CAPACITE;PROPERTY_CAPACITY_LABEL;;
jourObservation;date;PROPERTY_JOUR_OBSERVATION;PROPERTY_DATE;;
echantillonThon;targetSample;PROPERTY_ECHANTILLON_THON;PROPERTY_TARGET_SAMPLE;;
vitesseCourant;currentSpeed;PROPERTY_VITESSE_COURANT;PROPERTY_CURRENT_SPEED;;
systemeObserve;observedSystem;PROPERTY_SYSTEME_OBSERVE;PROPERTY_OBSERVED_SYSTEM;;
sennePoidsLest;seineBallastWeight;PROPERTY_SENNE_POIDS_LEST;PROPERTY_SEINE_BALLAST_WEIGHT;;
relationTaille;weightLengthFormula;PROPERTY_RELATION_TAILLE;PROPERTY_WEIGHT_LENGTH_FORMULA;;
referencePhoto;picturesReferences;PROPERTY_REFERENCE_PHOTO;PROPERTY_PICTURES_REFERENCES;;
historicalData;historicalData;PROPERTY_HISTORICAL_DATA;PROPERTY_HISTORICAL_DATA;;
formulairesUrl;formsUrl;PROPERTY_FORMULAIRES_URL;PROPERTY_FORMS_URL;;
estimationBanc;schoolSizeEstimation;PROPERTY_ESTIMATION_BANC;PROPERTY_SCHOOL_SIZE_ESTIMATION;;
dateChargement;changeDate;PROPERTY_DATE_CHARGEMENT;PROPERTY_CHANGE_DATE;;
categoriePoids;weightCategory;PROPERTY_CATEGORIE_POIDS;PROPERTY_WEIGHT_CATEGORY;;
activiteBateau;vesselActivity;PROPERTY_ACTIVITE_BATEAU;PROPERTY_VESSEL_ACTIVITY;;
vitesseBateau;vesselSpeed;PROPERTY_VITESSE_BATEAU;PROPERTY_VESSEL_SPEED;;
tailleMoyenne;meanLength;PROPERTY_TAILLE_MOYENNE;PROPERTY_MEAN_LENGTH;;
relationPoids;lengthWeightFormula;PROPERTY_RELATION_POIDS;PROPERTY_LENGTH_WEIGHT_FORMULA;;
objetFlottant;floatingObject;PROPERTY_OBJET_FLOTTANT;PROPERTY_FLOATTING_OBJECT;;
modeDetection;detectionMode;PROPERTY_MODE_DETECTION;PROPERTY_DETECTION_MODE;;
epaisseurBanc;schoolThickness;PROPERTY_EPAISSEUR_BANC;PROPERTY_SCHOOL_THICKNESS;;
debutValidite;startDate;PROPERTY_DEBUT_VALIDITE;PROPERTY_START_DATE;;
ventBeaufort;windSpeed;PROPERTY_VENT_BEAUFORT;PROPERTY_WIND_SPEED;;
statutEspece;speciesStatus;PROPERTY_STATUT_ESPECE;PROPERTY_SPECIES_STATUS;;
poidsCalcule;weightSource;PROPERTY_POIDS_CALCULE;PROPERTY_WEIGHT_SOURCE;;
nombreEstime;totalCount;PROPERTY_NOMBRE_ESTIME;PROPERTY_TOTAL_COUNT;;
libelleJauge;gaugeLabel;PROPERTY_LIBELLE_JAUGE;PROPERTY_GAUGE_LABEL;;
devenirFaune;speciesFate;PROPERTY_DEVENIR_FAUNE;PROPERTY_SPECIES_FATE;;
coefficients;coefficients;PROPERTY_COEFFICIENTS;PROPERTY_COEFFICIENTS;;
causeCoupNul;reasonForNullSet;PROPERTY_CAUSE_COUP_NUL;PROPERTY_REASON_FOR_NULL_SET;;
captureFaune;nonTargetCatch;PROPERTY_CAPTURE_FAUNE;PROPERTY_NON_TARGET_CATCH;;
appartenance;ownership;PROPERTY_APPARTENANCE;PROPERTY_OWNERSHIP;;
anneeService;yearService;PROPERTY_ANNEE_SERVICE;PROPERTY_YEAR_SERVICE;;
thonCapture;discarded;PROPERTY_THON_CAPTURE;PROPERTY_DISCARDED;;
tailleFaune;nonTargetSample;PROPERTY_TAILLE_FAUNE;PROPERTY_NON_TARGET_SAMPLE;;
rapportsUrl;reportsUrl;PROPERTY_RAPPORTS_URL;PROPERTY_REPORTS_URL;;
raisonRejet;reasonForDiscard;PROPERTY_RAISON_REJET;PROPERTY_REASON_FOR_DISCARD;;
poidsEstime;catchWeight;PROPERTY_POIDS_ESTIME;PROPERTY_CATCH_WEIGHT;;
observateur;observer;PROPERTY_OBSERVATEUR;PROPERTY_OBSERVER;;
needComment;needComment;PROPERTY_NEED_COMMENT;PROPERTY_NEED_COMMENT;;
identifiant;code;PROPERTY_IDENTIFIANT;PROPERTY_CODE;;
finValidite;endDate;PROPERTY_FIN_VALIDITE;PROPERTY_END_DATE;;
commentaire;comment;PROPERTY_COMMENTAIRE;PROPERTY_COMMENT;;
captureThon;targetCatche;PROPERTY_CAPTURE_THON;PROPERTY_TARGET_CATCHE;;
typeTaille;lengthMeasureType;PROPERTY_TYPE_TAILLE;PROPERTY_LENGTH_MEASURE_TYPE;;
typeBalise;transmittingBuoyType;PROPERTY_TYPE_BALISE;PROPERTY_TYPE;;
tailleThon;targetLength;PROPERTY_TAILLE_THON;PROPERTY_TARGET_LENGTH;;
rejetFaune;nonTargetDiscarded;PROPERTY_REJET_FAUNE;PROPERTY_NON_TARGET_DISCARDED;;
poidsMoyen;meanWeight;PROPERTY_POIDS_MOYEN;PROPERTY_MEAN_WEIGHT;;
modeSaisie;acquisitionMode;PROPERTY_MODE_SAISIE;PROPERTY_ACQUISITION_MODE;;
heureDebut;startTime;PROPERTY_HEURE_DEBUT;PROPERTY_START_TIME;;
codeQuille;keelCode;PROPERTY_CODE_QUILLE;PROPERTY_KEEL_CODE;;
codeMesure;sizeMeasureType;PROPERTY_CODE_MESURE;PROPERTY_MEASURE_TYPE;;
codeFlotte;fleetCountry;PROPERTY_CODE_FLOTTE;PROPERTY_FLEET_COUNTRY;;
tailleMin;minLength;PROPERTY_TAILLE_MIN;PROPERTY_MIN_LENGTH;;
tailleMax;maxLength;PROPERTY_TAILLE_MAX;PROPERTY_MAX_LENGTH;;
surLePont;broughtOnDeck;PROPERTY_SUR_LE_PONT;PROPERTY_BROUGHT_ON_DECK;;
rejetThon;targetDiscarded;PROPERTY_REJET_THON;PROPERTY_TARGET_DISCARDED;;
programme;program;PROPERTY_PROGRAMME;PROPERTY_PROGRAM;;
organisme;organism;PROPERTY_ORGANISME;PROPERTY_ORGANISM;;
operation;objectOperation;PROPERTY_OPERATION;PROPERTY_OBJECT_OPERATION;;
nomSupply;supportVesselName;PROPERTY_NOM_SUPPLY;PROPERTY_SUPPORT_VESSEL_NAME;;
nbJourEau;daysAtSeaCount;PROPERTY_NB_JOUR_EAU;PROPERTY_DAYS_AT_SEA_COUNT;;
longitude;longitude;PROPERTY_LONGITUDE;PROPERTY_LONGITUDE;;
lochMatin;startLogValue;PROPERTY_LOCH_MATIN;PROPERTY_START_LOG_VALUE;;
dateDebut;startDate;PROPERTY_DATE_DEBUT;PROPERTY_START_DATE;;
baliseLue;transmittingBuoy;PROPERTY_BALISE_LUE;PROPERTY_TRANSMITTING_BUOY;;
typeBanc;schoolType;PROPERTY_TYPE_BANC;PROPERTY_SCHOOL_TYPE;;
poidsMin;minWeight;PROPERTY_POIDS_MIN;PROPERTY_MIN_WEIGHT;;
poidsMax;maxWeight;PROPERTY_POIDS_MAX;PROPERTY_MAX_WEIGHT;;
pecherie;vesselType;PROPERTY_PECHERIE;PROPERTY_VESSEL_TYPE;;
pavillon;flagCountry;PROPERTY_PAVILLON;PROPERTY_COUNTRY;;
longueur;length;PROPERTY_LONGUEUR;PROPERTY_LENGTH;;
lochSoir;endLogValue;PROPERTY_LOCH_SOIR;PROPERTY_END_LOG_VALUE;;
libelle8;label8;PROPERTY_LIBELLE8;PROPERTY_LABEL8;;
libelle7;label7;PROPERTY_LIBELLE7;PROPERTY_LABEL7;;
libelle6;label6;PROPERTY_LIBELLE6;PROPERTY_LABEL6;;
libelle5;label5;PROPERTY_LIBELLE5;PROPERTY_LABEL5;;
libelle4;label4;PROPERTY_LIBELLE4;PROPERTY_LABEL4;;
libelle3;label3;PROPERTY_LIBELLE3;PROPERTY_LABEL3;;
libelle2;label2;PROPERTY_LIBELLE2;PROPERTY_LABEL2;;
libelle1;label1;PROPERTY_LIBELLE1;PROPERTY_LABEL1;;
latitude;latitude;PROPERTY_LATITUDE;PROPERTY_LATITUDE;;
heureFin;endSetTimeStamp;PROPERTY_HEURE_FIN;PROPERTY_END_SET_TIME_STAMP;;
effectif;count;PROPERTY_EFFECTIF;PROPERTY_COUNT;;
codeIso3;iso3Code;PROPERTY_CODE_ISO3;PROPERTY_ISO3_CODE;;
codeIso2;iso2Code;PROPERTY_CODE_ISO2;PROPERTY_ISO2_CODE;;
activite;activity;PROPERTY_ACTIVITE;PROPERTY_ACTIVITY;;
wormsId;wormsId;PROPERTY_WORMS_ID;PROPERTY_WORMS_ID;;
devenir;objectFate;PROPERTY_DEVENIR;PROPERTY_OBJECT_FATE;;
dateFin;endDate;PROPERTY_DATE_FIN;PROPERTY_END_DATE;;
codeFAO;faoCode;PROPERTY_CODE_FAO;PROPERTY_FAO_CODE;;
capture;discarded;PROPERTY_CAPTURE;PROPERTY_DISCARDED;;
status;status;PROPERTY_STATUS;PROPERTY_STATUS;;
rejete;discarded;PROPERTY_REJETE;PROPERTY_DISCARDED;;
prenom;firstName;PROPERTY_PRENOM;PROPERTY_FIRST_NAME;;
nombre;count;PROPERTY_NOMBRE;PROPERTY_COUNT;;
marque;brand;PROPERTY_MARQUE;PROPERTY_BRAND;;
groupe;speciesGroup;PROPERTY_GROUPE;PROPERTY_SPECIES_GROUP;;
espece;species;PROPERTY_ESPECE;PROPERTY_SPECIES;;
code3L;homeId;PROPERTY_CODE3_L;PROPERTY_HOME_ID;;
bateau;vessel;PROPERTY_BATEAU;PROPERTY_VESSEL;;
route;route;PROPERTY_ROUTE;PROPERTY_ROUTE;;
poids;weight;PROPERTY_POIDS;PROPERTY_WEIGHT;;
poidsC;catchWeight;PROPERTY_POIDS;PROPERTY_CATCH_WEIGHT;;
poidsT;totalWeight;PROPERTY_POIDS;PROPERTY_TOTAL_WEIGHT;;
ocean;ocean;PROPERTY_OCEAN;PROPERTY_OCEAN;;
jauge;vesselSizeCategory;PROPERTY_JAUGE;PROPERTY_VESSEL_SIZE_CATEGORY;;
iders;ersId;PROPERTY_IDERS;PROPERTY_ERS_ID;;
calee;set;PROPERTY_CALEE;PROPERTY_SET;;
sexe;gender;PROPERTY_SEXE;PROPERTY_GENDER;;
pays;country;PROPERTY_PAYS;PROPERTY_COUNTRY;;
open;open;PROPERTY_OPEN;PROPERTY_OPEN;;
cuve;well;PROPERTY_CUVE;PROPERTY_WELL;;
code;code;PROPERTY_CODE;PROPERTY_CODE;;
uri;uri;PROPERTY_URI;PROPERTY_URI;;
nom;lastName;PROPERTY_NOM;PROPERTY_LAST_NAME;;
vitesse;speed;PROPERTY_VITESSE;PROPERTY_SPEED;;
especeFaune;species;PROPERTY_ESPECE_FAUNE;PROPERTY_SPECIES;;
especeThon;species;PROPERTY_ESPECE_THON;PROPERTY_SPECIES;;
