{
  "url": "/api/public/data/ll/observation/Encounter",
  "method": "GET",
  "headers": {
    "authenticationToken": "XXX"
  },
  "parameters": {
    "config.recursive": "true",
    "config.prettyPrint": "true",
    "config.serializeNulls": "true",
    "filters.lastUpdateDate": "2018-09-24T09:18:05.604Z"
  }
}