{
  "url": "/api/public/referential/ll/common/LineType/fr.ird.referential.ll.common.LineType-1239832686157-0.1",
  "method": "GET",
  "headers": {
    "authenticationToken": "XXX"
  },
  "parameters": {
    "config.recursive": "true",
    "config.prettyPrint": "true",
    "config.serializeNulls": "true"
  }
}