{
  "url": "/api/public/referential/ps/logbook/SetSuccessStatus",
  "method": "GET",
  "headers": {
    "authenticationToken": "XXX"
  },
  "parameters": {
    "filters": "${_filters}",
    "orders": "${_orders}",
    "config.caseSensitive": "${_config.caseSensitive}",
    "config.loadReferential": "${_config.loadReferential}",
    "config.recursive": "${_config.recursive}",
    "config.prettyPrint": "${_config.prettyPrint}",
    "config.serializeNulls": "${_config.serializeNulls}",
    "referentialLocale": "${_referentialLocale}"
  }
}