{
  "topiaId": "fr.ird.data.ps.common.Trip#1553970328158#0.44863535394269627",
  "topiaCreateDate": "2019-03-30T18:25:25.708Z",
  "lastUpdateDate": "2021-03-30T13:29:26.857Z",
  "homeId": "584",
  "startDate": "2019-03-30T00:00:00.000Z",
  "endDate": "2019-04-08T00:00:00.000Z",
  "formsUrl": null,
  "reportsUrl": null,
  "historicalData": false,
  "ersId": null,
  "ocean": "fr.ird.referential.common.Ocean#1239832686151#0.17595105505051245",
  "timeAtSea": null,
  "fishingTime": null,
  "landingTotalWeight": null,
  "localMarketTotalWeight": null,
  "loch": null,
  "generalComment": "s",
  "observationsComment": "[Corrections RMT recues le 20190926 - 20191001 - PSabarros]s",
  "logbookComment": null,
  "gearUseFeatures": [
    {
      "topiaId": "fr.ird.data.ps.common.GearUseFeatures#1612698996131#0.6058958440089384",
      "topiaCreateDate": "2021-02-07T12:55:59.507Z",
      "lastUpdateDate": "2021-02-07T12:56:36.158Z",
      "homeId": null,
      "comment": null,
      "number": 1.0,
      "usedInTrip": true,
      "gear": "fr.ird.referential.common.Gear#1239832686125#0.23",
      "gearUseFeaturesMeasurement": [
        {
          "topiaId": "fr.ird.data.ps.common.GearUseFeaturesMeasurement#1612698996149#0.4415127885939093",
          "topiaCreateDate": "2021-02-07T12:56:14.908Z",
          "lastUpdateDate": "2021-02-07T12:56:36.158Z",
          "homeId": null,
          "measurementValue": "12DF",
          "gearCharacteristic": "fr.ird.referential.common.GearCharacteristic#1239832686124#0.6"
        },
        {
          "topiaId": "fr.ird.data.ps.common.GearUseFeaturesMeasurement#1612698996149#0.6987455069734627",
          "topiaCreateDate": "2021-02-07T12:56:14.908Z",
          "lastUpdateDate": "2021-02-07T12:56:36.158Z",
          "homeId": null,
          "measurementValue": "Copain",
          "gearCharacteristic": "fr.ird.referential.common.GearCharacteristic#1239832686124#0.17"
        }
      ]
    }
  ],
  "routeObs": [
    {
      "topiaId": "fr.ird.data.ps.observation.Route#1553970347455#0.22851279927910728",
      "topiaCreateDate": "2019-03-30T18:25:45.552Z",
      "lastUpdateDate": "2019-03-31T08:22:36.406Z",
      "homeId": null,
      "comment": "Départ du port de  pêche d'Abidjan pour la suite et la fin de la marée en cours.",
      "date": "2019-03-30T00:00:00.000Z",
      "startLogValue": 0.0,
      "endLogValue": 9.0,
      "activity": [
        {
          "topiaId": "fr.ird.data.ps.observation.Activity#1553970468995#0.9370845398070647",
          "topiaCreateDate": "2019-03-30T18:27:48.995Z",
          "lastUpdateDate": "2019-03-30T18:27:48.995Z",
          "homeId": null,
          "comment": "Départ du port de pêche pour la fin de la marée",
          "time": "1970-01-01T18:00:55.000Z",
          "latitude": 5.2833,
          "longitude": -4.0,
          "vesselSpeed": 2.0,
          "seaSurfaceTemperature": 29.2,
          "observedSystemDistance": 0.1,
          "ersId": null,
          "vesselActivity": "fr.ird.referential.ps.common.VesselActivity#1239832675349#0.363119635949572",
          "surroundingActivity": "fr.ird.referential.ps.observation.SurroundingActivity#1239832675516#0.09902335653153349",
          "wind": "fr.ird.referential.common.Wind#1239832686605#0.756896053766457",
          "detectionMode": "fr.ird.referential.ps.observation.DetectionMode#1239832686122#0.3243132538654122",
          "reasonForNoFishing": null,
          "set": null,
          "floatingObject": [],
          "observedSystem": [
            "fr.ird.referential.ps.common.ObservedSystem#1239832686428#0.3156304184082318"
          ],
          "currentFpaZone": "fr.ird.referential.common.FpaZone#1239832686122#1.1",
          "previousFpaZone": null,
          "nextFpaZone": null,
          "dataQuality": "fr.ird.referential.common.DataQuality#0#1"
        },
        {
          "topiaId": "fr.ird.data.ps.observation.Activity#1553972732733#0.06981383275136255",
          "topiaCreateDate": "2019-03-30T19:05:32.733Z",
          "lastUpdateDate": "2019-03-30T19:05:32.733Z",
          "homeId": null,
          "comment": "Route de nuit",
          "time": "1970-01-01T19:00:36.000Z",
          "latitude": 5.1667,
          "longitude": -4.0,
          "vesselSpeed": 11.0,
          "seaSurfaceTemperature": 28.1,
          "observedSystemDistance": null,
          "ersId": null,
          "vesselActivity": "fr.ird.referential.ps.common.VesselActivity#1239832675368#0.976590514005213",
          "surroundingActivity": "fr.ird.referential.ps.observation.SurroundingActivity#1239832675516#0.09902335653153349",
          "wind": "fr.ird.referential.common.Wind#1239832686605#0.561188597983181",
          "detectionMode": null,
          "reasonForNoFishing": null,
          "set": null,
          "floatingObject": [],
          "observedSystem": [
            "fr.ird.referential.ps.common.ObservedSystem#1239832686426#0.6606964000652922"
          ],
          "currentFpaZone": "fr.ird.referential.common.FpaZone#1239832686122#1.1",
          "previousFpaZone": null,
          "nextFpaZone": null,
          "dataQuality": "fr.ird.referential.common.DataQuality#0#1"
        }
      ]
    },
    {
      "topiaId": "fr.ird.data.ps.observation.Route#1554020934747#0.5696067053634813",
      "topiaCreateDate": "2019-03-31T08:28:54.747Z",
      "lastUpdateDate": "2019-03-31T19:29:17.068Z",
      "homeId": null,
      "comment": "Une calée sur banc libre et une autre sur banc objet, trois autres radeaux rencontrés; seul dans la zone ; journée ensoleillée avec  une légère brise et une mer belle (vaguelettes).",
      "date": "2019-03-31T00:00:00.000Z",
      "startLogValue": 118.0,
      "endLogValue": 183.0,
      "activity": [
        {
          "topiaId": "fr.ird.data.ps.observation.Activity#1554020987429#0.33079131403460005",
          "topiaCreateDate": "2019-03-31T08:29:47.429Z",
          "lastUpdateDate": "2019-03-31T08:29:47.429Z",
          "homeId": null,
          "comment": null,
          "time": "1970-01-01T06:13:58.000Z",
          "latitude": 3.95,
          "longitude": -5.2667,
          "vesselSpeed": 10.0,
          "seaSurfaceTemperature": 29.9,
          "observedSystemDistance": null,
          "ersId": null,
          "vesselActivity": "fr.ird.referential.ps.common.VesselActivity#1239832675368#0.23635552874754517",
          "surroundingActivity": "fr.ird.referential.ps.observation.SurroundingActivity#1239832675515#0.16947202179029996",
          "wind": "fr.ird.referential.common.Wind#1239832686605#0.561188597983181",
          "detectionMode": null,
          "reasonForNoFishing": null,
          "set": null,
          "floatingObject": [],
          "observedSystem": [
            "fr.ird.referential.ps.common.ObservedSystem#1239832686426#0.6606964000652922"
          ],
          "currentFpaZone": "fr.ird.referential.common.FpaZone#1239832686122#1.1",
          "previousFpaZone": null,
          "nextFpaZone": null,
          "dataQuality": "fr.ird.referential.common.DataQuality#0#1"
        },
        {
          "topiaId": "fr.ird.data.ps.observation.Activity#1554021022053#0.9612246339576326",
          "topiaCreateDate": "2019-03-31T08:30:22.053Z",
          "lastUpdateDate": "2019-03-31T08:30:22.053Z",
          "homeId": null,
          "comment": null,
          "time": "1970-01-01T06:54:49.000Z",
          "latitude": 3.95,
          "longitude": -5.35,
          "vesselSpeed": 11.0,
          "seaSurfaceTemperature": 30.0,
          "observedSystemDistance": 0.4,
          "ersId": null,
          "vesselActivity": "fr.ird.referential.ps.common.VesselActivity#1239832675369#0.08910085510139154",
          "surroundingActivity": "fr.ird.referential.ps.observation.SurroundingActivity#1239832675515#0.16947202179029996",
          "wind": "fr.ird.referential.common.Wind#1239832686605#0.561188597983181",
          "detectionMode": "fr.ird.referential.ps.observation.DetectionMode#1239832686122#0.11073840364502163",
          "reasonForNoFishing": null,
          "set": null,
          "floatingObject": [],
          "observedSystem": [
            "fr.ird.referential.ps.common.ObservedSystem#1239832686427#0.4875966267297659",
            "fr.ird.referential.ps.common.ObservedSystem#1239832686427#0.6223326827132584"
          ],
          "currentFpaZone": "fr.ird.referential.common.FpaZone#1239832686122#1.1",
          "previousFpaZone": null,
          "nextFpaZone": null,
          "dataQuality": "fr.ird.referential.common.DataQuality#0#1"
        }
      ]
    }
  ],
  "routeLogbook": [
    {
      "topiaId": "fr.ird.data.ps.logbook.Route#1616767950667#0.2733836567509864",
      "topiaCreateDate": "2021-03-26T15:12:22.127Z",
      "lastUpdateDate": "2021-03-28T20:24:25.360Z",
      "homeId": null,
      "comment": null,
      "date": "2019-03-30T00:00:00.000Z",
      "timeAtSea": null,
      "fishingTime": null,
      "activity": [
        {
          "topiaId": "fr.ird.data.ps.logbook.Activity#1616767975989#0.4873500558653976",
          "topiaCreateDate": "2021-03-26T15:12:39.719Z",
          "lastUpdateDate": "2021-03-28T20:24:25.360Z",
          "homeId": null,
          "comment": null,
          "time": "1970-01-01T15:12:00.000Z",
          "latitude": 3.0,
          "longitude": -4.0,
          "latitudeOriginal": null,
          "longitudeOriginal": null,
          "originalDataModified": false,
          "vmsDivergent": false,
          "positionCorrected": false,
          "number": 1.0,
          "setCount": null,
          "seaSurfaceTemperature": null,
          "windDirection": null,
          "vesselActivity": "fr.ird.referential.ps.common.VesselActivity#1239832675369#0.12552908048322586",
          "wind": null,
          "totalWeight": null,
          "currentSpeed": null,
          "currentDirection": null,
          "schoolType": null,
          "relatedObservedActivity": "fr.ird.data.ps.observation.Activity#1554021069610#0.2462353141793846",
          "catches": [
            {
              "topiaId": "fr.ird.data.ps.logbook.Catch#1616768024297#0.28635979304850434",
              "topiaCreateDate": "2021-03-26T15:13:04.204Z",
              "lastUpdateDate": "2021-03-26T15:13:44.295Z",
              "homeId": null,
              "comment": "qa",
              "species": "fr.ird.referential.common.Species#1239832685474#0.975344121171992",
              "weightCategory": "fr.ird.referential.ps.common.WeightCategory#1464000000000#1014",
              "speciesFate": "fr.ird.referential.ps.common.SpeciesFate#1501492537510#0.9210847837998154",
              "weight": 123.0,
              "count": 3.0,
              "weightMeasureMethod": "fr.ird.referential.common.WeightMeasureMethod#666#03",
              "well": null
            },
            {
              "topiaId": "fr.ird.data.ps.logbook.Catch#1616768024300#0.3257159311795905",
              "topiaCreateDate": "2021-03-26T15:13:24.143Z",
              "lastUpdateDate": "2021-03-26T15:13:44.295Z",
              "homeId": null,
              "comment": null,
              "species": "fr.ird.referential.common.Species#1239832685475#0.13349466123905152",
              "weightCategory": "fr.ird.referential.ps.common.WeightCategory#1464000000000#1021",
              "speciesFate": "fr.ird.referential.ps.common.SpeciesFate#1239832683619#0.5722739932065866",
              "weight": 43.0,
              "count": 12.0,
              "weightMeasureMethod": "fr.ird.referential.common.WeightMeasureMethod#666#03",
              "well": null
            }
          ],
          "floatingObject": [
            {
              "topiaId": "fr.ird.data.ps.logbook.FloatingObject#1616955224271#0.8748844202241",
              "topiaCreateDate": "2021-03-28T20:13:31.864Z",
              "lastUpdateDate": "2021-03-28T20:15:12.010Z",
              "homeId": null,
              "comment": null,
              "objectOperation": "fr.ird.referential.ps.common.ObjectOperation#0#5",
              "supportVesselName": null,
              "transmittingBuoy": [
                {
                  "topiaId": "fr.ird.data.ps.logbook.TransmittingBuoy#1616955224272#0.1758599871793043",
                  "topiaCreateDate": "2021-03-28T20:13:31.864Z",
                  "lastUpdateDate": "2021-03-28T20:13:44.266Z",
                  "homeId": null,
                  "comment": "sd",
                  "code": "12",
                  "transmittingBuoyOwnership": "fr.ird.referential.ps.common.TransmittingBuoyOwnership#0#3",
                  "transmittingBuoyType": "fr.ird.referential.ps.common.TransmittingBuoyType#1555597980126#0.05150271747853408",
                  "transmittingBuoyOperation": "fr.ird.referential.ps.common.TransmittingBuoyOperation#1239832686238#0.4755624782839416",
                  "country": "fr.ird.referential.common.Country#1239832675584#0.10128636927717882",
                  "vessel": "fr.ird.referential.common.Vessel#1239832677756#0.4935293150142165",
                  "latitude": null,
                  "longitude": null
                }
              ],
              "floatingObjectPart": [
                {
                  "topiaId": "fr.ird.data.ps.logbook.FloatingObjectPart#1616955312002#0.004817068771328259",
                  "topiaCreateDate": "2021-03-28T20:15:11.926Z",
                  "lastUpdateDate": "2021-03-28T20:15:12.002Z",
                  "homeId": null,
                  "whenArriving": "true",
                  "whenLeaving": "true",
                  "objectMaterial": "fr.ird.referential.ps.common.ObjectMaterial#0#0.2"
                }
              ],
              "computedWhenArrivingBiodegradable": "UNKNOWN",
              "computedWhenArrivingNonEntangling": "UNKNOWN",
              "computedWhenArrivingSimplifiedObjectType": "DFAD",
              "computedWhenLeavingBiodegradable": "UNKNOWN",
              "computedWhenLeavingNonEntangling": "UNKNOWN",
              "computedWhenLeavingSimplifiedObjectType": "DFAD"
            }
          ],
          "observedSystem": [
            "fr.ird.referential.ps.common.ObservedSystem#0#1.2",
            "fr.ird.referential.ps.common.ObservedSystem#1239832686428#0.6854047537933218"
          ],
          "currentFpaZone": null,
          "previousFpaZone": null,
          "nextFpaZone": null,
          "dataQuality": null,
          "informationSource": null,
          "reasonForNoFishing": null,
          "setSuccessStatus": null,
          "reasonForNullSet": null
        }
      ]
    },
    {
      "topiaId": "fr.ird.data.ps.logbook.Route#1616767950667#0.2733836567509865",
      "topiaCreateDate": "2021-03-26T15:12:22.127Z",
      "lastUpdateDate": "2021-03-28T20:24:25.360Z",
      "homeId": null,
      "comment": null,
      "date": "2019-04-01T00:00:00.000Z",
      "timeAtSea": null,
      "fishingTime": null,
      "activity": [
        {
          "topiaId": "fr.ird.data.ps.logbook.Activity#1616767975989#0.4873500558653977",
          "topiaCreateDate": "2021-03-26T15:12:39.719Z",
          "lastUpdateDate": "2021-03-28T20:24:25.360Z",
          "homeId": null,
          "comment": null,
          "time": "1970-01-01T15:12:00.000Z",
          "latitude": 3.0,
          "longitude": -4.0,
          "latitudeOriginal": null,
          "longitudeOriginal": null,
          "originalDataModified": false,
          "vmsDivergent": false,
          "positionCorrected": false,
          "number": 1.0,
          "setCount": null,
          "seaSurfaceTemperature": null,
          "windDirection": null,
          "vesselActivity": "fr.ird.referential.ps.common.VesselActivity#1239832675369#0.12552908048322586",
          "wind": null,
          "totalWeight": null,
          "currentSpeed": null,
          "currentDirection": null,
          "schoolType": null,
          "relatedObservedActivity": null,
          "catches": [],
          "floatingObject": [],
          "observedSystem": [],
          "currentFpaZone": null,
          "previousFpaZone": null,
          "nextFpaZone": null,
          "dataQuality": null,
          "informationSource": null,
          "reasonForNoFishing": null,
          "setSuccessStatus": null,
          "reasonForNullSet": null
        },
        {
          "topiaId": "fr.ird.data.ps.logbook.Activity#1616767975989#0.4873500558653978",
          "topiaCreateDate": "2021-03-26T15:12:39.719Z",
          "lastUpdateDate": "2021-03-28T20:24:25.360Z",
          "homeId": null,
          "comment": null,
          "time": "1970-01-01T15:12:00.000Z",
          "latitude": 3.0,
          "longitude": -4.0,
          "latitudeOriginal": null,
          "longitudeOriginal": null,
          "originalDataModified": false,
          "vmsDivergent": false,
          "positionCorrected": false,
          "number": 1.0,
          "setCount": null,
          "seaSurfaceTemperature": null,
          "windDirection": null,
          "vesselActivity": "fr.ird.referential.ps.common.VesselActivity#1239832675369#0.12552908048322586",
          "wind": null,
          "totalWeight": null,
          "currentSpeed": null,
          "currentDirection": null,
          "schoolType": null,
          "relatedObservedActivity": null,
          "catches": [],
          "floatingObject": [],
          "observedSystem": [],
          "currentFpaZone": null,
          "previousFpaZone": null,
          "nextFpaZone": null,
          "dataQuality": null,
          "informationSource": null,
          "reasonForNoFishing": null,
          "setSuccessStatus": null,
          "reasonForNullSet": null
        }
      ]
    }
  ],
  "well": [
    {
      "topiaId": "fr.ird.data.ps.logbook.Well#0#0",
      "topiaCreateDate": "2021-03-26T15:13:50.689Z",
      "lastUpdateDate": "2021-03-26T15:14:35.748Z",
      "homeId": null,
      "well": "3T",
      "wellVessel": "3D",
      "wellFactory": "4D",
      "wellSamplingConformity": "fr.ird.referential.ps.logbook.WellSamplingConformity#1464000000000#09",
      "wellSamplingStatus": "fr.ird.referential.ps.logbook.WellSamplingStatus#1464000000000#09",
      "wellActivity": [
        {
          "topiaId": "fr.ird.data.ps.logbook.WellActivity#0#0",
          "topiaCreateDate": "2021-03-26T15:13:50.689Z",
          "lastUpdateDate": "2021-03-26T15:14:35.748Z",
          "homeId": null,
          "activity": "fr.ird.data.ps.logbook.Activity#1616767975989#0.4873500558653976",
          "wellActivitySpecies": [
            {
              "topiaId": "fr.ird.data.ps.logbook.WellActivitySpecies#0#0",
              "topiaCreateDate": "2021-03-26T15:13:50.689Z",
              "lastUpdateDate": "2021-03-26T15:14:35.748Z",
              "homeId": null,
              "species": "fr.ird.referential.common.Species#1239832685475#0.13349466123905152",
              "weightCategory": "fr.ird.referential.ps.common.WeightCategory#1464000000000#00001",
              "weight": 12.0,
              "count": 3.0,
              "setSpeciesNumber": 456.0
            }
          ]
        }
      ]
    }
  ],
  "sample": [
    {
      "topiaId": "fr.ird.data.ps.logbook.Sample#1616768092884#0.8805004437915559",
      "topiaCreateDate": "2021-03-26T15:14:40.311Z",
      "lastUpdateDate": "2021-03-30T11:36:38.989Z",
      "homeId": null,
      "number": 1.0,
      "comment": null,
      "well": "3T",
      "sampleType": "fr.ird.referential.ps.common.SampleType#1464000000000#01",
      "sampleQuality": "fr.ird.referential.ps.logbook.SampleQuality#1464000000000#01",
      "superSample": false,
      "smallsWeight": null,
      "bigsWeight": null,
      "totalWeight": 45.0,
      "person": [],
      "sampleActivity": [
        {
          "topiaId": "fr.ird.data.ps.logbook.SampleActivity#1612861310013#0.9926675881926301",
          "topiaCreateDate": "2021-02-09T10:01:31.980Z",
          "lastUpdateDate": "2021-02-09T10:01:50.010Z",
          "homeId": null,
          "activity": "fr.ird.data.ps.logbook.Activity#1616767975989#0.4873500558653976",
          "weightedWeight": 1.2,
          "weightedWeightComputed": true
        }
      ],
      "sampleSpecies": [
        {
          "topiaId": "fr.ird.data.ps.logbook.SampleSpecies#1617096981782#0.17042072657028862",
          "topiaCreateDate": "2021-03-30T11:36:13.381Z",
          "lastUpdateDate": "2021-03-30T11:36:38.989Z",
          "homeId": null,
          "comment": null,
          "startTime": null,
          "endTime": null,
          "subSampleNumber": 0.0,
          "measuredCount": 10.0,
          "totalCount": 12.0,
          "species": "fr.ird.referential.common.Species#1308738639113#0.434038308601438",
          "sizeMeasureType": "fr.ird.referential.common.SizeMeasureType#1433499466532#0.844473292818293",
          "sampleSpeciesMeasure": [
            {
              "topiaId": "fr.ird.data.ps.logbook.SampleSpeciesMeasure#1617096998980#0.055388598211617346",
              "topiaCreateDate": "2021-03-30T11:36:28.045Z",
              "lastUpdateDate": "2021-03-30T11:36:38.967Z",
              "homeId": null,
              "sizeClass": 1.0,
              "count": 12.0
            }
          ]
        }
      ]
    },
    {
      "topiaId": "fr.ird.data.ps.logbook.Sample#1616768092884#0.8805004437915560",
      "topiaCreateDate": "2021-03-26T15:14:40.311Z",
      "lastUpdateDate": "2021-03-30T11:36:38.989Z",
      "homeId": null,
      "number": 1.0,
      "comment": null,
      "well": "3T",
      "sampleType": "fr.ird.referential.ps.common.SampleType#1464000000000#01",
      "sampleQuality": "fr.ird.referential.ps.logbook.SampleQuality#1464000000000#01",
      "superSample": false,
      "smallsWeight": null,
      "bigsWeight": null,
      "totalWeight": 45.0,
      "person": [],
      "sampleActivity": [],
      "sampleSpecies": []
    }
  ],
  "landing": [
    {
      "topiaId": "fr.ird.data.ps.landing.Landing#1616955391466#0.9083548924412933",
      "topiaCreateDate": "2021-03-28T20:15:49.669Z",
      "lastUpdateDate": "2021-03-28T20:16:31.466Z",
      "homeId": null,
      "date": null,
      "species": "fr.ird.referential.common.Species#1239832685475#0.13349466123905152",
      "weightCategory": "fr.ird.referential.ps.common.WeightCategory#1464000000000#027",
      "destination": "fr.ird.referential.ps.landing.Destination#1464000000000#02",
      "fate": "fr.ird.referential.ps.landing.Fate#1464000000000#02",
      "fateVessel": "fr.ird.referential.common.Vessel#1239832678461#0.8848371349192811",
      "weight": 122.0
    },
    {
      "topiaId": "fr.ird.data.ps.landing.Landing#1616767845680#0.9084578589525576",
      "topiaCreateDate": "2021-03-26T15:10:27.715Z",
      "lastUpdateDate": "2021-03-26T15:10:45.668Z",
      "homeId": null,
      "date": null,
      "species": "fr.ird.referential.common.Species#1239832685474#0.975344121171992",
      "weightCategory": "fr.ird.referential.ps.common.WeightCategory#1464000000000#013",
      "destination": "fr.ird.referential.ps.landing.Destination#1464000000000#01",
      "fate": "fr.ird.referential.ps.landing.Fate#1464000000000#02",
      "fateVessel": "fr.ird.referential.common.Vessel#1239832677756#0.4935293150142165",
      "weight": 12.0
    }
  ],
  "localmarketBatch": [
    {
      "topiaId": "fr.ird.data.ps.localmarket.Batch#1617103690104#0.11538487864349034",
      "topiaCreateDate": "2021-03-30T13:27:25.008Z",
      "lastUpdateDate": "2021-03-30T13:29:26.857Z",
      "homeId": null,
      "date": null,
      "species": "fr.ird.referential.common.Species#1308738639113#0.434038308601438",
      "packaging": "fr.ird.referential.ps.localmarket.Packaging#1464000000000#005",
      "buyer": "fr.ird.referential.ps.localmarket.Buyer#0#0",
      "count": 12.0,
      "weight": null,
      "weightComputedSource": null,
      "survey": "fr.ird.data.ps.localmarket.Survey#1616777784834#0.5204977416802337",
      "origin": "zzz",
      "comment": null
    },
    {
      "topiaId": "fr.ird.data.ps.localmarket.Batch#1617103690123#0.3281874973772615",
      "topiaCreateDate": "2021-03-30T13:27:47.387Z",
      "lastUpdateDate": "2021-03-30T13:29:26.857Z",
      "homeId": null,
      "date": null,
      "species": "fr.ird.referential.common.Species#1308738639113#0.434038308601438",
      "packaging": "fr.ird.referential.ps.localmarket.Packaging#1464000000000#001",
      "buyer": "fr.ird.referential.ps.localmarket.Buyer#0#0",
      "count": null,
      "weight": 4.99,
      "weightComputedSource": null,
      "survey": "fr.ird.data.ps.localmarket.Survey#1616777784834#0.5204977416802337",
      "origin": null,
      "comment": null
    }
  ],
  "localmarketSurvey": [
    {
      "topiaId": "fr.ird.data.ps.localmarket.Survey#1616777784834#0.5204977416802337",
      "topiaCreateDate": "2021-03-26T17:56:13.389Z",
      "lastUpdateDate": "2021-03-30T13:29:02.030Z",
      "homeId": null,
      "comment": "djdjdj",
      "date": "2021-03-26T00:00:00.000Z",
      "number": 1.0,
      "surveyPart": [
        {
          "topiaId": "fr.ird.data.ps.localmarket.SurveyPart#1616777836065#0.46749535985654433",
          "topiaCreateDate": "2021-03-26T17:56:34.405Z",
          "lastUpdateDate": "2021-03-26T17:57:16.061Z",
          "homeId": null,
          "species": "fr.ird.referential.common.Species#1308738639113#0.434038308601438",
          "proportion": 89.0
        },
        {
          "topiaId": "fr.ird.data.ps.localmarket.SurveyPart#1616777836066#0.09772887824959264",
          "topiaCreateDate": "2021-03-26T17:56:49.926Z",
          "lastUpdateDate": "2021-03-26T17:57:16.061Z",
          "homeId": null,
          "species": "fr.ird.referential.common.Species#201007241100#0.12345370",
          "proportion": 10.0
        }
      ]
    }
  ],
  "localmarketSample": [
    {
      "topiaId": "fr.ird.data.ps.localmarket.Sample#1616832487726#0.257522479716059",
      "topiaCreateDate": "2021-03-27T09:07:48.793Z",
      "lastUpdateDate": "2021-03-27T10:33:57.271Z",
      "homeId": null,
      "number": "1",
      "date": "2021-03-27T00:00:00.000Z",
      "comment": "taiste",
      "sampleType": "fr.ird.referential.ps.common.SampleType#1464000000000#09",
      "sampleSpecies": [
        {
          "topiaId": "fr.ird.data.ps.localmarket.SampleSpecies#1616837637237#0.8332580389171907",
          "topiaCreateDate": "2021-03-27T10:33:48.489Z",
          "lastUpdateDate": "2021-03-27T10:33:57.222Z",
          "homeId": null,
          "comment": null,
          "measuredCount": 3.0,
          "species": "fr.ird.referential.common.Species#1308738639113#0.434038308601438",
          "sizeMeasureType": "fr.ird.referential.common.SizeMeasureType#1433499466532#0.844473292818293",
          "sampleSpeciesMeasure": [
            {
              "topiaId": "fr.ird.data.ps.localmarket.SampleSpeciesMeasure#1616837637237#0.8332580389171907",
              "topiaCreateDate": "2021-03-27T10:35:32.832Z",
              "lastUpdateDate": "2021-03-27T10:35:56.451Z",
              "homeId": null,
              "count": 4.0,
              "sizeClass": 12.5
            },
            {
              "topiaId": "fr.ird.data.ps.localmarket.SampleSpeciesMeasure#1616837637237#0.8332580389171908",
              "topiaCreateDate": "2021-03-27T10:35:32.832Z",
              "lastUpdateDate": "2021-03-27T10:35:56.451Z",
              "homeId": null,
              "count": 4.0,
              "sizeClass": 13.0
            }
          ]
        }
      ],
      "well": [
        "1T",
        "2T"
      ]
    },
    {
      "topiaId": "fr.ird.data.ps.localmarket.Sample#1616837707018#0.09039733360812274",
      "topiaCreateDate": "2021-03-27T10:34:48.703Z",
      "lastUpdateDate": "2021-03-28T20:11:10.113Z",
      "homeId": null,
      "number": "2",
      "date": "2021-03-27T00:00:00.000Z",
      "comment": "aa",
      "sampleType": "fr.ird.referential.ps.common.SampleType#1464000000000#09",
      "sampleSpecies": [
        {
          "topiaId": "fr.ird.data.ps.localmarket.SampleSpecies#1616837756453#0.9159777297172628",
          "topiaCreateDate": "2021-03-27T10:35:12.514Z",
          "lastUpdateDate": "2021-03-27T10:35:56.450Z",
          "homeId": null,
          "comment": null,
          "measuredCount": 3.0,
          "species": "fr.ird.referential.common.Species#1239832685474#0.975344121171992",
          "sizeMeasureType": "fr.ird.referential.common.SizeMeasureType#1433499465700#0.0902433863375336",
          "sampleSpeciesMeasure": [
            {
              "topiaId": "fr.ird.data.ps.localmarket.SampleSpeciesMeasure#1616837637237#0.8332580389171107",
              "topiaCreateDate": "2021-03-27T10:35:32.832Z",
              "lastUpdateDate": "2021-03-27T10:35:56.451Z",
              "homeId": null,
              "count": 4.0,
              "sizeClass": 1.5
            },
            {
              "topiaId": "fr.ird.data.ps.localmarket.SampleSpeciesMeasure#1616837637237#0.8332580389171108",
              "topiaCreateDate": "2021-03-27T10:35:32.832Z",
              "lastUpdateDate": "2021-03-27T10:35:56.451Z",
              "homeId": null,
              "count": 3.0,
              "sizeClass": 13.0
            }
          ]
        }
      ],
      "well": [
        "3B",
        "3T"
      ]
    }
  ],
  "vessel": "fr.ird.referential.common.Vessel#1239832679425#0.9136908731720471",
  "observationsProgram": "fr.ird.referential.ps.common.Program#1363095174385#0.011966550987014823",
  "logbookProgram": "fr.ird.referential.ps.common.Program#1239832686262#0.42751447061198444",
  "observer": "fr.ird.referential.common.Person#1371455748566#0.18706650956418513",
  "captain": "fr.ird.referential.common.Person#1558729153848#0.303915716641156",
  "observationsDataEntryOperator": "fr.ird.referential.common.Person#1371455748566#0.18706650956418513",
  "logbookDataEntryOperator": "fr.ird.referential.common.Person#1446117474872#0.3673578034116256",
  "departureHarbour": "fr.ird.referential.common.Harbour#11#0.1",
  "landingHarbour": "fr.ird.referential.common.Harbour#11#0.1",
  "observationsDataQuality": null,
  "logbookDataQuality": "fr.ird.referential.common.DataQuality#0#5",
  "departureWellContentStatus": "fr.ird.referential.ps.logbook.WellContentStatus#1464000000000#03",
  "landingWellContentStatus": "fr.ird.referential.ps.logbook.WellContentStatus#1464000000000#03",
  "observationsAcquisitionStatus": "fr.ird.referential.ps.common.AcquisitionStatus#1464000000000#001",
  "logbookAcquisitionStatus": "fr.ird.referential.ps.common.AcquisitionStatus#1464000000000#999",
  "targetWellsSamplingAcquisitionStatus": "fr.ird.referential.ps.common.AcquisitionStatus#1464000000000#999",
  "landingAcquisitionStatus": "fr.ird.referential.ps.common.AcquisitionStatus#1464000000000#999",
  "localMarketAcquisitionStatus": "fr.ird.referential.ps.common.AcquisitionStatus#1464000000000#999",
  "localMarketWellsSamplingAcquisitionStatus": "fr.ird.referential.ps.common.AcquisitionStatus#1464000000000#999",
  "localMarketSurveySamplingAcquisitionStatus": "fr.ird.referential.ps.common.AcquisitionStatus#1464000000000#999",
  "advancedSamplingAcquisitionStatus": "fr.ird.referential.ps.common.AcquisitionStatus#1464000000000#999",
  "activitiesAcquisitionMode": "BY_TIME"
}