{
  "url": "/api/public/data/ps/common/Trip/fr.ird.data.ps.common.Trip-1553970328158-0.44863535394269627",
  "method": "GET",
  "headers": {
    "authenticationToken": "XXX"
  },
  "parameters": {
    "config.recursive": "true",
    "config.prettyPrint": "true",
    "config.serializeNulls": "true"
  }
}