{
  "path": "fr.ird.observe.navigation.tree.navigation.referential.ll.common.ObservationMethodNavigationTreeNode:fr.ird.referential.ll.common.ObservationMethod#1239832686136#0.1",
  "content": [
    {
      "topiaId": "fr.ird.referential.ll.common.ObservationMethod#1239832686136#0.1",
      "topiaCreateDate": "2014-07-26T00:00:00.000Z",
      "lastUpdateDate": "2017-02-20T15:55:51.332Z",
      "code": "SR",
      "uri": null,
      "homeId": null,
      "needComment": false,
      "status": "enabled",
      "label1": "Self-reporting commercial cruise",
      "label2": "Marée commerciale auto-échantillonnée",
      "label3": "Self-reporting commercial cruise",
      "label4": null,
      "label5": null,
      "label6": null,
      "label7": null,
      "label8": null
    }
  ]
}