{
  "url": "/api/public/referential/ll/observation/MaturityStatus/fr.ird.referential.ll.observation.MaturityStatus-1239832686182-0.1",
  "method": "PUT",
  "headers": {
    "authenticationToken": "XXX",
    "Content-Type": "application/json"
  },
  "parameters": {},
  "payload": {
    "code": "1",
    "uri": null,
    "homeId": null,
    "needComment": false,
    "status": "enabled",
    "label1": "1",
    "label2": "1",
    "label3": "1",
    "label4": null,
    "label5": null,
    "label6": null,
    "label7": null,
    "label8": null,
    "lowerValue": "1",
    "upperValue": "1"
  }
}