{
  "path": "fr.ird.observe.tree.navigation.referential.ll.common.SettingShapeNavigationTreeNode:fr.ird.referential.ll.common.SettingShape#1239832686128#0.1",
  "content": [
    {
      "topiaId": "fr.ird.referential.ll.common.SettingShape#1239832686128#0.1",
      "topiaCreateDate": "2014-07-26T00:00:00.000Z",
      "lastUpdateDate": "2016-12-06T15:54:27.727Z",
      "code": "D",
      "uri": null,
      "homeId": null,
      "needComment": false,
      "status": "enabled",
      "label1": "Rectilinear",
      "label2": "Rectiligne",
      "label3": "Rectilinear",
      "label4": null,
      "label5": null,
      "label6": null,
      "label7": null,
      "label8": null
    }
  ]
}