{
  "url": "/api/public//home/tchemit/projects/ultreia.io/ird-observe/model/src/main/resources/fixtures/referential",
  "method": "GET",
  "headers": {
    "authenticationToken": "XXX"
  },
  "parameters": {
    "config.loadReferential": "${_config.loadReferential}",
    "config.recursive": "${_config.recursive}",
    "config.prettyPrint": "${_config.prettyPrint}",
    "config.serializeNulls": "${_config.serializeNulls}",
    "referentialLocale": "${_referentialLocale}"
  }
}