{
  "url": "/api/public/referential/ps/logbook/InformationSource",
  "method": "POST",
  "headers": {
    "authenticationToken": "XXX",
    "Content-Type": "application/json"
  },
  "parameters": {},
  "payload": {
    "code": "A",
    "uri": null,
    "homeId": null,
    "needComment": false,
    "status": "enabled",
    "label1": "AVDTH migration",
    "label2": "Migration AVDTH",
    "label3": "Migración de AVDTH",
    "label4": null,
    "label5": null,
    "label6": null,
    "label7": null,
    "label8": null
  }
}