{
  "url": "/api/public/data/ll/common/GearUseFeatures",
  "method": "POST",
  "headers": {
    "authenticationToken": "XXX",
    "Content-Type": "application/json"
  },
  "parameters": {},
  "payload": {
    "homeId": null,
    "comment": "sss",
    "number": 1.0,
    "usedInTrip": false,
    "gear": "fr.ird.referential.common.Gear#1239832686125#0.5",
    "gearUseFeaturesMeasurement": [
      {
        "homeId": null,
        "measurementValue": "123",
        "gearCharacteristic": "fr.ird.referential.common.GearCharacteristic#1239832686124#0.10"
      }
    ]
  }
}