{
  "topiaId": "fr.ird.data.ps.observation.ObjectObservedSpecies#1612860141918#0.8897715192745859",
  "topiaCreateDate": "2021-02-09T09:41:57.082Z",
  "lastUpdateDate": "2021-02-09T09:42:21.917Z",
  "homeId": null,
  "count": 3.0,
  "species": "fr.ird.referential.common.Species#1308738639113#0.434038308601438",
  "speciesStatus": "fr.ird.referential.ps.observation.SpeciesStatus#1239832686390#0.056026648869705986"
}