{
  "url": "/api/public/data/ps/observation/ObjectObservedSpecies/fr.ird.data.ps.observation.ObjectObservedSpecies-1612860141918-0.8897715192745859",
  "method": "GET",
  "headers": {
    "authenticationToken": "XXX"
  },
  "parameters": {
    "config.recursive": "true",
    "config.prettyPrint": "true",
    "config.serializeNulls": "true"
  }
}