{
  "url": "/api/public/referential/ll/observation/SensorBrand/fr.ird.referential.ll.observation.SensorBrand-1239832686130-0.1",
  "method": "PUT",
  "headers": {
    "authenticationToken": "XXX",
    "Content-Type": "application/json"
  },
  "parameters": {},
  "payload": {
    "code": "NKE",
    "uri": null,
    "homeId": null,
    "needComment": false,
    "status": "enabled",
    "brandName": "NKE"
  }
}