{
  "url": "/api/public/data/ps/logbook/FloatingObject/fr.ird.data.ps.logbook.FloatingObject-1616955224271-0.8748844202241",
  "method": "PUT",
  "headers": {
    "authenticationToken": "XXX",
    "Content-Type": "application/json"
  },
  "parameters": {},
  "payload": {
    "homeId": null,
    "comment": null,
    "objectOperation": "fr.ird.referential.ps.common.ObjectOperation#0#5",
    "supportVesselName": null,
    "transmittingBuoy": [
      {
        "homeId": null,
        "comment": "sd",
        "code": "12",
        "transmittingBuoyOwnership": "fr.ird.referential.ps.common.TransmittingBuoyOwnership#0#3",
        "transmittingBuoyType": "fr.ird.referential.ps.common.TransmittingBuoyType#1555597980126#0.05150271747853408",
        "transmittingBuoyOperation": "fr.ird.referential.ps.common.TransmittingBuoyOperation#1239832686238#0.4755624782839416",
        "country": "fr.ird.referential.common.Country#1239832675584#0.10128636927717882",
        "vessel": "fr.ird.referential.common.Vessel#1239832677756#0.4935293150142165",
        "latitude": null,
        "longitude": null
      }
    ],
    "floatingObjectPart": [
      {
        "homeId": null,
        "whenArriving": "true",
        "whenLeaving": "true",
        "objectMaterial": "fr.ird.referential.ps.common.ObjectMaterial#0#0.2"
      }
    ],
    "computedWhenArrivingBiodegradable": "UNKNOWN",
    "computedWhenArrivingNonEntangling": "UNKNOWN",
    "computedWhenArrivingSimplifiedObjectType": "DFAD",
    "computedWhenLeavingBiodegradable": "UNKNOWN",
    "computedWhenLeavingNonEntangling": "UNKNOWN",
    "computedWhenLeavingSimplifiedObjectType": "DFAD"
  }
}