{
  "path": "fr.ird.observe.navigation.tree.navigation.data.ps.logbook.CatchNavigationTreeNode:fr.ird.data.ps.logbook.Catch#1616768024297#0.28635979304850434",
  "content": [
    {
      "topiaId": "fr.ird.data.ps.logbook.Catch#1616768024297#0.28635979304850434",
      "topiaCreateDate": "2021-03-26T15:13:04.204Z",
      "lastUpdateDate": "2021-03-26T15:13:44.295Z",
      "homeId": null,
      "comment": "qa",
      "species": "fr.ird.referential.common.Species#1239832685474#0.975344121171992",
      "weightCategory": "fr.ird.referential.ps.common.WeightCategory#1464000000000#1014",
      "speciesFate": "fr.ird.referential.ps.common.SpeciesFate#1501492537510#0.9210847837998154",
      "weight": 123.0,
      "count": 3.0,
      "weightMeasureMethod": "fr.ird.referential.common.WeightMeasureMethod#666#03",
      "well": null
    }
  ]
}