{
  "homeId": "String",
  "proportion": "Integer",
  "individualSize": "Integer",
  "individualWeight": "Float",
  "baitSettingStatus": "fr.ird.observe.entities.referential.ll.common.BaitSettingStatus",
  "baitType": "fr.ird.observe.entities.referential.ll.common.BaitType"
}