{
  "path": "fr.ird.observe.navigation.tree.navigation.referential.common.GearCharacteristicNavigationTreeNode:fr.ird.referential.common.GearCharacteristic#1239832686124#0.11",
  "content": [
    {
      "topiaId": "fr.ird.referential.common.GearCharacteristic#1239832686124#0.11",
      "topiaCreateDate": "2015-03-28T00:00:00.000Z",
      "lastUpdateDate": "2016-12-06T15:54:27.727Z",
      "code": "1",
      "uri": null,
      "homeId": null,
      "needComment": false,
      "status": "enabled",
      "label1": "sack mesh size",
      "label2": "Maille de poche",
      "label3": "malla del saco",
      "label4": null,
      "label5": null,
      "label6": null,
      "label7": null,
      "label8": null,
      "unit": "mm",
      "gearCharacteristicType": "fr.ird.referential.common.GearCharacteristicType#1239832686123#0.5"
    }
  ]
}