{
  "url": "/api/public/data/ll/logbook/Set/fr.ird.data.ll.logbook.Set-1464000000000-0.01093484",
  "method": "GET",
  "headers": {
    "authenticationToken": "XXX"
  },
  "parameters": {
    "config.recursive": "true",
    "config.prettyPrint": "true",
    "config.serializeNulls": "true"
  }
}