{
  "path": "fr.ird.observe.navigation.tree.navigation.referential.ll.common.CatchFateNavigationTreeNode:fr.ird.referential.ll.common.CatchFate#1239832686125#0.2",
  "content": [
    {
      "topiaId": "fr.ird.referential.ll.common.CatchFate#1239832686125#0.2",
      "topiaCreateDate": "2014-07-26T00:00:00.000Z",
      "lastUpdateDate": "2023-07-20T00:00:00.000Z",
      "code": "KEPT",
      "uri": null,
      "homeId": null,
      "needComment": false,
      "status": "enabled",
      "label1": "Kept on board",
      "label2": "Conservé à bord",
      "label3": "Kept on board",
      "label4": null,
      "label5": null,
      "label6": null,
      "label7": null,
      "label8": null,
      "observation": true,
      "logbook": true
    }
  ]
}