{
  "path": "fr.ird.observe.navigation.tree.navigation.referential.common.SexNavigationTreeNode",
  "content": [
    {
      "topiaId": "fr.ird.referential.common.Sex#1239832686121#0.0",
      "topiaCreateDate": "2014-07-01T00:00:00.000Z",
      "lastUpdateDate": "2016-12-06T15:54:27.727Z",
      "code": "0",
      "uri": null,
      "homeId": null,
      "needComment": false,
      "status": "enabled",
      "label1": "Undetermined",
      "label2": "Indéterminé",
      "label3": "Undetermined",
      "label4": null,
      "label5": null,
      "label6": null,
      "label7": null,
      "label8": null
    },
    {
      "topiaId": "fr.ird.referential.common.Sex#1239832686122#0.2",
      "topiaCreateDate": "2014-07-01T00:00:00.000Z",
      "lastUpdateDate": "2016-12-06T15:54:27.727Z",
      "code": "1",
      "uri": null,
      "homeId": null,
      "needComment": false,
      "status": "enabled",
      "label1": "Male",
      "label2": "Male",
      "label3": "Macho",
      "label4": null,
      "label5": null,
      "label6": null,
      "label7": null,
      "label8": null
    }
  ]
}