{
  "homeId": null,
  "well": "3T",
  "wellVessel": "3D",
  "wellFactory": "4D",
  "wellSamplingConformity": "fr.ird.referential.ps.logbook.WellSamplingConformity#1464000000000#09",
  "wellSamplingStatus": "fr.ird.referential.ps.logbook.WellSamplingStatus#1464000000000#09",
  "wellActivity": [
    {
      "homeId": null,
      "activity": "fr.ird.data.ps.logbook.Activity#1616767975989#0.4873500558653976",
      "wellActivitySpecies": [
        {
          "homeId": null,
          "species": "fr.ird.referential.common.Species#1239832685475#0.13349466123905152",
          "weightCategory": "fr.ird.referential.ps.common.WeightCategory#1464000000000#00001",
          "weight": 12.0,
          "count": 3.0,
          "setSpeciesNumber": 456.0
        }
      ]
    }
  ]
}