{
  "path": "fr.ird.observe.navigation.tree.navigation.referential.common.FpaZoneNavigationTreeNode:fr.ird.referential.common.FpaZone#1239832686122#0.1",
  "content": [
    {
      "topiaId": "fr.ird.referential.common.FpaZone#1239832686122#0.1",
      "topiaCreateDate": "2015-01-07T00:00:00.000Z",
      "lastUpdateDate": "2023-02-14T00:00:00.000Z",
      "code": "AGO",
      "uri": null,
      "homeId": "1",
      "needComment": false,
      "status": "enabled",
      "label1": "Angola",
      "label2": "Angola",
      "label3": "Angola",
      "label4": null,
      "label5": null,
      "label6": null,
      "label7": null,
      "label8": null,
      "startDate": null,
      "endDate": null,
      "country": "fr.ird.referential.common.Country#1464000000000#0.00048",
      "subdivision": null
    }
  ]
}