{
  "url": "/api/public/referential/ps/common/WeightCategory/fr.ird.referential.ps.common.WeightCategory-1464000000000-001",
  "method": "DELETE",
  "headers": {
    "authenticationToken": "XXX"
  },
  "parameters": {}
}