{
  "url": "/api/public/data/ll/common/GearUseFeatures/fr.ird.data.ll.common.GearUseFeatures-1612699679823-0.5458656018490842",
  "method": "GET",
  "headers": {
    "authenticationToken": "XXX"
  },
  "parameters": {
    "config.recursive": "true",
    "config.prettyPrint": "true",
    "config.serializeNulls": "true"
  }
}