{
  "url": "/api/public/referential/ps/observation/SpeciesStatus",
  "method": "POST",
  "headers": {
    "authenticationToken": "XXX",
    "Content-Type": "application/json"
  },
  "parameters": {},
  "payload": {
    "code": "3",
    "uri": null,
    "homeId": null,
    "needComment": false,
    "status": "enabled",
    "label1": "Around the FAD (alive, free)",
    "label2": "Autour du DCP (vivante, libre)",
    "label3": "Alrededor del DCP (que viven, libre)",
    "label4": null,
    "label5": null,
    "label6": null,
    "label7": null,
    "label8": null
  }
}