{
  "path": "fr.ird.observe.navigation.tree.navigation.referential.common.LengthWeightParameterNavigationTreeNode:fr.ird.referential.common.LengthWeightParameter#201008191245#0.63",
  "content": [
    {
      "topiaId": "fr.ird.referential.common.LengthWeightParameter#201008191245#0.63",
      "topiaCreateDate": "2010-08-19T00:00:00.063Z",
      "lastUpdateDate": "2016-12-06T15:54:27.727Z",
      "code": "0",
      "uri": null,
      "homeId": null,
      "needComment": false,
      "status": "enabled",
      "ocean": "fr.ird.referential.common.Ocean#1239832686152#0.8325731048817705",
      "species": "fr.ird.referential.common.Species#1433499260045#0.0712781408801675",
      "sex": "fr.ird.referential.common.Sex#1239832686121#0.0",
      "sizeMeasureType": "fr.ird.referential.common.SizeMeasureType#1433499466532#0.844473292818293",
      "startDate": "1970-01-01T00:00:00.000Z",
      "endDate": null,
      "coefficients": "a=1.42E-6:b=3.3",
      "source": null,
      "lengthWeightFormula": "a * Math.pow(L, b)",
      "weightLengthFormula": "Math.pow(P/a, 1/b)",
      "meanLength": null,
      "meanWeight": null
    }
  ]
}