{
  "path": "fr.ird.observe.navigation.tree.navigation.RootNavigationTreeNode:fr.ird.data.ll.logbook.FloatlinesComposition#1619857303907#0.32805502665532116",
  "content": [
    {
      "topiaId": "fr.ird.data.ll.logbook.FloatlinesComposition#1619857303907#0.32805502665532116",
      "topiaCreateDate": "2021-05-01T10:20:06.339Z",
      "lastUpdateDate": "2021-05-01T10:21:43.890Z",
      "homeId": null,
      "length": 12.0,
      "proportion": 90.0,
      "lineType": "fr.ird.referential.ll.common.LineType#1239832686157#0.9"
    }
  ]
}