{
  "url": "/api/public/referential/ps/common/TransmittingBuoyOwnership/fr.ird.referential.ps.common.TransmittingBuoyOwnership-0-0",
  "method": "DELETE",
  "headers": {
    "authenticationToken": "XXX"
  },
  "parameters": {}
}