{
  "path": "fr.ird.observe.navigation.tree.navigation.referential.ps.observation.DetectionModeNavigationTreeNode:fr.ird.referential.ps.observation.DetectionMode#1239832686122#0.047471332037872016",
  "content": [
    {
      "topiaId": "fr.ird.referential.ps.observation.DetectionMode#1239832686122#0.047471332037872016",
      "topiaCreateDate": "2009-04-15T00:00:00.003Z",
      "lastUpdateDate": "2016-12-06T15:54:27.727Z",
      "code": "4",
      "uri": null,
      "homeId": null,
      "needComment": false,
      "status": "enabled",
      "label1": "Radar",
      "label2": "Radar",
      "label3": "Radar",
      "label4": null,
      "label5": null,
      "label6": null,
      "label7": null,
      "label8": null
    }
  ]
}