{
  "homeId": null,
  "totalWeight": 12.0,
  "meanWeight": 1.0,
  "species": "fr.ird.referential.common.Species#1239832685476#0.5618871286604711",
  "weightMeasureMethod": "fr.ird.referential.common.WeightMeasureMethod#666#04"
}