{
  "url": "/api/public/data/ps/observation/SchoolEstimate/fr.ird.data.ps.observation.SchoolEstimate-1612860210852-0.6866668025183136",
  "method": "GET",
  "headers": {
    "authenticationToken": "XXX"
  },
  "parameters": {
    "config.recursive": "true",
    "config.prettyPrint": "true",
    "config.serializeNulls": "true"
  }
}