{
  "url": "/api/public/referential/ps/observation/ReasonForDiscard/fr.ird.referential.ps.observation.ReasonForDiscard-1239832686293-0.8068644206295019",
  "method": "GET",
  "headers": {
    "authenticationToken": "XXX"
  },
  "parameters": {
    "config.recursive": "true",
    "config.prettyPrint": "true",
    "config.serializeNulls": "true"
  }
}