{
  "url": "/api/public/referential/ll/observation/SensorBrand/{id}",
  "method": "PUT",
  "headers": {
    "authenticationToken": "XXX",
    "Content-Type": "application/json"
  },
  "parameters": {},
  "payload": true
}