{
  "topiaId": "fr.ird.referential.common.ShipOwner#0#0",
  "topiaCreateDate": "2018-12-07T00:00:00.000Z",
  "lastUpdateDate": "2018-12-07T12:34:55.706Z",
  "code": "1",
  "uri": null,
  "homeId": null,
  "needComment": false,
  "status": "enabled",
  "label": "SAUPIQUET",
  "startDate": null,
  "endDate": null,
  "country": "fr.ird.referential.common.Country#1239832675583#0.9493110781716075"
}