{
  "url": "/api/public/referential/ps/observation/NonTargetCatchReleaseStatus/fr.ird.referential.ps.observation.NonTargetCatchReleaseStatus-0-5",
  "method": "DELETE",
  "headers": {
    "authenticationToken": "XXX"
  },
  "parameters": {}
}