{
  "url": "/api/public/data/ps/observation/NonTargetCatchRelease",
  "method": "GET",
  "headers": {
    "authenticationToken": "XXX"
  },
  "parameters": {
    "config.recursive": "true",
    "config.prettyPrint": "true",
    "config.serializeNulls": "true",
    "filters.lastUpdateDate": "2021-02-09T09:47:43.086Z"
  }
}