{
  "url": "/api/public/data/ps/logbook/TransmittingBuoy/fr.ird.data.ps.logbook.TransmittingBuoy-1616955224272-0.1758599871793043",
  "method": "GET",
  "headers": {
    "authenticationToken": "XXX"
  },
  "parameters": {
    "config.recursive": "true",
    "config.prettyPrint": "true",
    "config.serializeNulls": "true"
  }
}