{
  "path": "fr.ird.observe.navigation.tree.navigation.data.ps.observation.ActivityNavigationTreeNode:fr.ird.data.ps.observation.Activity#1554113237260#0.6013473195166136",
  "content": [
    {
      "topiaId": "fr.ird.data.ps.observation.Activity#1554113237260#0.6013473195166136",
      "topiaCreateDate": "2019-04-01T10:07:17.260Z",
      "lastUpdateDate": "2021-02-09T11:56:00.502Z",
      "homeId": null,
      "comment": null,
      "time": "1970-01-01T09:41:26.000Z",
      "latitude": 3.9167,
      "longitude": -5.25,
      "vesselSpeed": 11.0,
      "seaSurfaceTemperature": 30.0,
      "observedSystemDistance": 0.1,
      "ersId": null,
      "vesselActivity": "fr.ird.referential.ps.common.VesselActivity#1239832675369#0.12552908048322586",
      "surroundingActivity": "fr.ird.referential.ps.observation.SurroundingActivity#1239832675515#0.16947202179029996",
      "wind": "fr.ird.referential.common.Wind#1239832686605#0.561188597983181",
      "detectionMode": "fr.ird.referential.ps.observation.DetectionMode#1239832686122#0.11073840364502163",
      "reasonForNoFishing": null,
      "set": {
        "topiaId": "fr.ird.data.ps.observation.Set#1554119935526#0.45507383777180943",
        "topiaCreateDate": "2019-04-01T11:58:55.526Z",
        "lastUpdateDate": "2021-02-09T10:01:50.013Z",
        "homeId": null,
        "comment": "yep",
        "startTime": "1970-01-01T09:41:00.000Z",
        "haulingStartTimeStamp": null,
        "haulingEndTimeStamp": "2019-04-01T10:11:00.000Z",
        "endTimeStamp": "2019-04-01T11:53:00.000Z",
        "maxGearDepth": null,
        "currentSpeed": 0.9,
        "currentDirection": 47.0,
        "schoolTopDepth": null,
        "schoolMeanDepth": null,
        "schoolThickness": null,
        "supportVesselName": null,
        "currentMeasureDepth": 20.0,
        "schoolType": "fr.ird.referential.ps.common.SchoolType#0#1",
        "reasonForNullSet": null,
        "schoolEstimate": [
          {
            "topiaId": "fr.ird.data.ps.observation.SchoolEstimate#1612860210852#0.6866668025183136",
            "topiaCreateDate": "2021-02-09T09:42:37.134Z",
            "lastUpdateDate": "2021-02-09T09:43:30.851Z",
            "homeId": null,
            "totalWeight": 12.0,
            "meanWeight": 1.0,
            "species": "fr.ird.referential.common.Species#1239832685476#0.5618871286604711",
            "weightMeasureMethod": "fr.ird.referential.common.WeightMeasureMethod#666#04"
          },
          {
            "topiaId": "fr.ird.data.ps.observation.SchoolEstimate#1612860210853#0.4454368019016465",
            "topiaCreateDate": "2021-02-09T09:42:44.076Z",
            "lastUpdateDate": "2021-02-09T09:43:30.851Z",
            "homeId": null,
            "totalWeight": 12.0,
            "meanWeight": 12.0,
            "species": "fr.ird.referential.common.Species#1239832685475#0.13349466123905152",
            "weightMeasureMethod": "fr.ird.referential.common.WeightMeasureMethod#666#04"
          }
        ],
        "catches": [
          {
            "topiaId": "fr.ird.data.ps.observation.Catch#1554119972110#0.2402835209929618",
            "topiaCreateDate": "2019-04-01T11:59:32.095Z",
            "lastUpdateDate": "2019-04-01T11:59:32.095Z",
            "homeId": null,
            "comment": null,
            "catchWeight": 0.0584,
            "catchWeightComputedSource": "fromData",
            "minWeight": null,
            "meanWeight": 29.2,
            "maxWeight": null,
            "meanWeightComputedSource": "fromData",
            "meanLength": 188.0,
            "meanLengthComputedSource": null,
            "totalCount": 2.0,
            "totalCountComputedSource": null,
            "well": null,
            "reasonForDiscard": null,
            "informationSource": "fr.ird.referential.ps.observation.InformationSource#1464000000000#01",
            "species": "fr.ird.referential.common.Species#1239832683743#0.8616022446692306",
            "weightMeasureMethod": null,
            "sizeMeasureMethod": null,
            "speciesFate": "fr.ird.referential.ps.common.SpeciesFate#1239832683619#0.5722739932065866"
          },
          {
            "topiaId": "fr.ird.data.ps.observation.Catch#1612860243137#0.177413537246351",
            "topiaCreateDate": "2021-02-09T09:43:36.015Z",
            "lastUpdateDate": "2021-02-09T09:44:03.136Z",
            "homeId": null,
            "comment": null,
            "catchWeight": 123.0,
            "catchWeightComputedSource": null,
            "minWeight": null,
            "meanWeight": null,
            "maxWeight": null,
            "meanWeightComputedSource": null,
            "meanLength": null,
            "meanLengthComputedSource": null,
            "totalCount": null,
            "totalCountComputedSource": null,
            "well": null,
            "reasonForDiscard": "fr.ird.referential.ps.observation.ReasonForDiscard#1239832686292#0.2327417962534054",
            "informationSource": "fr.ird.referential.ps.observation.InformationSource#1464000000000#01",
            "species": "fr.ird.referential.common.Species#1239832685476#0.5618871286604711",
            "weightMeasureMethod": "fr.ird.referential.common.WeightMeasureMethod#666#01",
            "sizeMeasureMethod": null,
            "speciesFate": "fr.ird.referential.ps.common.SpeciesFate#1239832683619#0.6250731662108877"
          }
        ],
        "sample": [
          {
            "topiaId": "fr.ird.data.ps.observation.Sample#1612861249115#0.09925784341428623",
            "topiaCreateDate": "2019-04-01T11:58:55.526Z",
            "lastUpdateDate": "2021-02-09T09:47:43.099Z",
            "homeId": null,
            "comment": null,
            "sampleMeasure": [
              {
                "topiaId": "fr.ird.data.ps.observation.SampleMeasure#1612861249139#0.99644487513718",
                "topiaCreateDate": "2021-02-09T10:00:05.279Z",
                "lastUpdateDate": "2021-02-09T10:00:43.807Z",
                "homeId": null,
                "length": 12.0,
                "isLengthComputed": false,
                "picturesReferences": null,
                "weight": 12.0,
                "isWeightComputed": false,
                "count": 1.0,
                "acquisitionMode": 1.0,
                "tagNumber": "1",
                "species": "fr.ird.referential.common.Species#1239832685477#0.5989181185528589",
                "sex": "fr.ird.referential.common.Sex#1239832686121#0.0",
                "speciesFate": "fr.ird.referential.ps.common.SpeciesFate#1239832683619#0.5722739932065866",
                "sizeMeasureType": "fr.ird.referential.common.SizeMeasureType#1433499465700#0.0902433863375336",
                "weightMeasureType": "fr.ird.referential.common.WeightMeasureType#1239832686139#0.2",
                "weightMeasureMethod": "fr.ird.referential.common.WeightMeasureMethod#666#01",
                "sizeMeasureMethod": "fr.ird.referential.common.SizeMeasureMethod#666#01"
              },
              {
                "topiaId": "fr.ird.data.ps.observation.SampleMeasure#1612861249145#0.8349959676361562",
                "topiaCreateDate": "2021-02-09T10:00:22.984Z",
                "lastUpdateDate": "2021-02-09T10:00:43.808Z",
                "homeId": null,
                "length": 13.0,
                "isLengthComputed": false,
                "picturesReferences": null,
                "weight": 14.0,
                "isWeightComputed": false,
                "count": 1.0,
                "acquisitionMode": 1.0,
                "tagNumber": "2",
                "species": "fr.ird.referential.common.Species#1239832685477#0.5989181185528589",
                "sex": "fr.ird.referential.common.Sex#1239832686121#0.0",
                "speciesFate": "fr.ird.referential.ps.common.SpeciesFate#1239832683619#0.5722739932065866",
                "sizeMeasureType": "fr.ird.referential.common.SizeMeasureType#1433499465700#0.0902433863375336",
                "weightMeasureType": "fr.ird.referential.common.WeightMeasureType#1239832686139#0.2",
                "weightMeasureMethod": "fr.ird.referential.common.WeightMeasureMethod#666#02",
                "sizeMeasureMethod": "fr.ird.referential.common.SizeMeasureMethod#666#01"
              }
            ]
          },
          {
            "topiaId": "fr.ird.data.ps.observation.Sample#1612861310010#0.8356724034639841",
            "topiaCreateDate": "2019-04-01T11:58:55.526Z",
            "lastUpdateDate": "2021-02-09T10:00:49.146Z",
            "homeId": null,
            "comment": null,
            "sampleMeasure": [
              {
                "topiaId": "fr.ird.data.ps.observation.SampleMeasure#1612861310010#0.8548740455124715",
                "topiaCreateDate": "2021-02-09T10:00:57.175Z",
                "lastUpdateDate": "2021-02-09T10:01:50.010Z",
                "homeId": null,
                "length": 12.0,
                "isLengthComputed": false,
                "picturesReferences": null,
                "weight": null,
                "isWeightComputed": false,
                "count": 12.0,
                "acquisitionMode": 0.0,
                "tagNumber": null,
                "species": "fr.ird.referential.common.Species#1239832685476#0.5618871286604711",
                "sex": "fr.ird.referential.common.Sex#1239832686121#0.0",
                "speciesFate": "fr.ird.referential.ps.common.SpeciesFate#1239832683619#0.6250731662108877",
                "sizeMeasureType": "fr.ird.referential.common.SizeMeasureType#1433499465700#0.0902433863375336",
                "weightMeasureType": null,
                "weightMeasureMethod": null,
                "sizeMeasureMethod": "fr.ird.referential.common.SizeMeasureMethod#666#01"
              },
              {
                "topiaId": "fr.ird.data.ps.observation.SampleMeasure#1612861310012#0.1360991414381716",
                "topiaCreateDate": "2021-02-09T10:01:18.633Z",
                "lastUpdateDate": "2021-02-09T10:01:50.010Z",
                "homeId": null,
                "length": 12.0,
                "isLengthComputed": false,
                "picturesReferences": null,
                "weight": null,
                "isWeightComputed": false,
                "count": 1.0,
                "acquisitionMode": 0.0,
                "tagNumber": null,
                "species": "fr.ird.referential.common.Species#1239832685475#0.13349466123905152",
                "sex": "fr.ird.referential.common.Sex#1239832686121#0.0",
                "speciesFate": "fr.ird.referential.ps.common.SpeciesFate#1239832683619#0.6250731662108877",
                "sizeMeasureType": "fr.ird.referential.common.SizeMeasureType#1433499465700#0.0902433863375336",
                "weightMeasureType": null,
                "weightMeasureMethod": null,
                "sizeMeasureMethod": "fr.ird.referential.common.SizeMeasureMethod#666#02"
              }
            ]
          }
        ],
        "nonTargetCatchRelease": [
          {
            "topiaId": "fr.ird.data.ps.observation.NonTargetCatchRelease#1612860463088#0.7494168627789585",
            "topiaCreateDate": "2021-02-09T09:47:07.122Z",
            "lastUpdateDate": "2021-02-09T09:47:43.086Z",
            "homeId": null,
            "comment": null,
            "length": 12.0,
            "count": 1.0,
            "brailNumber": null,
            "acquisitionMode": 1.0,
            "species": "fr.ird.referential.common.Species#1239832683846#0.9864285434180587",
            "status": "fr.ird.referential.ps.observation.NonTargetCatchReleaseStatus#0#2",
            "sex": "fr.ird.referential.common.Sex#1239832686121#0.0",
            "speciesGroupReleaseMode": "fr.ird.referential.common.SpeciesGroupReleaseMode#0#1",
            "conformity": "fr.ird.referential.ps.observation.NonTargetCatchReleaseConformity#0#1",
            "handlingPlace": null,
            "releasingTime": "fr.ird.referential.ps.observation.NonTargetCatchReleasingTime#0#4",
            "sizeMeasureMethod": "fr.ird.referential.common.SizeMeasureMethod#666#01"
          },
          {
            "topiaId": "fr.ird.data.ps.observation.NonTargetCatchRelease#1612860463091#0.9427350895769383",
            "topiaCreateDate": "2021-02-09T09:47:22.385Z",
            "lastUpdateDate": "2021-02-09T09:47:43.086Z",
            "homeId": null,
            "comment": null,
            "length": 123.0,
            "count": 1.0,
            "brailNumber": null,
            "acquisitionMode": 1.0,
            "species": "fr.ird.referential.common.Species#201007241100#0.12345246",
            "status": "fr.ird.referential.ps.observation.NonTargetCatchReleaseStatus#0#1",
            "sex": "fr.ird.referential.common.Sex#1239832686121#0.0",
            "speciesGroupReleaseMode": "fr.ird.referential.common.SpeciesGroupReleaseMode#0#2",
            "conformity": "fr.ird.referential.ps.observation.NonTargetCatchReleaseConformity#0#4",
            "handlingPlace": null,
            "releasingTime": "fr.ird.referential.ps.observation.NonTargetCatchReleasingTime#0#1",
            "sizeMeasureMethod": "fr.ird.referential.common.SizeMeasureMethod#666#04"
          }
        ]
      },
      "floatingObject": [
        {
          "topiaId": "fr.ird.data.ps.observation.FloatingObject#1612860069119#0.061511249860604966",
          "topiaCreateDate": "2021-02-09T09:40:56.924Z",
          "lastUpdateDate": "2021-02-09T09:42:21.924Z",
          "homeId": null,
          "comment": null,
          "objectSchoolEstimate": [
            {
              "topiaId": "fr.ird.data.ps.observation.ObjectSchoolEstimate#1612860112430#0.9202212602076519",
              "topiaCreateDate": "2021-02-09T09:41:39.350Z",
              "lastUpdateDate": "2021-02-09T09:41:52.429Z",
              "homeId": null,
              "totalWeight": 12.0,
              "species": "fr.ird.referential.common.Species#1239832685476#0.5618871286604711",
              "weightMeasureMethod": "fr.ird.referential.common.WeightMeasureMethod#666#04"
            },
            {
              "topiaId": "fr.ird.data.ps.observation.ObjectSchoolEstimate#1612860112432#0.21367243188694118",
              "topiaCreateDate": "2021-02-09T09:41:45.314Z",
              "lastUpdateDate": "2021-02-09T09:41:52.429Z",
              "homeId": null,
              "totalWeight": 1.0,
              "species": "fr.ird.referential.common.Species#1239832685475#0.13349466123905152",
              "weightMeasureMethod": "fr.ird.referential.common.WeightMeasureMethod#666#04"
            }
          ],
          "objectObservedSpecies": [
            {
              "topiaId": "fr.ird.data.ps.observation.ObjectObservedSpecies#1612860141918#0.8897715192745859",
              "topiaCreateDate": "2021-02-09T09:41:57.082Z",
              "lastUpdateDate": "2021-02-09T09:42:21.917Z",
              "homeId": null,
              "count": 3.0,
              "species": "fr.ird.referential.common.Species#1308738639113#0.434038308601438",
              "speciesStatus": "fr.ird.referential.ps.observation.SpeciesStatus#1239832686390#0.056026648869705986"
            },
            {
              "topiaId": "fr.ird.data.ps.observation.ObjectObservedSpecies#1612860141919#0.6592826243232903",
              "topiaCreateDate": "2021-02-09T09:42:04.669Z",
              "lastUpdateDate": "2021-02-09T09:42:21.917Z",
              "homeId": null,
              "count": 5.0,
              "species": "fr.ird.referential.common.Species#201007241100#0.12345370",
              "speciesStatus": "fr.ird.referential.ps.observation.SpeciesStatus#1239832686390#0.056026648869705986"
            }
          ],
          "objectOperation": "fr.ird.referential.ps.common.ObjectOperation#0#1",
          "supportVesselName": "yo",
          "transmittingBuoy": [
            {
              "topiaId": "fr.ird.data.ps.observation.TransmittingBuoy#1612860069136#0.39922787297738194",
              "topiaCreateDate": "2021-02-09T09:40:56.924Z",
              "lastUpdateDate": "2021-02-09T09:41:09.117Z",
              "homeId": null,
              "comment": "aaza",
              "code": "12",
              "transmittingBuoyOwnership": "fr.ird.referential.ps.common.TransmittingBuoyOwnership#0#3",
              "transmittingBuoyType": "fr.ird.referential.ps.common.TransmittingBuoyType#1239832686500#0.7406749287430566",
              "transmittingBuoyOperation": "fr.ird.referential.ps.common.TransmittingBuoyOperation#1239832686238#0.4755624782839416",
              "country": "fr.ird.referential.common.Country#1239832675583#0.9493110781716075",
              "vessel": "fr.ird.referential.common.Vessel#1239832677756#0.4935293150142165",
              "latitude": null,
              "longitude": null
            }
          ],
          "floatingObjectPart": [
            {
              "topiaId": "fr.ird.data.ps.observation.FloatingObjectPart#1612860082601#0.30983583751473864",
              "topiaCreateDate": "2021-02-09T09:41:22.597Z",
              "lastUpdateDate": "2021-02-09T09:41:22.601Z",
              "homeId": null,
              "whenArriving": null,
              "whenLeaving": "true",
              "objectMaterial": "fr.ird.referential.ps.common.ObjectMaterial#0#0.39"
            },
            {
              "topiaId": "fr.ird.data.ps.observation.FloatingObjectPart#1612860082602#0.634411885989621",
              "topiaCreateDate": "2021-02-09T09:41:22.597Z",
              "lastUpdateDate": "2021-02-09T09:41:22.601Z",
              "homeId": null,
              "whenArriving": null,
              "whenLeaving": "true",
              "objectMaterial": "fr.ird.referential.ps.common.ObjectMaterial#0#0.3"
            }
          ],
          "computedWhenArrivingBiodegradable": null,
          "computedWhenArrivingNonEntangling": null,
          "computedWhenArrivingSimplifiedObjectType": null,
          "computedWhenLeavingBiodegradable": "FALSE",
          "computedWhenLeavingNonEntangling": "TRUE",
          "computedWhenLeavingSimplifiedObjectType": "DFAD"
        }
      ],
      "observedSystem": [
        "fr.ird.referential.ps.common.ObservedSystem#0#1.2",
        "fr.ird.referential.ps.common.ObservedSystem#1239832686427#0.6223326827132584"
      ],
      "currentFpaZone": "fr.ird.referential.common.FpaZone#1239832686122#1.1",
      "previousFpaZone": null,
      "nextFpaZone": null,
      "dataQuality": "fr.ird.referential.common.DataQuality#0#1"
    }
  ]
}