{
  "path": "fr.ird.observe.navigation.tree.navigation.referential.ps.common.ObjectOperationNavigationTreeNode",
  "content": [
    {
      "topiaId": "fr.ird.referential.ps.common.ObjectOperation#0#1",
      "topiaCreateDate": "2018-12-07T00:00:00.000Z",
      "lastUpdateDate": "2018-12-07T12:36:58.706Z",
      "code": "1",
      "uri": null,
      "homeId": null,
      "needComment": false,
      "status": "enabled",
      "label1": "Deployment",
      "label2": "Mise à l'eau",
      "label3": "Mise à l'eau TODO",
      "label4": null,
      "label5": null,
      "label6": null,
      "label7": null,
      "label8": null,
      "whenArriving": false,
      "whenLeaving": true
    },
    {
      "topiaId": "fr.ird.referential.ps.common.ObjectOperation#0#10",
      "topiaCreateDate": "2018-12-07T00:00:00.000Z",
      "lastUpdateDate": "2018-12-07T12:36:58.706Z",
      "code": "10",
      "uri": null,
      "homeId": null,
      "needComment": true,
      "status": "enabled",
      "label1": "Other (to be precised)",
      "label2": "Autre (préciser dans les notes)",
      "label3": "Autre (préciser dans les notes) TODO",
      "label4": null,
      "label5": null,
      "label6": null,
      "label7": null,
      "label8": null,
      "whenArriving": true,
      "whenLeaving": true
    }
  ]
}