{
  "url": "/api/public/referential/ps/common/ObservedSystem",
  "method": "GET",
  "headers": {
    "authenticationToken": "XXX"
  },
  "parameters": {
    "config.loadReferential": "${_config.loadReferential}",
    "config.recursive": "${_config.recursive}",
    "config.prettyPrint": "${_config.prettyPrint}",
    "config.serializeNulls": "${_config.serializeNulls}",
    "referentialLocale": "${_referentialLocale}",
    "orders": "${_orders}"
  }
}