{
  "topiaId": "fr.ird.referential.ll.common.MitigationType#1239832686140#0.2",
  "topiaCreateDate": "2014-07-26T00:00:00.000Z",
  "lastUpdateDate": "2016-12-06T15:54:27.727Z",
  "code": "08",
  "uri": null,
  "homeId": null,
  "needComment": false,
  "status": "enabled",
  "label1": "Tori lines",
  "label2": "Ligne d'effarouchement",
  "label3": "Tori lines",
  "label4": null,
  "label5": null,
  "label6": null,
  "label7": null,
  "label8": null
}