{
  "code": "08",
  "uri": null,
  "homeId": null,
  "needComment": false,
  "status": "enabled",
  "label1": "Tori lines",
  "label2": "Ligne d'effarouchement",
  "label3": "Tori lines",
  "label4": null,
  "label5": null,
  "label6": null,
  "label7": null,
  "label8": null
}