{
  "url": "/api/public/referential/ps/localmarket/Buyer/fr.ird.referential.ps.localmarket.Buyer-0-0",
  "method": "PUT",
  "headers": {
    "authenticationToken": "XXX",
    "Content-Type": "application/json"
  },
  "parameters": {},
  "payload": {
    "code": "0",
    "uri": null,
    "homeId": null,
    "needComment": false,
    "status": "enabled",
    "label1": "Buyer 0",
    "label2": "Acheteur 0",
    "label3": "Pseo 0",
    "label4": null,
    "label5": null,
    "label6": null,
    "label7": null,
    "label8": null,
    "harbour": "fr.ird.referential.common.Harbour#11#0.1",
    "email": "email@email.gov",
    "phone": "07.00.11.22.33",
    "address": "No place found."
  }
}