{
  "url": "/api/public/referential/ll/observation/SensorDataFormat",
  "method": "POST",
  "headers": {
    "authenticationToken": "XXX",
    "Content-Type": "application/json"
  },
  "parameters": {},
  "payload": {
    "code": "TXT",
    "uri": null,
    "homeId": null,
    "needComment": true,
    "status": "enabled",
    "label1": "Text file",
    "label2": "Fichier texte",
    "label3": "Text file",
    "label4": null,
    "label5": null,
    "label6": null,
    "label7": null,
    "label8": null
  }
}