{
  "path": "fr.ird.observe.navigation.tree.navigation.referential.ll.observation.SensorTypeNavigationTreeNode",
  "content": [
    {
      "topiaId": "fr.ird.referential.ll.observation.SensorType#1239832686131#0.1",
      "topiaCreateDate": "2014-07-26T00:00:00.000Z",
      "lastUpdateDate": "2017-01-18T14:51:09.672Z",
      "code": "CTD",
      "uri": null,
      "homeId": null,
      "needComment": false,
      "status": "enabled",
      "label1": "Conductivity Temperature Depth equipment",
      "label2": "Sonde de Conductivité, Temperature, profonDeur",
      "label3": "Conductivity Temperature Depth equipment",
      "label4": null,
      "label5": null,
      "label6": null,
      "label7": null,
      "label8": null
    },
    {
      "topiaId": "fr.ird.referential.ll.observation.SensorType#1239832686131#0.3",
      "topiaCreateDate": "2014-07-26T00:00:00.000Z",
      "lastUpdateDate": "2017-01-18T14:51:42.569Z",
      "code": "TDR",
      "uri": null,
      "homeId": null,
      "needComment": false,
      "status": "enabled",
      "label1": "Temperature-Depth Recorder",
      "label2": "Temperature-Depth Recorder",
      "label3": "Temperature-Depth Recorder",
      "label4": null,
      "label5": null,
      "label6": null,
      "label7": null,
      "label8": null
    }
  ]
}