{
  "homeId": "FINSS-00036655",
  "comment": null,
  "timeStamp": "2015-12-22T00:00:00.000Z",
  "latitude": -9.666667,
  "longitude": 53.483334,
  "samplePart": [
    {
      "homeId": "FINSS-01071319",
      "length": 147.0,
      "weight": null,
      "count": 1.0,
      "acquisitionMode": 0.0,
      "tagNumber": null,
      "species": "fr.ird.referential.common.Species#1239832685475#0.13349466123905152",
      "sex": "fr.ird.referential.common.Sex#1239832686122#0.5",
      "sizeMeasureType": "fr.ird.referential.common.SizeMeasureType#1433499467059#0.563144549960271",
      "sizeMeasureMethod": "fr.ird.referential.common.SizeMeasureMethod#666#01",
      "weightMeasureType": null,
      "weightMeasureMethod": null
    },
    {
      "homeId": "FINSS-01071320",
      "length": 145.0,
      "weight": null,
      "count": 1.0,
      "acquisitionMode": 0.0,
      "tagNumber": null,
      "species": "fr.ird.referential.common.Species#1239832685475#0.13349466123905152",
      "sex": "fr.ird.referential.common.Sex#1239832686122#0.5",
      "sizeMeasureType": "fr.ird.referential.common.SizeMeasureType#1433499467059#0.563144549960271",
      "sizeMeasureMethod": "fr.ird.referential.common.SizeMeasureMethod#666#01",
      "weightMeasureType": null,
      "weightMeasureMethod": null
    }
  ]
}