{
  "path": "fr.ird.observe.navigation.tree.navigation.referential.ll.common.HealthStatusNavigationTreeNode:fr.ird.referential.ll.common.HealthStatus#1239832686128#0.1",
  "content": [
    {
      "topiaId": "fr.ird.referential.ll.common.HealthStatus#1239832686128#0.1",
      "topiaCreateDate": "2014-07-26T00:00:00.000Z",
      "lastUpdateDate": "2016-12-06T15:54:27.727Z",
      "code": "A",
      "uri": null,
      "homeId": null,
      "needComment": false,
      "status": "enabled",
      "label1": "Alive",
      "label2": "Vivant",
      "label3": "Alive",
      "label4": null,
      "label5": null,
      "label6": null,
      "label7": null,
      "label8": null
    }
  ]
}