{
  "homeId": "String",
  "floatline1Length": "Float",
  "floatline2Length": "Float",
  "serialNo": "String",
  "data": "java.sql.Blob",
  "dataFilename": "String",
  "dataLocation": "String",
  "deploymentStart": "Timestamp",
  "deploymentEnd": "Timestamp",
  "fishingStart": "Timestamp",
  "fishingEnd": "Timestamp",
  "fishingStartDepth": "Float",
  "fishingEndDepth": "Float",
  "meanDeploymentDepth": "Float",
  "medianDeploymentDepth": "Float",
  "minFishingDepth": "Float",
  "maxFishingDepth": "Float",
  "meanFishingDepth": "Float",
  "medianFishingDepth": "Float",
  "section": "fr.ird.observe.entities.data.ll.observation.Section",
  "basket": "fr.ird.observe.entities.data.ll.observation.Basket",
  "branchline": "fr.ird.observe.entities.data.ll.observation.Branchline",
  "sensorBrand": "fr.ird.observe.entities.referential.ll.observation.SensorBrand",
  "species": "java.util.Set:fr.ird.observe.entities.referential.common.Species",
  "itemHorizontalPosition": "fr.ird.observe.entities.referential.ll.observation.ItemHorizontalPosition",
  "itemVerticalPosition": "fr.ird.observe.entities.referential.ll.observation.ItemVerticalPosition"
}