{
  "path": "fr.ird.observe.tree.navigation.referential.ps.localmarket.BatchCompositionNavigationTreeNode",
  "content": [
    {
      "topiaId": "fr.ird.referential.ps.localmarket.BatchComposition#1464000000000#01",
      "topiaCreateDate": "2021-09-17T00:00:00.000Z",
      "lastUpdateDate": "2021-09-17T00:00:00.000Z",
      "code": "1",
      "needComment": false,
      "status": "enabled",
      "label1": "Multi specific (survey)",
      "label2": "Multi spécifique (sondage)",
      "label3": "Multi specific (survey) #TODO"
    },
    {
      "topiaId": "fr.ird.referential.ps.localmarket.BatchComposition#1464000000000#02",
      "topiaCreateDate": "2021-09-17T00:00:00.000Z",
      "lastUpdateDate": "2021-09-17T00:00:00.000Z",
      "code": "2",
      "needComment": false,
      "status": "enabled",
      "label1": "Mono specific (no survey)",
      "label2": "Mono spécifique (pas de sondage)",
      "label3": "Mono specific (no survey) #TODO"
    }
  ]
}