{
  "url": "/api/public/data/ps/common/GearUseFeatures/fr.ird.data.ps.common.GearUseFeatures-1612698996131-0.6058958440089384",
  "method": "GET",
  "headers": {
    "authenticationToken": "XXX"
  },
  "parameters": {
    "config.recursive": "true",
    "config.prettyPrint": "true",
    "config.serializeNulls": "true"
  }
}