{
  "url": "/api/public/referential/ps/common/TransmittingBuoyOperation/fr.ird.referential.ps.common.TransmittingBuoyOperation-1239832686237-0.4947461794167761",
  "method": "PUT",
  "headers": {
    "authenticationToken": "XXX",
    "Content-Type": "application/json"
  },
  "parameters": {},
  "payload": {
    "code": "1",
    "uri": null,
    "homeId": null,
    "needComment": false,
    "status": "enabled",
    "label1": "Visit",
    "label2": "Visite",
    "label3": "Visite",
    "label4": null,
    "label5": null,
    "label6": null,
    "label7": null,
    "label8": null
  }
}