{
  "url": "/api/public/data/ll/logbook/ActivitySample/fr.ird.data.ll.logbook.Sample-1464000000000-0.00036654",
  "method": "DELETE",
  "headers": {
    "authenticationToken": "XXX"
  },
  "parameters": {}
}