{
  "url": "/api/public/referential/ll/common/HookSize",
  "method": "POST",
  "headers": {
    "authenticationToken": "XXX",
    "Content-Type": "application/json"
  },
  "parameters": {},
  "payload": {
    "code": "9/0",
    "uri": null,
    "homeId": null,
    "needComment": false,
    "status": "enabled",
    "label1": "9/0",
    "label2": "9/0",
    "label3": "9/0",
    "label4": null,
    "label5": null,
    "label6": null,
    "label7": null,
    "label8": null
  }
}