{
  "code": "0",
  "uri": null,
  "homeId": null,
  "needComment": false,
  "status": "enabled",
  "ocean": "fr.ird.referential.common.Ocean#1239832686152#0.8325731048817705",
  "species": "fr.ird.referential.common.Species#1433499260045#0.0712781408801675",
  "sex": "fr.ird.referential.common.Sex#1239832686121#0.0",
  "inputSizeMeasureType": "fr.ird.referential.common.SizeMeasureType#1433499466532#0.844473292818293",
  "outputSizeMeasureType": "fr.ird.referential.common.SizeMeasureType#1433499466532#0.844473292818293",
  "startDate": "1970-01-01T00:00:00.000Z",
  "endDate": null,
  "coefficients": "a=2",
  "source": null,
  "inputOutputFormula": "a * I",
  "outputInputFormula": "O / a"
}