{
  "path": "fr.ird.observe.navigation.tree.navigation.referential.common.GearCharacteristicTypeNavigationTreeNode:fr.ird.referential.common.GearCharacteristicType#1239832686123#0.2",
  "content": [
    {
      "topiaId": "fr.ird.referential.common.GearCharacteristicType#1239832686123#0.2",
      "topiaCreateDate": "2015-03-28T00:00:00.000Z",
      "lastUpdateDate": "2016-12-06T15:54:27.727Z",
      "code": "BOL",
      "uri": null,
      "homeId": null,
      "needComment": false,
      "status": "enabled",
      "label1": "Boolean",
      "label2": "Boolean",
      "label3": "Booleano",
      "label4": null,
      "label5": null,
      "label6": null,
      "label7": null,
      "label8": null
    }
  ]
}