{
  "topiaId": "fr.ird.referential.common.Wind#1239832686604#0.6861700847985526",
  "topiaCreateDate": "2009-04-15T00:00:00.000Z",
  "lastUpdateDate": "2016-12-06T15:54:27.727Z",
  "code": "0",
  "uri": null,
  "homeId": null,
  "needComment": false,
  "status": "enabled",
  "label1": "Calm",
  "label2": "Calme (Calme)",
  "label3": "Calma (Despejado)",
  "label4": null,
  "label5": null,
  "label6": null,
  "label7": null,
  "label8": null,
  "minSpeed": null,
  "maxSpeed": 1.0,
  "minSwellHeight": 0.0,
  "maxSwellHeight": 0.0
}