{
  "url": "/api/public/referential/common/Wind",
  "method": "POST",
  "headers": {
    "authenticationToken": "XXX",
    "Content-Type": "application/json"
  },
  "parameters": {},
  "payload": {
    "code": "0",
    "uri": null,
    "homeId": null,
    "needComment": false,
    "status": "enabled",
    "label1": "Calm",
    "label2": "Calme (Calme)",
    "label3": "Calma (Despejado)",
    "label4": null,
    "label5": null,
    "label6": null,
    "label7": null,
    "label8": null,
    "minSpeed": null,
    "maxSpeed": 1.0,
    "minSwellHeight": 0.0,
    "maxSwellHeight": 0.0
  }
}