{
  "url": "/api/public/referential/ps/common/VesselActivity/fr.ird.referential.ps.common.VesselActivity-1379684416896-0.38648073770690594",
  "method": "GET",
  "headers": {
    "authenticationToken": "XXX"
  },
  "parameters": {
    "config.recursive": "true",
    "config.prettyPrint": "true",
    "config.serializeNulls": "true"
  }
}