{
  "topiaId": "fr.ird.referential.ps.observation.SurroundingActivity#1239832675515#0.16947202179029996",
  "topiaCreateDate": "2009-04-15T00:00:00.001Z",
  "lastUpdateDate": "2016-12-06T15:54:27.727Z",
  "code": "1",
  "uri": null,
  "homeId": null,
  "needComment": false,
  "status": "enabled",
  "label1": "Seul dans la zone",
  "label2": "Seul dans la zone",
  "label3": "Seul dans la zone",
  "label4": null,
  "label5": null,
  "label6": null,
  "label7": null,
  "label8": null
}