{
  "path": "fr.ird.observe.tree.navigation.referential.ll.common.OnBoardProcessingNavigationTreeNode",
  "content": [
    {
      "topiaId": "fr.ird.referential.ll.common.OnBoardProcessing#1464000000000#0.1",
      "topiaCreateDate": "2020-10-01T00:00:00.000Z",
      "lastUpdateDate": "2020-10-01T00:00:00.000Z",
      "code": "WL",
      "needComment": false,
      "status": "enabled",
      "label1": "Whole fish",
      "label2": "Poisson entier",
      "label3": "Poisson entier #TODO"
    },
    {
      "topiaId": "fr.ird.referential.ll.common.OnBoardProcessing#1464000000000#0.2",
      "topiaCreateDate": "2020-10-01T00:00:00.000Z",
      "lastUpdateDate": "2020-10-01T00:00:00.000Z",
      "code": "H",
      "needComment": false,
      "status": "enabled",
      "label1": "Headed",
      "label2": "Etêté",
      "label3": "Etêté #TODO"
    }
  ]
}