{
  "url": "/api/public/referential/ll/common/CatchFate",
  "method": "POST",
  "headers": {
    "authenticationToken": "XXX",
    "Content-Type": "application/json"
  },
  "parameters": {},
  "payload": {
    "code": "KEPT",
    "uri": null,
    "homeId": null,
    "needComment": false,
    "status": "enabled",
    "label1": "Kept on board",
    "label2": "Conservé à bord",
    "label3": "Kept on board",
    "label4": null,
    "label5": null,
    "label6": null,
    "label7": null,
    "label8": null,
    "observation": true,
    "logbook": true
  }
}