{
  "code": "KEPT",
  "uri": null,
  "homeId": null,
  "needComment": false,
  "status": "enabled",
  "label1": "Kept on board",
  "label2": "Conservé à bord",
  "label3": "Kept on board",
  "label4": null,
  "label5": null,
  "label6": null,
  "label7": null,
  "label8": null,
  "observation": true,
  "logbook": true
}