{
  "url": "/api/public/referential/common/GearCharacteristicListItem/fr.ird.referential.common.GearCharacteristicListItem-1464000000000-001001",
  "method": "DELETE",
  "headers": {
    "authenticationToken": "XXX"
  },
  "parameters": {}
}