{
  "homeId": null,
  "comment": null,
  "time": "1970-01-01T15:12:00.000Z",
  "latitude": 3.0,
  "longitude": -4.0,
  "latitudeOriginal": null,
  "longitudeOriginal": null,
  "originalDataModified": false,
  "vmsDivergent": false,
  "positionCorrected": false,
  "number": 1.0,
  "setCount": null,
  "seaSurfaceTemperature": null,
  "windDirection": null,
  "vesselActivity": "fr.ird.referential.ps.common.VesselActivity#1239832675369#0.12552908048322586",
  "wind": null,
  "totalWeight": null,
  "currentSpeed": null,
  "currentDirection": null,
  "schoolType": null,
  "relatedObservedActivity": "fr.ird.data.ps.observation.Activity#1554021069610#0.2462353141793846",
  "catches": [
    {
      "homeId": null,
      "comment": "qa",
      "species": "fr.ird.referential.common.Species#1239832685474#0.975344121171992",
      "weightCategory": "fr.ird.referential.ps.common.WeightCategory#1464000000000#1014",
      "speciesFate": "fr.ird.referential.ps.common.SpeciesFate#1501492537510#0.9210847837998154",
      "weight": 123.0,
      "count": 3.0,
      "weightMeasureMethod": "fr.ird.referential.common.WeightMeasureMethod#666#03",
      "well": null
    },
    {
      "homeId": null,
      "comment": null,
      "species": "fr.ird.referential.common.Species#1239832685475#0.13349466123905152",
      "weightCategory": "fr.ird.referential.ps.common.WeightCategory#1464000000000#1021",
      "speciesFate": "fr.ird.referential.ps.common.SpeciesFate#1239832683619#0.5722739932065866",
      "weight": 43.0,
      "count": 12.0,
      "weightMeasureMethod": "fr.ird.referential.common.WeightMeasureMethod#666#03",
      "well": null
    }
  ],
  "floatingObject": [
    {
      "homeId": null,
      "comment": null,
      "objectOperation": "fr.ird.referential.ps.common.ObjectOperation#0#5",
      "supportVesselName": null,
      "transmittingBuoy": [
        {
          "homeId": null,
          "comment": "sd",
          "code": "12",
          "transmittingBuoyOwnership": "fr.ird.referential.ps.common.TransmittingBuoyOwnership#0#3",
          "transmittingBuoyType": "fr.ird.referential.ps.common.TransmittingBuoyType#1555597980126#0.05150271747853408",
          "transmittingBuoyOperation": "fr.ird.referential.ps.common.TransmittingBuoyOperation#1239832686238#0.4755624782839416",
          "country": "fr.ird.referential.common.Country#1239832675584#0.10128636927717882",
          "vessel": "fr.ird.referential.common.Vessel#1239832677756#0.4935293150142165",
          "latitude": null,
          "longitude": null
        }
      ],
      "floatingObjectPart": [
        {
          "homeId": null,
          "whenArriving": "true",
          "whenLeaving": "true",
          "objectMaterial": "fr.ird.referential.ps.common.ObjectMaterial#0#0.2"
        }
      ],
      "computedWhenArrivingBiodegradable": "UNKNOWN",
      "computedWhenArrivingNonEntangling": "UNKNOWN",
      "computedWhenArrivingSimplifiedObjectType": "DFAD",
      "computedWhenLeavingBiodegradable": "UNKNOWN",
      "computedWhenLeavingNonEntangling": "UNKNOWN",
      "computedWhenLeavingSimplifiedObjectType": "DFAD"
    }
  ],
  "observedSystem": [
    "fr.ird.referential.ps.common.ObservedSystem#0#1.2",
    "fr.ird.referential.ps.common.ObservedSystem#1239832686428#0.6854047537933218"
  ],
  "currentFpaZone": null,
  "previousFpaZone": null,
  "nextFpaZone": null,
  "dataQuality": null,
  "informationSource": null,
  "reasonForNoFishing": null,
  "setSuccessStatus": null,
  "reasonForNullSet": null
}