{
  "nodes": [
    {
      "className": "Root",
      "type": "Void",
      "children": [
        "dataPsCommonTripGroupByStartDate → MANY → data.ps.common.TripGroupByStartDate",
        "dataPsCommonTripGroupByEndDate → MANY → data.ps.common.TripGroupByEndDate",
        "dataPsCommonTripGroupByObservationsProgram → MANY → data.ps.common.TripGroupByObservationsProgram",
        "dataPsCommonTripGroupByLogbookProgram → MANY → data.ps.common.TripGroupByLogbookProgram",
        "dataPsCommonTripGroupByOcean → MANY → data.ps.common.TripGroupByOcean",
        "dataPsCommonTripGroupByObserver → MANY → data.ps.common.TripGroupByObserver",
        "dataPsCommonTripGroupByCaptain → MANY → data.ps.common.TripGroupByCaptain",
        "dataPsCommonTripGroupByObservationsDataEntryOperator → MANY → data.ps.common.TripGroupByObservationsDataEntryOperator",
        "dataPsCommonTripGroupByLogbookDataEntryOperator → MANY → data.ps.common.TripGroupByLogbookDataEntryOperator",
        "dataPsCommonTripGroupByVessel → MANY → data.ps.common.TripGroupByVessel",
        "dataPsCommonTripGroupByVesselVesselType → MANY → data.ps.common.TripGroupByVesselVesselType",
        "dataPsCommonTripGroupByVesselVesselSizeCategory → MANY → data.ps.common.TripGroupByVesselVesselSizeCategory",
        "dataPsCommonTripGroupByVesselFlagCountry → MANY → data.ps.common.TripGroupByVesselFlagCountry",
        "dataPsCommonTripGroupByVesselFleetCountry → MANY → data.ps.common.TripGroupByVesselFleetCountry",
        "dataPsCommonTripGroupByVesselShipOwner → MANY → data.ps.common.TripGroupByVesselShipOwner",
        "dataPsCommonTripGroupByDepartureHarbour → MANY → data.ps.common.TripGroupByDepartureHarbour",
        "dataPsCommonTripGroupByLandingHarbour → MANY → data.ps.common.TripGroupByLandingHarbour",
        "dataPsCommonTripGroupByObservationsDataQuality → MANY → data.ps.common.TripGroupByObservationsDataQuality",
        "dataPsCommonTripGroupByLogbookDataQuality → MANY → data.ps.common.TripGroupByLogbookDataQuality",
        "dataPsCommonTripGroupByObservationsAcquisitionStatus → MANY → data.ps.common.TripGroupByObservationsAcquisitionStatus",
        "dataPsCommonTripGroupByLogbookAcquisitionStatus → MANY → data.ps.common.TripGroupByLogbookAcquisitionStatus",
        "dataPsCommonTripGroupByTargetWellsSamplingAcquisitionStatus → MANY → data.ps.common.TripGroupByTargetWellsSamplingAcquisitionStatus",
        "dataPsCommonTripGroupByLandingAcquisitionStatus → MANY → data.ps.common.TripGroupByLandingAcquisitionStatus",
        "dataPsCommonTripGroupByLocalMarketAcquisitionStatus → MANY → data.ps.common.TripGroupByLocalMarketAcquisitionStatus",
        "dataPsCommonTripGroupByLocalMarketWellsSamplingAcquisitionStatus → MANY → data.ps.common.TripGroupByLocalMarketWellsSamplingAcquisitionStatus",
        "dataPsCommonTripGroupByLocalMarketSurveySamplingAcquisitionStatus → MANY → data.ps.common.TripGroupByLocalMarketSurveySamplingAcquisitionStatus",
        "dataPsCommonTripGroupByAdvancedSamplingAcquisitionStatus → MANY → data.ps.common.TripGroupByAdvancedSamplingAcquisitionStatus",
        "dataPsCommonTripGroupByDepartureWellContentStatus → MANY → data.ps.common.TripGroupByDepartureWellContentStatus",
        "dataPsCommonTripGroupByLandingWellContentStatus → MANY → data.ps.common.TripGroupByLandingWellContentStatus",
        "dataPsCommonTrip → MANY → data.ps.common.Trip",
        "dataLlCommonTripGroupByStartDate → MANY → data.ll.common.TripGroupByStartDate",
        "dataLlCommonTripGroupByEndDate → MANY → data.ll.common.TripGroupByEndDate",
        "dataLlCommonTripGroupByObservationsProgram → MANY → data.ll.common.TripGroupByObservationsProgram",
        "dataLlCommonTripGroupByLogbookProgram → MANY → data.ll.common.TripGroupByLogbookProgram",
        "dataLlCommonTripGroupByOcean → MANY → data.ll.common.TripGroupByOcean",
        "dataLlCommonTripGroupByObserver → MANY → data.ll.common.TripGroupByObserver",
        "dataLlCommonTripGroupByCaptain → MANY → data.ll.common.TripGroupByCaptain",
        "dataLlCommonTripGroupByObservationsDataEntryOperator → MANY → data.ll.common.TripGroupByObservationsDataEntryOperator",
        "dataLlCommonTripGroupByLogbookDataEntryOperator → MANY → data.ll.common.TripGroupByLogbookDataEntryOperator",
        "dataLlCommonTripGroupBySampleDataEntryOperator → MANY → data.ll.common.TripGroupBySampleDataEntryOperator",
        "dataLlCommonTripGroupByLandingDataEntryOperator → MANY → data.ll.common.TripGroupByLandingDataEntryOperator",
        "dataLlCommonTripGroupByVessel → MANY → data.ll.common.TripGroupByVessel",
        "dataLlCommonTripGroupByVesselVesselType → MANY → data.ll.common.TripGroupByVesselVesselType",
        "dataLlCommonTripGroupByVesselVesselSizeCategory → MANY → data.ll.common.TripGroupByVesselVesselSizeCategory",
        "dataLlCommonTripGroupByVesselFlagCountry → MANY → data.ll.common.TripGroupByVesselFlagCountry",
        "dataLlCommonTripGroupByVesselFleetCountry → MANY → data.ll.common.TripGroupByVesselFleetCountry",
        "dataLlCommonTripGroupByVesselShipOwner → MANY → data.ll.common.TripGroupByVesselShipOwner",
        "dataLlCommonTripGroupByDepartureHarbour → MANY → data.ll.common.TripGroupByDepartureHarbour",
        "dataLlCommonTripGroupByLandingHarbour → MANY → data.ll.common.TripGroupByLandingHarbour",
        "dataLlCommonTripGroupByTripType → MANY → data.ll.common.TripGroupByTripType",
        "dataLlCommonTripGroupByObservationMethod → MANY → data.ll.common.TripGroupByObservationMethod",
        "dataLlCommonTripGroupByObservationsDataQuality → MANY → data.ll.common.TripGroupByObservationsDataQuality",
        "dataLlCommonTripGroupByLogbookDataQuality → MANY → data.ll.common.TripGroupByLogbookDataQuality",
        "dataLlCommonTrip → MANY → data.ll.common.Trip",
        "referentialCommon → ONE → referential.common.ReferentialPackage",
        "referentialLlCommon → ONE → referential.ll.common.ReferentialPackage",
        "referentialLlLanding → ONE → referential.ll.landing.ReferentialPackage",
        "referentialLlObservation → ONE → referential.ll.observation.ReferentialPackage",
        "referentialPsCommon → ONE → referential.ps.common.ReferentialPackage",
        "referentialPsLanding → ONE → referential.ps.landing.ReferentialPackage",
        "referentialPsLocalmarket → ONE → referential.ps.localmarket.ReferentialPackage",
        "referentialPsLogbook → ONE → referential.ps.logbook.ReferentialPackage",
        "referentialPsObservation → ONE → referential.ps.observation.ReferentialPackage"
      ]
    },
    {
      "parentClassNames": [
        "Root"
      ],
      "className": "data.ps.common.TripGroupByStartDate",
      "type": "data.ps.common.TripGroupByStartDate",
      "nodeType": "RootOpenFilter",
      "children": [
        "children → MANY → data.ps.common.Trip"
      ]
    },
    {
      "parentClassNames": [
        "Root"
      ],
      "className": "data.ps.common.TripGroupByEndDate",
      "type": "data.ps.common.TripGroupByEndDate",
      "nodeType": "RootOpenFilter",
      "children": [
        "children → MANY → data.ps.common.Trip"
      ]
    },
    {
      "parentClassNames": [
        "Root"
      ],
      "className": "data.ps.common.TripGroupByObservationsProgram",
      "type": "data.ps.common.TripGroupByObservationsProgram",
      "nodeType": "RootOpenFilter",
      "children": [
        "children → MANY → data.ps.common.Trip"
      ]
    },
    {
      "parentClassNames": [
        "Root"
      ],
      "className": "data.ps.common.TripGroupByLogbookProgram",
      "type": "data.ps.common.TripGroupByLogbookProgram",
      "nodeType": "RootOpenFilter",
      "children": [
        "children → MANY → data.ps.common.Trip"
      ]
    },
    {
      "parentClassNames": [
        "Root"
      ],
      "className": "data.ps.common.TripGroupByOcean",
      "type": "data.ps.common.TripGroupByOcean",
      "nodeType": "RootOpenFilter",
      "children": [
        "children → MANY → data.ps.common.Trip"
      ]
    },
    {
      "parentClassNames": [
        "Root"
      ],
      "className": "data.ps.common.TripGroupByObserver",
      "type": "data.ps.common.TripGroupByObserver",
      "nodeType": "RootOpenFilter",
      "children": [
        "children → MANY → data.ps.common.Trip"
      ]
    },
    {
      "parentClassNames": [
        "Root"
      ],
      "className": "data.ps.common.TripGroupByCaptain",
      "type": "data.ps.common.TripGroupByCaptain",
      "nodeType": "RootOpenFilter",
      "children": [
        "children → MANY → data.ps.common.Trip"
      ]
    },
    {
      "parentClassNames": [
        "Root"
      ],
      "className": "data.ps.common.TripGroupByObservationsDataEntryOperator",
      "type": "data.ps.common.TripGroupByObservationsDataEntryOperator",
      "nodeType": "RootOpenFilter",
      "children": [
        "children → MANY → data.ps.common.Trip"
      ]
    },
    {
      "parentClassNames": [
        "Root"
      ],
      "className": "data.ps.common.TripGroupByLogbookDataEntryOperator",
      "type": "data.ps.common.TripGroupByLogbookDataEntryOperator",
      "nodeType": "RootOpenFilter",
      "children": [
        "children → MANY → data.ps.common.Trip"
      ]
    },
    {
      "parentClassNames": [
        "Root"
      ],
      "className": "data.ps.common.TripGroupByVessel",
      "type": "data.ps.common.TripGroupByVessel",
      "nodeType": "RootOpenFilter",
      "children": [
        "children → MANY → data.ps.common.Trip"
      ]
    },
    {
      "parentClassNames": [
        "Root"
      ],
      "className": "data.ps.common.TripGroupByVesselVesselType",
      "type": "data.ps.common.TripGroupByVesselVesselType",
      "nodeType": "RootOpenFilter",
      "children": [
        "children → MANY → data.ps.common.Trip"
      ]
    },
    {
      "parentClassNames": [
        "Root"
      ],
      "className": "data.ps.common.TripGroupByVesselVesselSizeCategory",
      "type": "data.ps.common.TripGroupByVesselVesselSizeCategory",
      "nodeType": "RootOpenFilter",
      "children": [
        "children → MANY → data.ps.common.Trip"
      ]
    },
    {
      "parentClassNames": [
        "Root"
      ],
      "className": "data.ps.common.TripGroupByVesselFlagCountry",
      "type": "data.ps.common.TripGroupByVesselFlagCountry",
      "nodeType": "RootOpenFilter",
      "children": [
        "children → MANY → data.ps.common.Trip"
      ]
    },
    {
      "parentClassNames": [
        "Root"
      ],
      "className": "data.ps.common.TripGroupByVesselFleetCountry",
      "type": "data.ps.common.TripGroupByVesselFleetCountry",
      "nodeType": "RootOpenFilter",
      "children": [
        "children → MANY → data.ps.common.Trip"
      ]
    },
    {
      "parentClassNames": [
        "Root"
      ],
      "className": "data.ps.common.TripGroupByVesselShipOwner",
      "type": "data.ps.common.TripGroupByVesselShipOwner",
      "nodeType": "RootOpenFilter",
      "children": [
        "children → MANY → data.ps.common.Trip"
      ]
    },
    {
      "parentClassNames": [
        "Root"
      ],
      "className": "data.ps.common.TripGroupByDepartureHarbour",
      "type": "data.ps.common.TripGroupByDepartureHarbour",
      "nodeType": "RootOpenFilter",
      "children": [
        "children → MANY → data.ps.common.Trip"
      ]
    },
    {
      "parentClassNames": [
        "Root"
      ],
      "className": "data.ps.common.TripGroupByLandingHarbour",
      "type": "data.ps.common.TripGroupByLandingHarbour",
      "nodeType": "RootOpenFilter",
      "children": [
        "children → MANY → data.ps.common.Trip"
      ]
    },
    {
      "parentClassNames": [
        "Root"
      ],
      "className": "data.ps.common.TripGroupByObservationsDataQuality",
      "type": "data.ps.common.TripGroupByObservationsDataQuality",
      "nodeType": "RootOpenFilter",
      "children": [
        "children → MANY → data.ps.common.Trip"
      ]
    },
    {
      "parentClassNames": [
        "Root"
      ],
      "className": "data.ps.common.TripGroupByLogbookDataQuality",
      "type": "data.ps.common.TripGroupByLogbookDataQuality",
      "nodeType": "RootOpenFilter",
      "children": [
        "children → MANY → data.ps.common.Trip"
      ]
    },
    {
      "parentClassNames": [
        "Root"
      ],
      "className": "data.ps.common.TripGroupByObservationsAcquisitionStatus",
      "type": "data.ps.common.TripGroupByObservationsAcquisitionStatus",
      "nodeType": "RootOpenFilter",
      "children": [
        "children → MANY → data.ps.common.Trip"
      ]
    },
    {
      "parentClassNames": [
        "Root"
      ],
      "className": "data.ps.common.TripGroupByLogbookAcquisitionStatus",
      "type": "data.ps.common.TripGroupByLogbookAcquisitionStatus",
      "nodeType": "RootOpenFilter",
      "children": [
        "children → MANY → data.ps.common.Trip"
      ]
    },
    {
      "parentClassNames": [
        "Root"
      ],
      "className": "data.ps.common.TripGroupByTargetWellsSamplingAcquisitionStatus",
      "type": "data.ps.common.TripGroupByTargetWellsSamplingAcquisitionStatus",
      "nodeType": "RootOpenFilter",
      "children": [
        "children → MANY → data.ps.common.Trip"
      ]
    },
    {
      "parentClassNames": [
        "Root"
      ],
      "className": "data.ps.common.TripGroupByLandingAcquisitionStatus",
      "type": "data.ps.common.TripGroupByLandingAcquisitionStatus",
      "nodeType": "RootOpenFilter",
      "children": [
        "children → MANY → data.ps.common.Trip"
      ]
    },
    {
      "parentClassNames": [
        "Root"
      ],
      "className": "data.ps.common.TripGroupByLocalMarketAcquisitionStatus",
      "type": "data.ps.common.TripGroupByLocalMarketAcquisitionStatus",
      "nodeType": "RootOpenFilter",
      "children": [
        "children → MANY → data.ps.common.Trip"
      ]
    },
    {
      "parentClassNames": [
        "Root"
      ],
      "className": "data.ps.common.TripGroupByLocalMarketWellsSamplingAcquisitionStatus",
      "type": "data.ps.common.TripGroupByLocalMarketWellsSamplingAcquisitionStatus",
      "nodeType": "RootOpenFilter",
      "children": [
        "children → MANY → data.ps.common.Trip"
      ]
    },
    {
      "parentClassNames": [
        "Root"
      ],
      "className": "data.ps.common.TripGroupByLocalMarketSurveySamplingAcquisitionStatus",
      "type": "data.ps.common.TripGroupByLocalMarketSurveySamplingAcquisitionStatus",
      "nodeType": "RootOpenFilter",
      "children": [
        "children → MANY → data.ps.common.Trip"
      ]
    },
    {
      "parentClassNames": [
        "Root"
      ],
      "className": "data.ps.common.TripGroupByAdvancedSamplingAcquisitionStatus",
      "type": "data.ps.common.TripGroupByAdvancedSamplingAcquisitionStatus",
      "nodeType": "RootOpenFilter",
      "children": [
        "children → MANY → data.ps.common.Trip"
      ]
    },
    {
      "parentClassNames": [
        "Root"
      ],
      "className": "data.ps.common.TripGroupByDepartureWellContentStatus",
      "type": "data.ps.common.TripGroupByDepartureWellContentStatus",
      "nodeType": "RootOpenFilter",
      "children": [
        "children → MANY → data.ps.common.Trip"
      ]
    },
    {
      "parentClassNames": [
        "Root"
      ],
      "className": "data.ps.common.TripGroupByLandingWellContentStatus",
      "type": "data.ps.common.TripGroupByLandingWellContentStatus",
      "nodeType": "RootOpenFilter",
      "children": [
        "children → MANY → data.ps.common.Trip"
      ]
    },
    {
      "parentClassNames": [
        "Root",
        "data.ps.common.TripGroupByStartDate",
        "data.ps.common.TripGroupByEndDate",
        "data.ps.common.TripGroupByObservationsProgram",
        "data.ps.common.TripGroupByLogbookProgram",
        "data.ps.common.TripGroupByOcean",
        "data.ps.common.TripGroupByObserver",
        "data.ps.common.TripGroupByCaptain",
        "data.ps.common.TripGroupByObservationsDataEntryOperator",
        "data.ps.common.TripGroupByLogbookDataEntryOperator",
        "data.ps.common.TripGroupByVessel",
        "data.ps.common.TripGroupByVesselVesselType",
        "data.ps.common.TripGroupByVesselVesselSizeCategory",
        "data.ps.common.TripGroupByVesselFlagCountry",
        "data.ps.common.TripGroupByVesselFleetCountry",
        "data.ps.common.TripGroupByVesselShipOwner",
        "data.ps.common.TripGroupByDepartureHarbour",
        "data.ps.common.TripGroupByLandingHarbour",
        "data.ps.common.TripGroupByObservationsDataQuality",
        "data.ps.common.TripGroupByLogbookDataQuality",
        "data.ps.common.TripGroupByObservationsAcquisitionStatus",
        "data.ps.common.TripGroupByLogbookAcquisitionStatus",
        "data.ps.common.TripGroupByTargetWellsSamplingAcquisitionStatus",
        "data.ps.common.TripGroupByLandingAcquisitionStatus",
        "data.ps.common.TripGroupByLocalMarketAcquisitionStatus",
        "data.ps.common.TripGroupByLocalMarketWellsSamplingAcquisitionStatus",
        "data.ps.common.TripGroupByLocalMarketSurveySamplingAcquisitionStatus",
        "data.ps.common.TripGroupByAdvancedSamplingAcquisitionStatus",
        "data.ps.common.TripGroupByDepartureWellContentStatus",
        "data.ps.common.TripGroupByLandingWellContentStatus"
      ],
      "className": "data.ps.common.Trip",
      "type": "data.ps.common.Trip",
      "nodeType": "RootOpen"
    },
    {
      "parentClassNames": [
        "Root"
      ],
      "className": "data.ll.common.TripGroupByStartDate",
      "type": "data.ll.common.TripGroupByStartDate",
      "nodeType": "RootOpenFilter",
      "children": [
        "children → MANY → data.ll.common.Trip"
      ]
    },
    {
      "parentClassNames": [
        "Root"
      ],
      "className": "data.ll.common.TripGroupByEndDate",
      "type": "data.ll.common.TripGroupByEndDate",
      "nodeType": "RootOpenFilter",
      "children": [
        "children → MANY → data.ll.common.Trip"
      ]
    },
    {
      "parentClassNames": [
        "Root"
      ],
      "className": "data.ll.common.TripGroupByObservationsProgram",
      "type": "data.ll.common.TripGroupByObservationsProgram",
      "nodeType": "RootOpenFilter",
      "children": [
        "children → MANY → data.ll.common.Trip"
      ]
    },
    {
      "parentClassNames": [
        "Root"
      ],
      "className": "data.ll.common.TripGroupByLogbookProgram",
      "type": "data.ll.common.TripGroupByLogbookProgram",
      "nodeType": "RootOpenFilter",
      "children": [
        "children → MANY → data.ll.common.Trip"
      ]
    },
    {
      "parentClassNames": [
        "Root"
      ],
      "className": "data.ll.common.TripGroupByOcean",
      "type": "data.ll.common.TripGroupByOcean",
      "nodeType": "RootOpenFilter",
      "children": [
        "children → MANY → data.ll.common.Trip"
      ]
    },
    {
      "parentClassNames": [
        "Root"
      ],
      "className": "data.ll.common.TripGroupByObserver",
      "type": "data.ll.common.TripGroupByObserver",
      "nodeType": "RootOpenFilter",
      "children": [
        "children → MANY → data.ll.common.Trip"
      ]
    },
    {
      "parentClassNames": [
        "Root"
      ],
      "className": "data.ll.common.TripGroupByCaptain",
      "type": "data.ll.common.TripGroupByCaptain",
      "nodeType": "RootOpenFilter",
      "children": [
        "children → MANY → data.ll.common.Trip"
      ]
    },
    {
      "parentClassNames": [
        "Root"
      ],
      "className": "data.ll.common.TripGroupByObservationsDataEntryOperator",
      "type": "data.ll.common.TripGroupByObservationsDataEntryOperator",
      "nodeType": "RootOpenFilter",
      "children": [
        "children → MANY → data.ll.common.Trip"
      ]
    },
    {
      "parentClassNames": [
        "Root"
      ],
      "className": "data.ll.common.TripGroupByLogbookDataEntryOperator",
      "type": "data.ll.common.TripGroupByLogbookDataEntryOperator",
      "nodeType": "RootOpenFilter",
      "children": [
        "children → MANY → data.ll.common.Trip"
      ]
    },
    {
      "parentClassNames": [
        "Root"
      ],
      "className": "data.ll.common.TripGroupBySampleDataEntryOperator",
      "type": "data.ll.common.TripGroupBySampleDataEntryOperator",
      "nodeType": "RootOpenFilter",
      "children": [
        "children → MANY → data.ll.common.Trip"
      ]
    },
    {
      "parentClassNames": [
        "Root"
      ],
      "className": "data.ll.common.TripGroupByLandingDataEntryOperator",
      "type": "data.ll.common.TripGroupByLandingDataEntryOperator",
      "nodeType": "RootOpenFilter",
      "children": [
        "children → MANY → data.ll.common.Trip"
      ]
    },
    {
      "parentClassNames": [
        "Root"
      ],
      "className": "data.ll.common.TripGroupByVessel",
      "type": "data.ll.common.TripGroupByVessel",
      "nodeType": "RootOpenFilter",
      "children": [
        "children → MANY → data.ll.common.Trip"
      ]
    },
    {
      "parentClassNames": [
        "Root"
      ],
      "className": "data.ll.common.TripGroupByVesselVesselType",
      "type": "data.ll.common.TripGroupByVesselVesselType",
      "nodeType": "RootOpenFilter",
      "children": [
        "children → MANY → data.ll.common.Trip"
      ]
    },
    {
      "parentClassNames": [
        "Root"
      ],
      "className": "data.ll.common.TripGroupByVesselVesselSizeCategory",
      "type": "data.ll.common.TripGroupByVesselVesselSizeCategory",
      "nodeType": "RootOpenFilter",
      "children": [
        "children → MANY → data.ll.common.Trip"
      ]
    },
    {
      "parentClassNames": [
        "Root"
      ],
      "className": "data.ll.common.TripGroupByVesselFlagCountry",
      "type": "data.ll.common.TripGroupByVesselFlagCountry",
      "nodeType": "RootOpenFilter",
      "children": [
        "children → MANY → data.ll.common.Trip"
      ]
    },
    {
      "parentClassNames": [
        "Root"
      ],
      "className": "data.ll.common.TripGroupByVesselFleetCountry",
      "type": "data.ll.common.TripGroupByVesselFleetCountry",
      "nodeType": "RootOpenFilter",
      "children": [
        "children → MANY → data.ll.common.Trip"
      ]
    },
    {
      "parentClassNames": [
        "Root"
      ],
      "className": "data.ll.common.TripGroupByVesselShipOwner",
      "type": "data.ll.common.TripGroupByVesselShipOwner",
      "nodeType": "RootOpenFilter",
      "children": [
        "children → MANY → data.ll.common.Trip"
      ]
    },
    {
      "parentClassNames": [
        "Root"
      ],
      "className": "data.ll.common.TripGroupByDepartureHarbour",
      "type": "data.ll.common.TripGroupByDepartureHarbour",
      "nodeType": "RootOpenFilter",
      "children": [
        "children → MANY → data.ll.common.Trip"
      ]
    },
    {
      "parentClassNames": [
        "Root"
      ],
      "className": "data.ll.common.TripGroupByLandingHarbour",
      "type": "data.ll.common.TripGroupByLandingHarbour",
      "nodeType": "RootOpenFilter",
      "children": [
        "children → MANY → data.ll.common.Trip"
      ]
    },
    {
      "parentClassNames": [
        "Root"
      ],
      "className": "data.ll.common.TripGroupByTripType",
      "type": "data.ll.common.TripGroupByTripType",
      "nodeType": "RootOpenFilter",
      "children": [
        "children → MANY → data.ll.common.Trip"
      ]
    },
    {
      "parentClassNames": [
        "Root"
      ],
      "className": "data.ll.common.TripGroupByObservationMethod",
      "type": "data.ll.common.TripGroupByObservationMethod",
      "nodeType": "RootOpenFilter",
      "children": [
        "children → MANY → data.ll.common.Trip"
      ]
    },
    {
      "parentClassNames": [
        "Root"
      ],
      "className": "data.ll.common.TripGroupByObservationsDataQuality",
      "type": "data.ll.common.TripGroupByObservationsDataQuality",
      "nodeType": "RootOpenFilter",
      "children": [
        "children → MANY → data.ll.common.Trip"
      ]
    },
    {
      "parentClassNames": [
        "Root"
      ],
      "className": "data.ll.common.TripGroupByLogbookDataQuality",
      "type": "data.ll.common.TripGroupByLogbookDataQuality",
      "nodeType": "RootOpenFilter",
      "children": [
        "children → MANY → data.ll.common.Trip"
      ]
    },
    {
      "parentClassNames": [
        "Root",
        "data.ll.common.TripGroupByStartDate",
        "data.ll.common.TripGroupByEndDate",
        "data.ll.common.TripGroupByObservationsProgram",
        "data.ll.common.TripGroupByLogbookProgram",
        "data.ll.common.TripGroupByOcean",
        "data.ll.common.TripGroupByObserver",
        "data.ll.common.TripGroupByCaptain",
        "data.ll.common.TripGroupByObservationsDataEntryOperator",
        "data.ll.common.TripGroupByLogbookDataEntryOperator",
        "data.ll.common.TripGroupBySampleDataEntryOperator",
        "data.ll.common.TripGroupByLandingDataEntryOperator",
        "data.ll.common.TripGroupByVessel",
        "data.ll.common.TripGroupByVesselVesselType",
        "data.ll.common.TripGroupByVesselVesselSizeCategory",
        "data.ll.common.TripGroupByVesselFlagCountry",
        "data.ll.common.TripGroupByVesselFleetCountry",
        "data.ll.common.TripGroupByVesselShipOwner",
        "data.ll.common.TripGroupByDepartureHarbour",
        "data.ll.common.TripGroupByLandingHarbour",
        "data.ll.common.TripGroupByTripType",
        "data.ll.common.TripGroupByObservationMethod",
        "data.ll.common.TripGroupByObservationsDataQuality",
        "data.ll.common.TripGroupByLogbookDataQuality"
      ],
      "className": "data.ll.common.Trip",
      "type": "data.ll.common.Trip",
      "nodeType": "RootOpen"
    },
    {
      "parentClassNames": [
        "Root"
      ],
      "className": "referential.common.ReferentialPackage",
      "type": "referential.common",
      "nodeType": "ReferentialPackage",
      "children": [
        "gear → ONE → referential.common.Gear",
        "sizeMeasureMethod → ONE → referential.common.SizeMeasureMethod",
        "ocean → ONE → referential.common.Ocean",
        "lengthLengthParameter → ONE → referential.common.LengthLengthParameter",
        "weightMeasureType → ONE → referential.common.WeightMeasureType",
        "hullMaterial → ONE → referential.common.HullMaterial",
        "vesselType → ONE → referential.common.VesselType",
        "shipOwner → ONE → referential.common.ShipOwner",
        "sex → ONE → referential.common.Sex",
        "gearCharacteristicType → ONE → referential.common.GearCharacteristicType",
        "fpaZone → ONE → referential.common.FpaZone",
        "weightMeasureMethod → ONE → referential.common.WeightMeasureMethod",
        "engineMake → ONE → referential.common.EngineMake",
        "country → ONE → referential.common.Country",
        "speciesGroupReleaseMode → ONE → referential.common.SpeciesGroupReleaseMode",
        "gearCharacteristicListItem → ONE → referential.common.GearCharacteristicListItem",
        "wind → ONE → referential.common.Wind",
        "speciesGroup → ONE → referential.common.SpeciesGroup",
        "vesselSizeCategory → ONE → referential.common.VesselSizeCategory",
        "species → ONE → referential.common.Species",
        "speciesList → ONE → referential.common.SpeciesList",
        "person → ONE → referential.common.Person",
        "dataQuality → ONE → referential.common.DataQuality",
        "vessel → ONE → referential.common.Vessel",
        "gearCharacteristic → ONE → referential.common.GearCharacteristic",
        "harbour → ONE → referential.common.Harbour",
        "sizeMeasureType → ONE → referential.common.SizeMeasureType",
        "lengthWeightParameter → ONE → referential.common.LengthWeightParameter",
        "organism → ONE → referential.common.Organism"
      ]
    },
    {
      "parentClassNames": [
        "referential.common.ReferentialPackage"
      ],
      "className": "referential.common.Gear",
      "type": "referential.common.Gear",
      "nodeType": "ReferentialType"
    },
    {
      "parentClassNames": [
        "referential.common.ReferentialPackage"
      ],
      "className": "referential.common.SizeMeasureMethod",
      "type": "referential.common.SizeMeasureMethod",
      "nodeType": "ReferentialType"
    },
    {
      "parentClassNames": [
        "referential.common.ReferentialPackage"
      ],
      "className": "referential.common.Ocean",
      "type": "referential.common.Ocean",
      "nodeType": "ReferentialType"
    },
    {
      "parentClassNames": [
        "referential.common.ReferentialPackage"
      ],
      "className": "referential.common.LengthLengthParameter",
      "type": "referential.common.LengthLengthParameter",
      "nodeType": "ReferentialType"
    },
    {
      "parentClassNames": [
        "referential.common.ReferentialPackage"
      ],
      "className": "referential.common.WeightMeasureType",
      "type": "referential.common.WeightMeasureType",
      "nodeType": "ReferentialType"
    },
    {
      "parentClassNames": [
        "referential.common.ReferentialPackage"
      ],
      "className": "referential.common.HullMaterial",
      "type": "referential.common.HullMaterial",
      "nodeType": "ReferentialType"
    },
    {
      "parentClassNames": [
        "referential.common.ReferentialPackage"
      ],
      "className": "referential.common.VesselType",
      "type": "referential.common.VesselType",
      "nodeType": "ReferentialType"
    },
    {
      "parentClassNames": [
        "referential.common.ReferentialPackage"
      ],
      "className": "referential.common.ShipOwner",
      "type": "referential.common.ShipOwner",
      "nodeType": "ReferentialType"
    },
    {
      "parentClassNames": [
        "referential.common.ReferentialPackage"
      ],
      "className": "referential.common.Sex",
      "type": "referential.common.Sex",
      "nodeType": "ReferentialType"
    },
    {
      "parentClassNames": [
        "referential.common.ReferentialPackage"
      ],
      "className": "referential.common.GearCharacteristicType",
      "type": "referential.common.GearCharacteristicType",
      "nodeType": "ReferentialType"
    },
    {
      "parentClassNames": [
        "referential.common.ReferentialPackage"
      ],
      "className": "referential.common.FpaZone",
      "type": "referential.common.FpaZone",
      "nodeType": "ReferentialType"
    },
    {
      "parentClassNames": [
        "referential.common.ReferentialPackage"
      ],
      "className": "referential.common.WeightMeasureMethod",
      "type": "referential.common.WeightMeasureMethod",
      "nodeType": "ReferentialType"
    },
    {
      "parentClassNames": [
        "referential.common.ReferentialPackage"
      ],
      "className": "referential.common.EngineMake",
      "type": "referential.common.EngineMake",
      "nodeType": "ReferentialType"
    },
    {
      "parentClassNames": [
        "referential.common.ReferentialPackage"
      ],
      "className": "referential.common.Country",
      "type": "referential.common.Country",
      "nodeType": "ReferentialType"
    },
    {
      "parentClassNames": [
        "referential.common.ReferentialPackage"
      ],
      "className": "referential.common.SpeciesGroupReleaseMode",
      "type": "referential.common.SpeciesGroupReleaseMode",
      "nodeType": "ReferentialType"
    },
    {
      "parentClassNames": [
        "referential.common.ReferentialPackage"
      ],
      "className": "referential.common.GearCharacteristicListItem",
      "type": "referential.common.GearCharacteristicListItem",
      "nodeType": "ReferentialType"
    },
    {
      "parentClassNames": [
        "referential.common.ReferentialPackage"
      ],
      "className": "referential.common.Wind",
      "type": "referential.common.Wind",
      "nodeType": "ReferentialType"
    },
    {
      "parentClassNames": [
        "referential.common.ReferentialPackage"
      ],
      "className": "referential.common.SpeciesGroup",
      "type": "referential.common.SpeciesGroup",
      "nodeType": "ReferentialType"
    },
    {
      "parentClassNames": [
        "referential.common.ReferentialPackage"
      ],
      "className": "referential.common.VesselSizeCategory",
      "type": "referential.common.VesselSizeCategory",
      "nodeType": "ReferentialType"
    },
    {
      "parentClassNames": [
        "referential.common.ReferentialPackage"
      ],
      "className": "referential.common.Species",
      "type": "referential.common.Species",
      "nodeType": "ReferentialType"
    },
    {
      "parentClassNames": [
        "referential.common.ReferentialPackage"
      ],
      "className": "referential.common.SpeciesList",
      "type": "referential.common.SpeciesList",
      "nodeType": "ReferentialType"
    },
    {
      "parentClassNames": [
        "referential.common.ReferentialPackage"
      ],
      "className": "referential.common.Person",
      "type": "referential.common.Person",
      "nodeType": "ReferentialType"
    },
    {
      "parentClassNames": [
        "referential.common.ReferentialPackage"
      ],
      "className": "referential.common.DataQuality",
      "type": "referential.common.DataQuality",
      "nodeType": "ReferentialType"
    },
    {
      "parentClassNames": [
        "referential.common.ReferentialPackage"
      ],
      "className": "referential.common.Vessel",
      "type": "referential.common.Vessel",
      "nodeType": "ReferentialType"
    },
    {
      "parentClassNames": [
        "referential.common.ReferentialPackage"
      ],
      "className": "referential.common.GearCharacteristic",
      "type": "referential.common.GearCharacteristic",
      "nodeType": "ReferentialType"
    },
    {
      "parentClassNames": [
        "referential.common.ReferentialPackage"
      ],
      "className": "referential.common.Harbour",
      "type": "referential.common.Harbour",
      "nodeType": "ReferentialType"
    },
    {
      "parentClassNames": [
        "referential.common.ReferentialPackage"
      ],
      "className": "referential.common.SizeMeasureType",
      "type": "referential.common.SizeMeasureType",
      "nodeType": "ReferentialType"
    },
    {
      "parentClassNames": [
        "referential.common.ReferentialPackage"
      ],
      "className": "referential.common.LengthWeightParameter",
      "type": "referential.common.LengthWeightParameter",
      "nodeType": "ReferentialType"
    },
    {
      "parentClassNames": [
        "referential.common.ReferentialPackage"
      ],
      "className": "referential.common.Organism",
      "type": "referential.common.Organism",
      "nodeType": "ReferentialType"
    },
    {
      "parentClassNames": [
        "Root"
      ],
      "className": "referential.ll.common.ReferentialPackage",
      "type": "referential.ll.common",
      "nodeType": "ReferentialPackage",
      "children": [
        "onBoardProcessing → ONE → referential.ll.common.OnBoardProcessing",
        "program → ONE → referential.ll.common.Program",
        "lightsticksColor → ONE → referential.ll.common.LightsticksColor",
        "hookType → ONE → referential.ll.common.HookType",
        "lightsticksType → ONE → referential.ll.common.LightsticksType",
        "hookSize → ONE → referential.ll.common.HookSize",
        "tripType → ONE → referential.ll.common.TripType",
        "vesselActivity → ONE → referential.ll.common.VesselActivity",
        "settingShape → ONE → referential.ll.common.SettingShape",
        "healthStatus → ONE → referential.ll.common.HealthStatus",
        "observationMethod → ONE → referential.ll.common.ObservationMethod",
        "mitigationType → ONE → referential.ll.common.MitigationType",
        "baitSettingStatus → ONE → referential.ll.common.BaitSettingStatus",
        "baitType → ONE → referential.ll.common.BaitType",
        "catchFate → ONE → referential.ll.common.CatchFate",
        "lineType → ONE → referential.ll.common.LineType"
      ]
    },
    {
      "parentClassNames": [
        "referential.ll.common.ReferentialPackage"
      ],
      "className": "referential.ll.common.OnBoardProcessing",
      "type": "referential.ll.common.OnBoardProcessing",
      "nodeType": "ReferentialType"
    },
    {
      "parentClassNames": [
        "referential.ll.common.ReferentialPackage"
      ],
      "className": "referential.ll.common.Program",
      "type": "referential.ll.common.Program",
      "nodeType": "ReferentialType"
    },
    {
      "parentClassNames": [
        "referential.ll.common.ReferentialPackage"
      ],
      "className": "referential.ll.common.LightsticksColor",
      "type": "referential.ll.common.LightsticksColor",
      "nodeType": "ReferentialType"
    },
    {
      "parentClassNames": [
        "referential.ll.common.ReferentialPackage"
      ],
      "className": "referential.ll.common.HookType",
      "type": "referential.ll.common.HookType",
      "nodeType": "ReferentialType"
    },
    {
      "parentClassNames": [
        "referential.ll.common.ReferentialPackage"
      ],
      "className": "referential.ll.common.LightsticksType",
      "type": "referential.ll.common.LightsticksType",
      "nodeType": "ReferentialType"
    },
    {
      "parentClassNames": [
        "referential.ll.common.ReferentialPackage"
      ],
      "className": "referential.ll.common.HookSize",
      "type": "referential.ll.common.HookSize",
      "nodeType": "ReferentialType"
    },
    {
      "parentClassNames": [
        "referential.ll.common.ReferentialPackage"
      ],
      "className": "referential.ll.common.TripType",
      "type": "referential.ll.common.TripType",
      "nodeType": "ReferentialType"
    },
    {
      "parentClassNames": [
        "referential.ll.common.ReferentialPackage"
      ],
      "className": "referential.ll.common.VesselActivity",
      "type": "referential.ll.common.VesselActivity",
      "nodeType": "ReferentialType"
    },
    {
      "parentClassNames": [
        "referential.ll.common.ReferentialPackage"
      ],
      "className": "referential.ll.common.SettingShape",
      "type": "referential.ll.common.SettingShape",
      "nodeType": "ReferentialType"
    },
    {
      "parentClassNames": [
        "referential.ll.common.ReferentialPackage"
      ],
      "className": "referential.ll.common.HealthStatus",
      "type": "referential.ll.common.HealthStatus",
      "nodeType": "ReferentialType"
    },
    {
      "parentClassNames": [
        "referential.ll.common.ReferentialPackage"
      ],
      "className": "referential.ll.common.ObservationMethod",
      "type": "referential.ll.common.ObservationMethod",
      "nodeType": "ReferentialType"
    },
    {
      "parentClassNames": [
        "referential.ll.common.ReferentialPackage"
      ],
      "className": "referential.ll.common.MitigationType",
      "type": "referential.ll.common.MitigationType",
      "nodeType": "ReferentialType"
    },
    {
      "parentClassNames": [
        "referential.ll.common.ReferentialPackage"
      ],
      "className": "referential.ll.common.BaitSettingStatus",
      "type": "referential.ll.common.BaitSettingStatus",
      "nodeType": "ReferentialType"
    },
    {
      "parentClassNames": [
        "referential.ll.common.ReferentialPackage"
      ],
      "className": "referential.ll.common.BaitType",
      "type": "referential.ll.common.BaitType",
      "nodeType": "ReferentialType"
    },
    {
      "parentClassNames": [
        "referential.ll.common.ReferentialPackage"
      ],
      "className": "referential.ll.common.CatchFate",
      "type": "referential.ll.common.CatchFate",
      "nodeType": "ReferentialType"
    },
    {
      "parentClassNames": [
        "referential.ll.common.ReferentialPackage"
      ],
      "className": "referential.ll.common.LineType",
      "type": "referential.ll.common.LineType",
      "nodeType": "ReferentialType"
    },
    {
      "parentClassNames": [
        "Root"
      ],
      "className": "referential.ll.landing.ReferentialPackage",
      "type": "referential.ll.landing",
      "nodeType": "ReferentialPackage",
      "children": [
        "conservation → ONE → referential.ll.landing.Conservation",
        "company → ONE → referential.ll.landing.Company",
        "dataSource → ONE → referential.ll.landing.DataSource"
      ]
    },
    {
      "parentClassNames": [
        "referential.ll.landing.ReferentialPackage"
      ],
      "className": "referential.ll.landing.Conservation",
      "type": "referential.ll.landing.Conservation",
      "nodeType": "ReferentialType"
    },
    {
      "parentClassNames": [
        "referential.ll.landing.ReferentialPackage"
      ],
      "className": "referential.ll.landing.Company",
      "type": "referential.ll.landing.Company",
      "nodeType": "ReferentialType"
    },
    {
      "parentClassNames": [
        "referential.ll.landing.ReferentialPackage"
      ],
      "className": "referential.ll.landing.DataSource",
      "type": "referential.ll.landing.DataSource",
      "nodeType": "ReferentialType"
    },
    {
      "parentClassNames": [
        "Root"
      ],
      "className": "referential.ll.observation.ReferentialPackage",
      "type": "referential.ll.observation",
      "nodeType": "ReferentialPackage",
      "children": [
        "sensorType → ONE → referential.ll.observation.SensorType",
        "maturityStatus → ONE → referential.ll.observation.MaturityStatus",
        "itemHorizontalPosition → ONE → referential.ll.observation.ItemHorizontalPosition",
        "sensorDataFormat → ONE → referential.ll.observation.SensorDataFormat",
        "baitHaulingStatus → ONE → referential.ll.observation.BaitHaulingStatus",
        "itemVerticalPosition → ONE → referential.ll.observation.ItemVerticalPosition",
        "hookPosition → ONE → referential.ll.observation.HookPosition",
        "stomachFullness → ONE → referential.ll.observation.StomachFullness",
        "sensorBrand → ONE → referential.ll.observation.SensorBrand",
        "encounterType → ONE → referential.ll.observation.EncounterType"
      ]
    },
    {
      "parentClassNames": [
        "referential.ll.observation.ReferentialPackage"
      ],
      "className": "referential.ll.observation.SensorType",
      "type": "referential.ll.observation.SensorType",
      "nodeType": "ReferentialType"
    },
    {
      "parentClassNames": [
        "referential.ll.observation.ReferentialPackage"
      ],
      "className": "referential.ll.observation.MaturityStatus",
      "type": "referential.ll.observation.MaturityStatus",
      "nodeType": "ReferentialType"
    },
    {
      "parentClassNames": [
        "referential.ll.observation.ReferentialPackage"
      ],
      "className": "referential.ll.observation.ItemHorizontalPosition",
      "type": "referential.ll.observation.ItemHorizontalPosition",
      "nodeType": "ReferentialType"
    },
    {
      "parentClassNames": [
        "referential.ll.observation.ReferentialPackage"
      ],
      "className": "referential.ll.observation.SensorDataFormat",
      "type": "referential.ll.observation.SensorDataFormat",
      "nodeType": "ReferentialType"
    },
    {
      "parentClassNames": [
        "referential.ll.observation.ReferentialPackage"
      ],
      "className": "referential.ll.observation.BaitHaulingStatus",
      "type": "referential.ll.observation.BaitHaulingStatus",
      "nodeType": "ReferentialType"
    },
    {
      "parentClassNames": [
        "referential.ll.observation.ReferentialPackage"
      ],
      "className": "referential.ll.observation.ItemVerticalPosition",
      "type": "referential.ll.observation.ItemVerticalPosition",
      "nodeType": "ReferentialType"
    },
    {
      "parentClassNames": [
        "referential.ll.observation.ReferentialPackage"
      ],
      "className": "referential.ll.observation.HookPosition",
      "type": "referential.ll.observation.HookPosition",
      "nodeType": "ReferentialType"
    },
    {
      "parentClassNames": [
        "referential.ll.observation.ReferentialPackage"
      ],
      "className": "referential.ll.observation.StomachFullness",
      "type": "referential.ll.observation.StomachFullness",
      "nodeType": "ReferentialType"
    },
    {
      "parentClassNames": [
        "referential.ll.observation.ReferentialPackage"
      ],
      "className": "referential.ll.observation.SensorBrand",
      "type": "referential.ll.observation.SensorBrand",
      "nodeType": "ReferentialType"
    },
    {
      "parentClassNames": [
        "referential.ll.observation.ReferentialPackage"
      ],
      "className": "referential.ll.observation.EncounterType",
      "type": "referential.ll.observation.EncounterType",
      "nodeType": "ReferentialType"
    },
    {
      "parentClassNames": [
        "Root"
      ],
      "className": "referential.ps.common.ReferentialPackage",
      "type": "referential.ps.common",
      "nodeType": "ReferentialPackage",
      "children": [
        "transmittingBuoyOwnership → ONE → referential.ps.common.TransmittingBuoyOwnership",
        "schoolType → ONE → referential.ps.common.SchoolType",
        "reasonForNoFishing → ONE → referential.ps.common.ReasonForNoFishing",
        "sampleType → ONE → referential.ps.common.SampleType",
        "transmittingBuoyOperation → ONE → referential.ps.common.TransmittingBuoyOperation",
        "objectOperation → ONE → referential.ps.common.ObjectOperation",
        "reasonForNullSet → ONE → referential.ps.common.ReasonForNullSet",
        "vesselActivity → ONE → referential.ps.common.VesselActivity",
        "speciesFate → ONE → referential.ps.common.SpeciesFate",
        "observedSystem → ONE → referential.ps.common.ObservedSystem",
        "weightCategory → ONE → referential.ps.common.WeightCategory",
        "program → ONE → referential.ps.common.Program",
        "objectMaterialType → ONE → referential.ps.common.ObjectMaterialType",
        "acquisitionStatus → ONE → referential.ps.common.AcquisitionStatus",
        "objectMaterial → ONE → referential.ps.common.ObjectMaterial",
        "transmittingBuoyType → ONE → referential.ps.common.TransmittingBuoyType"
      ]
    },
    {
      "parentClassNames": [
        "referential.ps.common.ReferentialPackage"
      ],
      "className": "referential.ps.common.TransmittingBuoyOwnership",
      "type": "referential.ps.common.TransmittingBuoyOwnership",
      "nodeType": "ReferentialType"
    },
    {
      "parentClassNames": [
        "referential.ps.common.ReferentialPackage"
      ],
      "className": "referential.ps.common.SchoolType",
      "type": "referential.ps.common.SchoolType",
      "nodeType": "ReferentialType"
    },
    {
      "parentClassNames": [
        "referential.ps.common.ReferentialPackage"
      ],
      "className": "referential.ps.common.ReasonForNoFishing",
      "type": "referential.ps.common.ReasonForNoFishing",
      "nodeType": "ReferentialType"
    },
    {
      "parentClassNames": [
        "referential.ps.common.ReferentialPackage"
      ],
      "className": "referential.ps.common.SampleType",
      "type": "referential.ps.common.SampleType",
      "nodeType": "ReferentialType"
    },
    {
      "parentClassNames": [
        "referential.ps.common.ReferentialPackage"
      ],
      "className": "referential.ps.common.TransmittingBuoyOperation",
      "type": "referential.ps.common.TransmittingBuoyOperation",
      "nodeType": "ReferentialType"
    },
    {
      "parentClassNames": [
        "referential.ps.common.ReferentialPackage"
      ],
      "className": "referential.ps.common.ObjectOperation",
      "type": "referential.ps.common.ObjectOperation",
      "nodeType": "ReferentialType"
    },
    {
      "parentClassNames": [
        "referential.ps.common.ReferentialPackage"
      ],
      "className": "referential.ps.common.ReasonForNullSet",
      "type": "referential.ps.common.ReasonForNullSet",
      "nodeType": "ReferentialType"
    },
    {
      "parentClassNames": [
        "referential.ps.common.ReferentialPackage"
      ],
      "className": "referential.ps.common.VesselActivity",
      "type": "referential.ps.common.VesselActivity",
      "nodeType": "ReferentialType"
    },
    {
      "parentClassNames": [
        "referential.ps.common.ReferentialPackage"
      ],
      "className": "referential.ps.common.SpeciesFate",
      "type": "referential.ps.common.SpeciesFate",
      "nodeType": "ReferentialType"
    },
    {
      "parentClassNames": [
        "referential.ps.common.ReferentialPackage"
      ],
      "className": "referential.ps.common.ObservedSystem",
      "type": "referential.ps.common.ObservedSystem",
      "nodeType": "ReferentialType"
    },
    {
      "parentClassNames": [
        "referential.ps.common.ReferentialPackage"
      ],
      "className": "referential.ps.common.WeightCategory",
      "type": "referential.ps.common.WeightCategory",
      "nodeType": "ReferentialType"
    },
    {
      "parentClassNames": [
        "referential.ps.common.ReferentialPackage"
      ],
      "className": "referential.ps.common.Program",
      "type": "referential.ps.common.Program",
      "nodeType": "ReferentialType"
    },
    {
      "parentClassNames": [
        "referential.ps.common.ReferentialPackage"
      ],
      "className": "referential.ps.common.ObjectMaterialType",
      "type": "referential.ps.common.ObjectMaterialType",
      "nodeType": "ReferentialType"
    },
    {
      "parentClassNames": [
        "referential.ps.common.ReferentialPackage"
      ],
      "className": "referential.ps.common.AcquisitionStatus",
      "type": "referential.ps.common.AcquisitionStatus",
      "nodeType": "ReferentialType"
    },
    {
      "parentClassNames": [
        "referential.ps.common.ReferentialPackage"
      ],
      "className": "referential.ps.common.ObjectMaterial",
      "type": "referential.ps.common.ObjectMaterial",
      "nodeType": "ReferentialType"
    },
    {
      "parentClassNames": [
        "referential.ps.common.ReferentialPackage"
      ],
      "className": "referential.ps.common.TransmittingBuoyType",
      "type": "referential.ps.common.TransmittingBuoyType",
      "nodeType": "ReferentialType"
    },
    {
      "parentClassNames": [
        "Root"
      ],
      "className": "referential.ps.landing.ReferentialPackage",
      "type": "referential.ps.landing",
      "nodeType": "ReferentialPackage",
      "children": [
        "fate → ONE → referential.ps.landing.Fate",
        "destination → ONE → referential.ps.landing.Destination"
      ]
    },
    {
      "parentClassNames": [
        "referential.ps.landing.ReferentialPackage"
      ],
      "className": "referential.ps.landing.Fate",
      "type": "referential.ps.landing.Fate",
      "nodeType": "ReferentialType"
    },
    {
      "parentClassNames": [
        "referential.ps.landing.ReferentialPackage"
      ],
      "className": "referential.ps.landing.Destination",
      "type": "referential.ps.landing.Destination",
      "nodeType": "ReferentialType"
    },
    {
      "parentClassNames": [
        "Root"
      ],
      "className": "referential.ps.localmarket.ReferentialPackage",
      "type": "referential.ps.localmarket",
      "nodeType": "ReferentialPackage",
      "children": [
        "packaging → ONE → referential.ps.localmarket.Packaging",
        "batchComposition → ONE → referential.ps.localmarket.BatchComposition",
        "batchWeightType → ONE → referential.ps.localmarket.BatchWeightType",
        "buyer → ONE → referential.ps.localmarket.Buyer"
      ]
    },
    {
      "parentClassNames": [
        "referential.ps.localmarket.ReferentialPackage"
      ],
      "className": "referential.ps.localmarket.Packaging",
      "type": "referential.ps.localmarket.Packaging",
      "nodeType": "ReferentialType"
    },
    {
      "parentClassNames": [
        "referential.ps.localmarket.ReferentialPackage"
      ],
      "className": "referential.ps.localmarket.BatchComposition",
      "type": "referential.ps.localmarket.BatchComposition",
      "nodeType": "ReferentialType"
    },
    {
      "parentClassNames": [
        "referential.ps.localmarket.ReferentialPackage"
      ],
      "className": "referential.ps.localmarket.BatchWeightType",
      "type": "referential.ps.localmarket.BatchWeightType",
      "nodeType": "ReferentialType"
    },
    {
      "parentClassNames": [
        "referential.ps.localmarket.ReferentialPackage"
      ],
      "className": "referential.ps.localmarket.Buyer",
      "type": "referential.ps.localmarket.Buyer",
      "nodeType": "ReferentialType"
    },
    {
      "parentClassNames": [
        "Root"
      ],
      "className": "referential.ps.logbook.ReferentialPackage",
      "type": "referential.ps.logbook",
      "nodeType": "ReferentialPackage",
      "children": [
        "sampleQuality → ONE → referential.ps.logbook.SampleQuality",
        "wellSamplingStatus → ONE → referential.ps.logbook.WellSamplingStatus",
        "informationSource → ONE → referential.ps.logbook.InformationSource",
        "setSuccessStatus → ONE → referential.ps.logbook.SetSuccessStatus",
        "wellSamplingConformity → ONE → referential.ps.logbook.WellSamplingConformity",
        "wellContentStatus → ONE → referential.ps.logbook.WellContentStatus"
      ]
    },
    {
      "parentClassNames": [
        "referential.ps.logbook.ReferentialPackage"
      ],
      "className": "referential.ps.logbook.SampleQuality",
      "type": "referential.ps.logbook.SampleQuality",
      "nodeType": "ReferentialType"
    },
    {
      "parentClassNames": [
        "referential.ps.logbook.ReferentialPackage"
      ],
      "className": "referential.ps.logbook.WellSamplingStatus",
      "type": "referential.ps.logbook.WellSamplingStatus",
      "nodeType": "ReferentialType"
    },
    {
      "parentClassNames": [
        "referential.ps.logbook.ReferentialPackage"
      ],
      "className": "referential.ps.logbook.InformationSource",
      "type": "referential.ps.logbook.InformationSource",
      "nodeType": "ReferentialType"
    },
    {
      "parentClassNames": [
        "referential.ps.logbook.ReferentialPackage"
      ],
      "className": "referential.ps.logbook.SetSuccessStatus",
      "type": "referential.ps.logbook.SetSuccessStatus",
      "nodeType": "ReferentialType"
    },
    {
      "parentClassNames": [
        "referential.ps.logbook.ReferentialPackage"
      ],
      "className": "referential.ps.logbook.WellSamplingConformity",
      "type": "referential.ps.logbook.WellSamplingConformity",
      "nodeType": "ReferentialType"
    },
    {
      "parentClassNames": [
        "referential.ps.logbook.ReferentialPackage"
      ],
      "className": "referential.ps.logbook.WellContentStatus",
      "type": "referential.ps.logbook.WellContentStatus",
      "nodeType": "ReferentialType"
    },
    {
      "parentClassNames": [
        "Root"
      ],
      "className": "referential.ps.observation.ReferentialPackage",
      "type": "referential.ps.observation",
      "nodeType": "ReferentialPackage",
      "children": [
        "nonTargetCatchReleaseHandlingPlace → ONE → referential.ps.observation.NonTargetCatchReleaseHandlingPlace",
        "nonTargetCatchReleasingTime → ONE → referential.ps.observation.NonTargetCatchReleasingTime",
        "speciesStatus → ONE → referential.ps.observation.SpeciesStatus",
        "surroundingActivity → ONE → referential.ps.observation.SurroundingActivity",
        "nonTargetCatchReleaseConformity → ONE → referential.ps.observation.NonTargetCatchReleaseConformity",
        "reasonForDiscard → ONE → referential.ps.observation.ReasonForDiscard",
        "informationSource → ONE → referential.ps.observation.InformationSource",
        "nonTargetCatchReleaseStatus → ONE → referential.ps.observation.NonTargetCatchReleaseStatus",
        "detectionMode → ONE → referential.ps.observation.DetectionMode"
      ]
    },
    {
      "parentClassNames": [
        "referential.ps.observation.ReferentialPackage"
      ],
      "className": "referential.ps.observation.NonTargetCatchReleaseHandlingPlace",
      "type": "referential.ps.observation.NonTargetCatchReleaseHandlingPlace",
      "nodeType": "ReferentialType"
    },
    {
      "parentClassNames": [
        "referential.ps.observation.ReferentialPackage"
      ],
      "className": "referential.ps.observation.NonTargetCatchReleasingTime",
      "type": "referential.ps.observation.NonTargetCatchReleasingTime",
      "nodeType": "ReferentialType"
    },
    {
      "parentClassNames": [
        "referential.ps.observation.ReferentialPackage"
      ],
      "className": "referential.ps.observation.SpeciesStatus",
      "type": "referential.ps.observation.SpeciesStatus",
      "nodeType": "ReferentialType"
    },
    {
      "parentClassNames": [
        "referential.ps.observation.ReferentialPackage"
      ],
      "className": "referential.ps.observation.SurroundingActivity",
      "type": "referential.ps.observation.SurroundingActivity",
      "nodeType": "ReferentialType"
    },
    {
      "parentClassNames": [
        "referential.ps.observation.ReferentialPackage"
      ],
      "className": "referential.ps.observation.NonTargetCatchReleaseConformity",
      "type": "referential.ps.observation.NonTargetCatchReleaseConformity",
      "nodeType": "ReferentialType"
    },
    {
      "parentClassNames": [
        "referential.ps.observation.ReferentialPackage"
      ],
      "className": "referential.ps.observation.ReasonForDiscard",
      "type": "referential.ps.observation.ReasonForDiscard",
      "nodeType": "ReferentialType"
    },
    {
      "parentClassNames": [
        "referential.ps.observation.ReferentialPackage"
      ],
      "className": "referential.ps.observation.InformationSource",
      "type": "referential.ps.observation.InformationSource",
      "nodeType": "ReferentialType"
    },
    {
      "parentClassNames": [
        "referential.ps.observation.ReferentialPackage"
      ],
      "className": "referential.ps.observation.NonTargetCatchReleaseStatus",
      "type": "referential.ps.observation.NonTargetCatchReleaseStatus",
      "nodeType": "ReferentialType"
    },
    {
      "parentClassNames": [
        "referential.ps.observation.ReferentialPackage"
      ],
      "className": "referential.ps.observation.DetectionMode",
      "type": "referential.ps.observation.DetectionMode",
      "nodeType": "ReferentialType"
    }
  ]
}