{
  "code": "CUSTOMS",
  "uri": null,
  "homeId": null,
  "needComment": false,
  "status": "enabled",
  "label1": "Customs",
  "label2": "Douanes",
  "label3": "Douanes #TODO",
  "label4": null,
  "label5": null,
  "label6": null,
  "label7": null,
  "label8": null
}