{
  "path": "fr.ird.observe.navigation.tree.navigation.referential.ll.landing.DataSourceNavigationTreeNode",
  "content": [
    {
      "topiaId": "fr.ird.referential.ll.landing.DataSource#666#01",
      "topiaCreateDate": "2020-10-01T00:00:00.000Z",
      "lastUpdateDate": "2020-10-01T00:00:00.000Z",
      "code": "CUSTOMS",
      "uri": null,
      "homeId": null,
      "needComment": false,
      "status": "enabled",
      "label1": "Customs",
      "label2": "Douanes",
      "label3": "Douanes #TODO",
      "label4": null,
      "label5": null,
      "label6": null,
      "label7": null,
      "label8": null
    },
    {
      "topiaId": "fr.ird.referential.ll.landing.DataSource#666#02",
      "topiaCreateDate": "2020-10-01T00:00:00.000Z",
      "lastUpdateDate": "2020-10-01T00:00:00.000Z",
      "code": "DBLOGBOOK",
      "uri": null,
      "homeId": null,
      "needComment": false,
      "status": "enabled",
      "label1": "Auto-Calculated from Database Logbooks",
      "label2": "Auto-calculé depuis la BDD logbooks",
      "label3": "Auto-calculé depuis la BDD logbooks #TODO",
      "label4": null,
      "label5": null,
      "label6": null,
      "label7": null,
      "label8": null
    }
  ]
}