{
  "url": "/api/public/referential/ll/landing/DataSource",
  "method": "GET",
  "headers": {
    "authenticationToken": "XXX"
  },
  "parameters": {
    "config.recursive": "true",
    "config.prettyPrint": "true",
    "config.serializeNulls": "true",
    "filters.code": "CUSTOMS"
  }
}