{
  "url": "/api/public/data/ps/logbook/Sample/fr.ird.data.ps.logbook.Sample-1616768092884-0.8805004437915559",
  "method": "DELETE",
  "headers": {
    "authenticationToken": "XXX"
  },
  "parameters": {}
}