{
  "url": "/api/public/referential/ps/common/VesselActivity",
  "method": "POST",
  "headers": {
    "authenticationToken": "XXX",
    "Content-Type": "application/json"
  },
  "parameters": {},
  "payload": {
    "code": "21",
    "uri": null,
    "homeId": null,
    "needComment": false,
    "status": "enabled",
    "label1": "FPA zone change",
    "label2": "Changement de zone FPA",
    "label3": "Cambio de zona FPA",
    "label4": null,
    "label5": null,
    "label6": null,
    "label7": null,
    "label8": null,
    "allowFad": false,
    "allowFpaZoneChange": true,
    "allowSet": false,
    "observation": true,
    "logbook": true
  }
}