{
  "url": "/api/public/referential/ps/common/TransmittingBuoyOperation",
  "method": "GET",
  "headers": {
    "authenticationToken": "XXX"
  },
  "parameters": {
    "config.prettyPrint": "true"
  }
}