{
  "url": "/api/public/data/ll/landing/Landing",
  "method": "POST",
  "headers": {
    "authenticationToken": "XXX",
    "Content-Type": "application/json"
  },
  "parameters": {},
  "payload": {
    "homeId": "FINSS-017977",
    "comment": null,
    "startDate": "2018-08-12T00:00:00.000Z",
    "endDate": "2018-09-01T00:00:00.000Z",
    "latitude": null,
    "longitude": null,
    "dataSource": "fr.ird.referential.ll.landing.DataSource#666#15",
    "processingCompany": "fr.ird.referential.ll.landing.Company#1464000000000#0.26",
    "shippingCompany": "fr.ird.referential.ll.landing.Company#1464000000000#0.30",
    "brokerageCompany": "fr.ird.referential.ll.landing.Company#1464000000000#0.30",
    "person": null,
    "harbour": "fr.ird.referential.common.Harbour#11#0.41",
    "vessel": "fr.ird.referential.common.Vessel#1464000000000#0.16791",
    "landingPart": [
      {
        "homeId": "FINSS-00022051",
        "species": "fr.ird.referential.common.Species#1603361174123#0.4481382481686691",
        "dataQuality": null,
        "categoryMin": null,
        "categoryMax": null,
        "onBoardProcessing": "fr.ird.referential.ll.common.OnBoardProcessing#1464000000000#0.3",
        "conservation": null,
        "count": null,
        "weight": 312.9,
        "weightMeasureMethod": "fr.ird.referential.common.WeightMeasureMethod#666#01"
      },
      {
        "homeId": "FINSS-00022050",
        "species": "fr.ird.referential.common.Species#1239832683791#0.20975568563021063",
        "dataQuality": null,
        "categoryMin": null,
        "categoryMax": null,
        "onBoardProcessing": "fr.ird.referential.ll.common.OnBoardProcessing#1464000000000#0.3",
        "conservation": null,
        "count": null,
        "weight": 370.75,
        "weightMeasureMethod": "fr.ird.referential.common.WeightMeasureMethod#666#01"
      }
    ]
  }
}