{
  "url": "/api/public/data/ll/landing/Landing/fr.ird.data.ll.landing.Landing-1464000000000-0.00017977",
  "method": "DELETE",
  "headers": {
    "authenticationToken": "XXX"
  },
  "parameters": {}
}