{
  "url": "/api/public/referential/common/GearCharacteristicType/fr.ird.referential.common.GearCharacteristicType-1239832686123-0.2",
  "method": "DELETE",
  "headers": {
    "authenticationToken": "XXX"
  },
  "parameters": {}
}