{
  "path": "fr.ird.observe.tree.navigation.referential.ll.observation.SensorTypeNavigationTreeNode:fr.ird.referential.ll.observation.SensorType#1239832686131#0.2",
  "content": [
    {
      "topiaId": "fr.ird.referential.ll.observation.SensorType#1239832686131#0.2",
      "topiaCreateDate": "2014-07-26T00:00:00.000Z",
      "lastUpdateDate": "2016-12-06T15:54:27.727Z",
      "code": "XMB",
      "uri": null,
      "homeId": null,
      "needComment": false,
      "status": "enabled",
      "label1": "XMB",
      "label2": "XMB",
      "label3": "XMB",
      "label4": null,
      "label5": null,
      "label6": null,
      "label7": null,
      "label8": null
    }
  ]
}