{
  "url": "/api/public/data/ps/observation/FloatingObject/fr.ird.data.ps.observation.FloatingObject-1612860069119-0.061511249860604966",
  "method": "PUT",
  "headers": {
    "authenticationToken": "XXX",
    "Content-Type": "application/json"
  },
  "parameters": {},
  "payload": {
    "homeId": null,
    "comment": null,
    "objectSchoolEstimate": [
      {
        "homeId": null,
        "totalWeight": 12.0,
        "species": "fr.ird.referential.common.Species#1239832685476#0.5618871286604711",
        "weightMeasureMethod": "fr.ird.referential.common.WeightMeasureMethod#666#04"
      },
      {
        "homeId": null,
        "totalWeight": 1.0,
        "species": "fr.ird.referential.common.Species#1239832685475#0.13349466123905152",
        "weightMeasureMethod": "fr.ird.referential.common.WeightMeasureMethod#666#04"
      }
    ],
    "objectObservedSpecies": [
      {
        "homeId": null,
        "count": 3.0,
        "species": "fr.ird.referential.common.Species#1308738639113#0.434038308601438",
        "speciesStatus": "fr.ird.referential.ps.observation.SpeciesStatus#1239832686390#0.056026648869705986"
      },
      {
        "homeId": null,
        "count": 5.0,
        "species": "fr.ird.referential.common.Species#201007241100#0.12345370",
        "speciesStatus": "fr.ird.referential.ps.observation.SpeciesStatus#1239832686390#0.056026648869705986"
      }
    ],
    "objectOperation": "fr.ird.referential.ps.common.ObjectOperation#0#1",
    "supportVesselName": "yo",
    "transmittingBuoy": [
      {
        "homeId": null,
        "comment": "aaza",
        "code": "12",
        "transmittingBuoyOwnership": "fr.ird.referential.ps.common.TransmittingBuoyOwnership#0#3",
        "transmittingBuoyType": "fr.ird.referential.ps.common.TransmittingBuoyType#1239832686500#0.7406749287430566",
        "transmittingBuoyOperation": "fr.ird.referential.ps.common.TransmittingBuoyOperation#1239832686238#0.4755624782839416",
        "country": "fr.ird.referential.common.Country#1239832675583#0.9493110781716075",
        "vessel": "fr.ird.referential.common.Vessel#1239832677756#0.4935293150142165",
        "latitude": null,
        "longitude": null
      }
    ],
    "floatingObjectPart": [
      {
        "homeId": null,
        "whenArriving": null,
        "whenLeaving": "true",
        "objectMaterial": "fr.ird.referential.ps.common.ObjectMaterial#0#0.39"
      },
      {
        "homeId": null,
        "whenArriving": null,
        "whenLeaving": "true",
        "objectMaterial": "fr.ird.referential.ps.common.ObjectMaterial#0#0.3"
      }
    ],
    "computedWhenArrivingBiodegradable": null,
    "computedWhenArrivingNonEntangling": null,
    "computedWhenArrivingSimplifiedObjectType": null,
    "computedWhenLeavingBiodegradable": "FALSE",
    "computedWhenLeavingNonEntangling": "TRUE",
    "computedWhenLeavingSimplifiedObjectType": "DFAD"
  }
}