{
  "url": "/api/public/data/ps/localmarket/SampleSpeciesMeasure/fr.ird.data.ps.localmarket.SampleSpeciesMeasure-1616837637237-0.8332580389171907",
  "method": "DELETE",
  "headers": {
    "authenticationToken": "XXX"
  },
  "parameters": {}
}