{
  "url": "/api/public/data/ps/localmarket/SampleSpeciesMeasure",
  "method": "GET",
  "headers": {
    "authenticationToken": "XXX"
  },
  "parameters": {
    "config.recursive": "true",
    "config.prettyPrint": "true",
    "config.serializeNulls": "true",
    "filters.lastUpdateDate": "2021-03-27T10:35:56.451Z"
  }
}