{
  "url": "/api/public/referential/common/SpeciesGroup",
  "method": "POST",
  "headers": {
    "authenticationToken": "XXX",
    "Content-Type": "application/json"
  },
  "parameters": {},
  "payload": {
    "code": "1",
    "uri": null,
    "homeId": null,
    "needComment": false,
    "status": "enabled",
    "label1": "Billfishes",
    "label2": "Poissons porte épée",
    "label3": "Marlines",
    "label4": null,
    "label5": null,
    "label6": null,
    "label7": null,
    "label8": null,
    "speciesGroupReleaseMode": []
  }
}