{
  "path": "fr.ird.observe.navigation.tree.navigation.referential.common.SpeciesGroupNavigationTreeNode:fr.ird.referential.common.SpeciesGroup#1239832683689#0.17327457618202002",
  "content": [
    {
      "topiaId": "fr.ird.referential.common.SpeciesGroup#1239832683689#0.17327457618202002",
      "topiaCreateDate": "2009-04-15T00:00:00.000Z",
      "lastUpdateDate": "2016-12-06T15:54:27.727Z",
      "code": "1",
      "uri": null,
      "homeId": null,
      "needComment": false,
      "status": "enabled",
      "label1": "Billfishes",
      "label2": "Poissons porte épée",
      "label3": "Marlines",
      "label4": null,
      "label5": null,
      "label6": null,
      "label7": null,
      "label8": null,
      "speciesGroupReleaseMode": []
    }
  ]
}