{
  "path": "fr.ird.observe.tree.navigation.referential.ps.logbook.WellContentStatusNavigationTreeNode",
  "content": [
    {
      "topiaId": "fr.ird.referential.ps.logbook.WellContentStatus#1464000000000#01",
      "topiaCreateDate": "2021-09-17T00:00:00.000Z",
      "lastUpdateDate": "2021-09-17T00:00:00.000Z",
      "code": "1",
      "needComment": false,
      "status": "enabled",
      "label1": "Wells empty",
      "label2": "Cuves vides",
      "label3": "Wells empty #TODO"
    },
    {
      "topiaId": "fr.ird.referential.ps.logbook.WellContentStatus#1464000000000#02",
      "topiaCreateDate": "2021-09-17T00:00:00.000Z",
      "lastUpdateDate": "2021-09-17T00:00:00.000Z",
      "code": "2",
      "needComment": false,
      "status": "enabled",
      "label1": "Wells not empty",
      "label2": "Cuves non vides",
      "label3": "Wells not empty #TODO"
    }
  ]
}