{
  "url": "/api/public/data/ps/observation/SampleMeasure/fr.ird.data.ps.observation.SampleMeasure-1612861249139-0.99644487513718",
  "method": "DELETE",
  "headers": {
    "authenticationToken": "XXX"
  },
  "parameters": {}
}