{
  "url": "/api/public/referential/ps/common/SchoolType/fr.ird.referential.ps.common.SchoolType-0-0",
  "method": "GET",
  "headers": {
    "authenticationToken": "XXX"
  },
  "parameters": {
    "config.recursive": "true",
    "config.prettyPrint": "true",
    "config.serializeNulls": "true"
  }
}