{
  "path": "fr.ird.observe.navigation.tree.navigation.referential.ps.observation.DetectionModeNavigationTreeNode",
  "content": [
    {
      "topiaId": "fr.ird.referential.ps.observation.DetectionMode#1239832686121#0.31798673746139705",
      "topiaCreateDate": "2009-04-15T00:00:00.000Z",
      "lastUpdateDate": "2017-11-16T16:10:01.714Z",
      "code": "0",
      "uri": null,
      "homeId": null,
      "needComment": false,
      "status": "enabled",
      "label1": "Unknown",
      "label2": "Mode de détection inconnu",
      "label3": "Mode de détection inconnu",
      "label4": null,
      "label5": null,
      "label6": null,
      "label7": null,
      "label8": null
    },
    {
      "topiaId": "fr.ird.referential.ps.observation.DetectionMode#1239832686122#0.3243132538654122",
      "topiaCreateDate": "2009-04-15T00:00:00.009Z",
      "lastUpdateDate": "2017-11-16T16:10:08.150Z",
      "code": "1",
      "uri": null,
      "homeId": null,
      "needComment": false,
      "status": "enabled",
      "label1": "Naked eye",
      "label2": "Oeil nu",
      "label3": "Oeil nu",
      "label4": null,
      "label5": null,
      "label6": null,
      "label7": null,
      "label8": null
    }
  ]
}