{
  "path": "fr.ird.observe.tree.navigation.referential.ps.logbook.WellSamplingConformityNavigationTreeNode",
  "content": [
    {
      "topiaId": "fr.ird.referential.ps.logbook.WellSamplingConformity#1464000000000#01",
      "topiaCreateDate": "2021-09-17T00:00:00.000Z",
      "lastUpdateDate": "2021-09-17T00:00:00.000Z",
      "code": "1",
      "needComment": false,
      "status": "enabled",
      "label1": "Compliant",
      "label2": "Conforme",
      "label3": "Compliant #TODO"
    },
    {
      "topiaId": "fr.ird.referential.ps.logbook.WellSamplingConformity#1464000000000#02",
      "topiaCreateDate": "2021-09-17T00:00:00.000Z",
      "lastUpdateDate": "2021-09-17T00:00:00.000Z",
      "code": "2",
      "needComment": false,
      "status": "enabled",
      "label1": "Non compliant",
      "label2": "Non conforme",
      "label3": "Non Compliant #TODO"
    }
  ]
}