{
  "path": "fr.ird.observe.navigation.tree.navigation.RootNavigationTreeNode:fr.ird.data.ll.observation.BaitsComposition#1538025750031#0.9637636762242816",
  "content": [
    {
      "topiaId": "fr.ird.data.ll.observation.BaitsComposition#1538025750031#0.9637636762242816",
      "topiaCreateDate": "2018-09-27T09:22:30.031Z",
      "lastUpdateDate": "2018-09-27T09:22:30.031Z",
      "homeId": null,
      "proportion": 80.0,
      "individualSize": null,
      "individualWeight": null,
      "baitSettingStatus": "fr.ird.referential.ll.common.BaitSettingStatus#1239832686123#0.2",
      "baitType": "fr.ird.referential.ll.common.BaitType#1239832686124#0.5"
    }
  ]
}