{
  "url": "/api/public/data/ll/common/GearUseFeaturesMeasurement/fr.ird.data.ll.common.GearUseFeaturesMeasurement-1612699679825-0.11912898889431767",
  "method": "DELETE",
  "headers": {
    "authenticationToken": "XXX"
  },
  "parameters": {}
}