{
  "path": "fr.ird.observe.navigation.tree.navigation.RootNavigationTreeNode:fr.ird.data.ll.common.GearUseFeaturesMeasurement#1612699679825#0.11912898889431767",
  "content": [
    {
      "topiaId": "fr.ird.data.ll.common.GearUseFeaturesMeasurement#1612699679825#0.11912898889431767",
      "topiaCreateDate": "2021-02-07T13:07:40.375Z",
      "lastUpdateDate": "2021-02-07T13:24:39.762Z",
      "homeId": null,
      "measurementValue": "123",
      "gearCharacteristic": "fr.ird.referential.common.GearCharacteristic#1239832686124#0.10"
    }
  ]
}