{
  "url": "/api/public/data/ll/logbook/Catch/fr.ird.data.ll.logbook.Catch-1609949762034-0.172401036834344",
  "method": "PUT",
  "headers": {
    "authenticationToken": "XXX",
    "Content-Type": "application/json"
  },
  "parameters": {},
  "payload": {
    "homeId": "FINSS-01110090",
    "comment": null,
    "count": 1.0,
    "totalWeight": 18.0,
    "hookWhenDiscarded": false,
    "depredated": true,
    "beatDiameter": 12.0,
    "photoReferences": null,
    "number": null,
    "acquisitionMode": 1.0,
    "countDepredated": 1.0,
    "depredatedProportion": 33.0,
    "tagNumber": null,
    "catchFate": "fr.ird.referential.ll.common.CatchFate#1239832686125#0.2",
    "discardHealthStatus": null,
    "species": "fr.ird.referential.common.Species#1239832685474#0.8943253454598569",
    "predator": [
      "fr.ird.referential.common.Species#1433499245237#0.58819441543892",
      "fr.ird.referential.common.Species#1433499258033#0.552436746191233"
    ],
    "catchHealthStatus": "fr.ird.referential.ll.common.HealthStatus#1239832686128#0.4",
    "onBoardProcessing": "fr.ird.referential.ll.common.OnBoardProcessing#1464000000000#0.3",
    "weightMeasureMethod": "fr.ird.referential.common.WeightMeasureMethod#666#03"
  }
}