{
  "path": "fr.ird.observe.navigation.tree.navigation.referential.ll.common.HookSizeNavigationTreeNode:fr.ird.referential.ll.common.HookSize#1239832686151#0.2",
  "content": [
    {
      "topiaId": "fr.ird.referential.ll.common.HookSize#1239832686151#0.2",
      "topiaCreateDate": "2014-07-26T00:00:00.000Z",
      "lastUpdateDate": "2016-12-06T15:54:27.727Z",
      "code": "9/0",
      "uri": null,
      "homeId": null,
      "needComment": false,
      "status": "enabled",
      "label1": "9/0",
      "label2": "9/0",
      "label3": "9/0",
      "label4": null,
      "label5": null,
      "label6": null,
      "label7": null,
      "label8": null
    }
  ]
}