{
  "url": "/api/public/referential/common/Country",
  "method": "POST",
  "headers": {
    "authenticationToken": "XXX",
    "Content-Type": "application/json"
  },
  "parameters": {},
  "payload": {
    "code": "22",
    "uri": null,
    "homeId": null,
    "needComment": false,
    "status": "enabled",
    "label1": "Maurice",
    "label2": "Mauritius",
    "label3": "Mauricio",
    "label4": null,
    "label5": null,
    "label6": null,
    "label7": null,
    "label8": null,
    "iso2Code": "MU",
    "iso3Code": "MUS"
  }
}