{
  "url": "/api/public/referential/ll/observation/SensorType/fr.ird.referential.ll.observation.SensorType-1239832686131-0.2",
  "method": "DELETE",
  "headers": {
    "authenticationToken": "XXX"
  },
  "parameters": {}
}