{
  "url": "/api/public/referential/ll/common/TripType/fr.ird.referential.ll.common.TripType-1464000000000-01",
  "method": "DELETE",
  "headers": {
    "authenticationToken": "XXX"
  },
  "parameters": {}
}