{
  "url": "/api/public/referential/ll/common/TripType/fr.ird.referential.ll.common.TripType-1464000000000-01",
  "method": "PUT",
  "headers": {
    "authenticationToken": "XXX",
    "Content-Type": "application/json"
  },
  "parameters": {},
  "payload": {
    "code": "SC",
    "uri": null,
    "homeId": null,
    "needComment": false,
    "status": "enabled",
    "label1": "Scientific trip",
    "label2": "Marée scientifique",
    "label3": "Marea experimental",
    "label4": null,
    "label5": null,
    "label6": null,
    "label7": null,
    "label8": null
  }
}