{
  "path": "fr.ird.observe.navigation.tree.navigation.RootNavigationTreeNode:fr.ird.data.ll.observation.Branchline#1613391727344#0.8268423721739928",
  "content": [
    {
      "topiaId": "fr.ird.data.ll.observation.Branchline#1613391727344#0.8268423721739928",
      "topiaCreateDate": "2021-02-15T13:22:03.827Z",
      "lastUpdateDate": "2021-02-15T13:22:07.264Z",
      "homeId": null,
      "comment": null,
      "settingIdentifier": 5.0,
      "haulingIdentifier": 3.0,
      "depthRecorder": false,
      "timer": false,
      "timeSinceContact": null,
      "hookOffset": null,
      "branchlineLength": null,
      "weightedSwivel": false,
      "timerTimeOnBoard": null,
      "weightedSnap": false,
      "swivelWeight": null,
      "snapWeight": null,
      "tracelineLength": null,
      "hookLost": false,
      "traceCutOff": false,
      "hookType": null,
      "baitType": null,
      "topType": null,
      "tracelineType": null,
      "baitSettingStatus": null,
      "baitHaulingStatus": null,
      "hookSize": null,
      "parentId": null
    }
  ]
}