{
  "path": "fr.ird.observe.navigation.tree.navigation.RootNavigationTreeNode:fr.ird.data.ll.observation.BranchlinesComposition#1538025750039#0.16433800917181407",
  "content": [
    {
      "topiaId": "fr.ird.data.ll.observation.BranchlinesComposition#1538025750039#0.16433800917181407",
      "topiaCreateDate": "2018-09-27T09:22:30.030Z",
      "lastUpdateDate": "2018-09-27T09:22:30.030Z",
      "homeId": null,
      "length": 13.5,
      "proportion": 100.0,
      "tracelineLength": null,
      "topType": "fr.ird.referential.ll.common.LineType#1239832686157#0.1",
      "tracelineType": "fr.ird.referential.ll.common.LineType#1239832686157#0.1"
    }
  ]
}