{
  "path": "fr.ird.observe.navigation.tree.navigation.referential.ll.common.HookTypeNavigationTreeNode",
  "content": [
    {
      "topiaId": "fr.ird.referential.ll.common.HookType#1239832686152#0.1",
      "topiaCreateDate": "2014-07-26T00:00:00.000Z",
      "lastUpdateDate": "2016-12-06T15:54:27.727Z",
      "code": "01",
      "uri": null,
      "homeId": null,
      "needComment": false,
      "status": "enabled",
      "label1": "Circle hook",
      "label2": "Hameçon circulaire (perroquet)",
      "label3": "Circle hook",
      "label4": null,
      "label5": null,
      "label6": null,
      "label7": null,
      "label8": null
    },
    {
      "topiaId": "fr.ird.referential.ll.common.HookType#1239832686152#0.10",
      "topiaCreateDate": "2014-07-26T00:00:00.000Z",
      "lastUpdateDate": "2016-12-06T15:54:27.727Z",
      "code": "02",
      "uri": null,
      "homeId": null,
      "needComment": false,
      "status": "enabled",
      "label1": "Flat shank J hook",
      "label2": "Hameçon américain (en J) à section plate",
      "label3": "Flat shank J hook",
      "label4": null,
      "label5": null,
      "label6": null,
      "label7": null,
      "label8": null
    }
  ]
}