{
  "path": "fr.ird.observe.navigation.tree.navigation.RootNavigationTreeNode:fr.ird.data.ps.logbook.WellActivitySpecies#0#0",
  "content": [
    {
      "topiaId": "fr.ird.data.ps.logbook.WellActivitySpecies#0#0",
      "topiaCreateDate": "2021-03-26T15:13:50.689Z",
      "lastUpdateDate": "2021-03-26T15:14:35.748Z",
      "homeId": null,
      "species": "fr.ird.referential.common.Species#1239832685475#0.13349466123905152",
      "weightCategory": "fr.ird.referential.ps.common.WeightCategory#1464000000000#00001",
      "weight": 12.0,
      "count": 3.0,
      "setSpeciesNumber": 456.0
    }
  ]
}