{
  "url": "/api/public/data/ps/logbook/Route/fr.ird.data.ps.logbook.Route-1616767950667-0.2733836567509864",
  "method": "GET",
  "headers": {
    "authenticationToken": "XXX"
  },
  "parameters": {
    "config.recursive": "true",
    "config.prettyPrint": "true",
    "config.serializeNulls": "true"
  }
}