{
  "homeId": "String",
  "comment": "String",
  "objectOperation": "fr.ird.observe.entities.referential.ps.common.ObjectOperation",
  "supportVesselName": "String",
  "transmittingBuoy": "java.util.Set:fr.ird.observe.entities.data.ps.logbook.TransmittingBuoy",
  "floatingObjectPart": "java.util.Set:fr.ird.observe.entities.data.ps.logbook.FloatingObjectPart",
  "computedWhenArrivingBiodegradable": "enum:fr.ird.observe.dto.data.ps.DcpComputedValue:[UNKNOWN, TRUE, FALSE]",
  "computedWhenArrivingNonEntangling": "enum:fr.ird.observe.dto.data.ps.DcpComputedValue:[UNKNOWN, TRUE, FALSE]",
  "computedWhenArrivingSimplifiedObjectType": "String",
  "computedWhenLeavingBiodegradable": "enum:fr.ird.observe.dto.data.ps.DcpComputedValue:[UNKNOWN, TRUE, FALSE]",
  "computedWhenLeavingNonEntangling": "enum:fr.ird.observe.dto.data.ps.DcpComputedValue:[UNKNOWN, TRUE, FALSE]",
  "computedWhenLeavingSimplifiedObjectType": "String"
}