{
  "path": "fr.ird.observe.navigation.tree.navigation.referential.ps.common.VesselActivityNavigationTreeNode:fr.ird.referential.ps.common.VesselActivity#1379684416896#0.38648073770690594",
  "content": [
    {
      "topiaId": "fr.ird.referential.ps.common.VesselActivity#1379684416896#0.38648073770690594",
      "topiaCreateDate": "2013-09-20T15:40:16.896Z",
      "lastUpdateDate": "2023-07-20T00:00:00.000Z",
      "code": "21",
      "uri": null,
      "homeId": null,
      "needComment": false,
      "status": "enabled",
      "label1": "FPA zone change",
      "label2": "Changement de zone FPA",
      "label3": "Cambio de zona FPA",
      "label4": null,
      "label5": null,
      "label6": null,
      "label7": null,
      "label8": null,
      "allowFad": false,
      "allowFpaZoneChange": true,
      "allowSet": false,
      "observation": true,
      "logbook": true
    }
  ]
}