{
  "content": {
    "fr.ird.observe.entities.referential.common.Country": [
      {
        "topiaId": "fr.ird.referential.common.Country#1239832675593#0.24921769452411147",
        "topiaCreateDate": "2009-04-15T00:00:00.014Z",
        "lastUpdateDate": "2018-06-15T15:25:35.659Z",
        "code": "22",
        "needComment": false,
        "status": "enabled",
        "label1": "Maurice",
        "label2": "Mauritius",
        "label3": "Mauricio",
        "iso2Code": "MU",
        "iso3Code": "MUS"
      },
      {
        "topiaId": "fr.ird.referential.common.Country#1239832675583#0.9493110781716075",
        "topiaCreateDate": "2009-04-15T00:00:00.000Z",
        "lastUpdateDate": "2016-12-06T15:54:27.727Z",
        "code": "1",
        "needComment": false,
        "status": "enabled",
        "label1": "France",
        "label2": "France",
        "label3": "Francia",
        "iso2Code": "FR",
        "iso3Code": "FRA"
      }
    ],
    "fr.ird.observe.entities.referential.common.DataQuality": [
      {
        "topiaId": "fr.ird.referential.common.DataQuality#0#1",
        "topiaCreateDate": "2018-12-07T00:00:00.000Z",
        "lastUpdateDate": "2018-12-07T12:37:28.868Z",
        "code": "A",
        "needComment": false,
        "status": "enabled",
        "label1": "Very good",
        "label2": "Très bonne",
        "label3": "Très bonne TODO"
      },
      {
        "topiaId": "fr.ird.referential.common.DataQuality#0#2",
        "topiaCreateDate": "2018-12-07T00:00:00.000Z",
        "lastUpdateDate": "2018-12-07T12:37:28.868Z",
        "code": "B",
        "needComment": false,
        "status": "enabled",
        "label1": "Medium",
        "label2": "Moyenne",
        "label3": "Moyenne TODO"
      }
    ],
    "fr.ird.observe.entities.referential.common.FpaZone": [
      {
        "topiaId": "fr.ird.referential.common.FpaZone#1239832686122#0.1",
        "topiaCreateDate": "2015-01-07T00:00:00.000Z",
        "lastUpdateDate": "2016-12-06T15:54:27.727Z",
        "code": "AGO",
        "needComment": false,
        "status": "enabled",
        "label1": "Angola",
        "label2": "Angola",
        "label3": "Angola"
      },
      {
        "topiaId": "fr.ird.referential.common.FpaZone#1239832686122#0.2",
        "topiaCreateDate": "2015-01-07T00:00:00.000Z",
        "lastUpdateDate": "2016-12-06T15:54:27.727Z",
        "code": "ZAF",
        "needComment": false,
        "status": "enabled",
        "label1": "Afrique du Sud",
        "label2": "Afrique du Sud",
        "label3": "Afrique du Sud"
      }
    ],
    "fr.ird.observe.entities.referential.common.Gear": [
      {
        "topiaId": "fr.ird.referential.common.Gear#1239832686125#0.19",
        "topiaCreateDate": "2015-03-28T00:00:00.000Z",
        "lastUpdateDate": "2016-12-06T15:54:27.727Z",
        "code": "1",
        "needComment": false,
        "status": "enabled",
        "label1": "AIS",
        "label2": "AIS (SIA système d'identification automatique)",
        "label3": "AIS",
        "gearCharacteristic": []
      },
      {
        "topiaId": "fr.ird.referential.common.Gear#1239832686125#0.4",
        "topiaCreateDate": "2015-03-28T00:00:00.000Z",
        "lastUpdateDate": "2016-12-06T15:54:27.727Z",
        "code": "5",
        "needComment": false,
        "status": "enabled",
        "label1": "bird radar",
        "label2": "Radar oiseaux",
        "label3": "radar para pájaros",
        "gearCharacteristic": [
          "fr.ird.referential.common.GearCharacteristic#1239832686124#0.1"
        ]
      }
    ],
    "fr.ird.observe.entities.referential.common.GearCharacteristic": [
      {
        "topiaId": "fr.ird.referential.common.GearCharacteristic#1239832686124#0.11",
        "topiaCreateDate": "2015-03-28T00:00:00.000Z",
        "lastUpdateDate": "2016-12-06T15:54:27.727Z",
        "code": "1",
        "needComment": false,
        "status": "enabled",
        "label1": "sack mesh size",
        "label2": "Maille de poche",
        "label3": "malla del saco",
        "unit": "mm",
        "gearCharacteristicType": "fr.ird.referential.common.GearCharacteristicType#1239832686123#0.5"
      },
      {
        "topiaId": "fr.ird.referential.common.GearCharacteristic#1239832686124#0.12",
        "topiaCreateDate": "2015-03-28T00:00:00.000Z",
        "lastUpdateDate": "2016-12-06T15:54:27.727Z",
        "code": "2",
        "needComment": false,
        "status": "enabled",
        "label1": "other mesh size",
        "label2": "Autre taille de maille",
        "label3": "otro tamaño de malla",
        "unit": "mm",
        "gearCharacteristicType": "fr.ird.referential.common.GearCharacteristicType#1239832686123#0.5"
      }
    ],
    "fr.ird.observe.entities.referential.common.GearCharacteristicType": [
      {
        "topiaId": "fr.ird.referential.common.GearCharacteristicType#1239832686123#0.2",
        "topiaCreateDate": "2015-03-28T00:00:00.000Z",
        "lastUpdateDate": "2016-12-06T15:54:27.727Z",
        "code": "BOL",
        "needComment": false,
        "status": "enabled",
        "label1": "Boolean",
        "label2": "Boolean",
        "label3": "Booleano"
      },
      {
        "topiaId": "fr.ird.referential.common.GearCharacteristicType#1239832686123#0.1",
        "topiaCreateDate": "2015-03-28T00:00:00.000Z",
        "lastUpdateDate": "2016-12-06T15:54:27.727Z",
        "code": "TXT",
        "needComment": false,
        "status": "enabled",
        "label1": "Text",
        "label2": "Texte",
        "label3": "Texto"
      }
    ],
    "fr.ird.observe.entities.referential.common.Harbour": [
      {
        "topiaId": "fr.ird.referential.common.Harbour#11#0.1",
        "topiaCreateDate": "2015-01-07T00:00:00.000Z",
        "lastUpdateDate": "2016-12-06T15:54:27.727Z",
        "code": "2",
        "needComment": false,
        "status": "enabled",
        "label1": "ABIDJAN",
        "label2": "ABIDJAN",
        "label3": "ABIDJAN",
        "country": "fr.ird.referential.common.Country#1239832675584#0.7208429105932204",
        "locode": "CIABJ",
        "latitude": 5.15,
        "longitude": -4.0
      },
      {
        "topiaId": "fr.ird.referential.common.Harbour#11#0.2",
        "topiaCreateDate": "2015-01-07T00:00:00.000Z",
        "lastUpdateDate": "2016-12-06T15:54:27.727Z",
        "code": "3",
        "needComment": false,
        "status": "enabled",
        "label1": "DAKAR",
        "label2": "DAKAR",
        "label3": "DAKAR",
        "country": "fr.ird.referential.common.Country#1239832675584#0.10128636927717882",
        "locode": "SNDKR",
        "latitude": 14.41,
        "longitude": -17.26
      }
    ],
    "fr.ird.observe.entities.referential.common.LengthLengthParameter": [
      {
        "topiaId": "fr.ird.referential.common.LengthLengthParameter#1464000000000#0",
        "topiaCreateDate": "2021-09-17T00:00:00.000Z",
        "lastUpdateDate": "2021-09-17T00:00:00.000Z",
        "code": "0",
        "needComment": false,
        "status": "enabled",
        "ocean": "fr.ird.referential.common.Ocean#1239832686152#0.8325731048817705",
        "species": "fr.ird.referential.common.Species#1433499260045#0.0712781408801675",
        "sex": "fr.ird.referential.common.Sex#1239832686121#0.0",
        "inputSizeMeasureType": "fr.ird.referential.common.SizeMeasureType#1433499466532#0.844473292818293",
        "outputSizeMeasureType": "fr.ird.referential.common.SizeMeasureType#1433499466532#0.844473292818293",
        "startDate": "1970-01-01T00:00:00.000Z",
        "coefficients": "a=2",
        "inputOutputFormula": "a * I",
        "outputInputFormula": "O / a"
      }
    ],
    "fr.ird.observe.entities.referential.common.SizeMeasureMethod": [
      {
        "topiaId": "fr.ird.referential.common.SizeMeasureMethod#666#01",
        "topiaCreateDate": "2020-10-01T00:00:00.000Z",
        "lastUpdateDate": "2021-09-17T00:00:00.000Z",
        "code": "1",
        "needComment": false,
        "status": "enabled",
        "label1": "Caliper",
        "label2": "Pied à coulisse",
        "label3": "Pied à coulisse #TODO"
      },
      {
        "topiaId": "fr.ird.referential.common.SizeMeasureMethod#666#02",
        "topiaCreateDate": "2020-10-01T00:00:00.000Z",
        "lastUpdateDate": "2021-09-17T00:00:00.000Z",
        "code": "2",
        "needComment": false,
        "status": "enabled",
        "label1": "Ruler",
        "label2": "Règle",
        "label3": "Règle #TODO"
      }
    ],
    "fr.ird.observe.entities.referential.common.LengthWeightParameter": [
      {
        "topiaId": "fr.ird.referential.common.LengthWeightParameter#201008191245#0.63",
        "topiaCreateDate": "2010-08-19T00:00:00.063Z",
        "lastUpdateDate": "2016-12-06T15:54:27.727Z",
        "code": "0",
        "needComment": false,
        "status": "enabled",
        "ocean": "fr.ird.referential.common.Ocean#1239832686152#0.8325731048817705",
        "species": "fr.ird.referential.common.Species#1433499260045#0.0712781408801675",
        "sex": "fr.ird.referential.common.Sex#1239832686121#0.0",
        "sizeMeasureType": "fr.ird.referential.common.SizeMeasureType#1433499466532#0.844473292818293",
        "startDate": "1970-01-01T00:00:00.000Z",
        "coefficients": "a=1.42E-6:b=3.3",
        "lengthWeightFormula": "a * Math.pow(L, b)",
        "weightLengthFormula": "Math.pow(P/a, 1/b)"
      },
      {
        "topiaId": "fr.ird.referential.common.LengthWeightParameter#201008191245#0.62",
        "topiaCreateDate": "2010-08-19T00:00:00.062Z",
        "lastUpdateDate": "2016-12-06T15:54:27.727Z",
        "code": "0",
        "needComment": false,
        "status": "enabled",
        "ocean": "fr.ird.referential.common.Ocean#1239832686151#0.17595105505051245",
        "species": "fr.ird.referential.common.Species#1433499260045#0.0712781408801675",
        "sex": "fr.ird.referential.common.Sex#1239832686121#0.0",
        "sizeMeasureType": "fr.ird.referential.common.SizeMeasureType#1433499466532#0.844473292818293",
        "startDate": "1970-01-01T00:00:00.000Z",
        "coefficients": "a=1.42E-6:b=3.3",
        "lengthWeightFormula": "a * Math.pow(L, b)",
        "weightLengthFormula": "Math.pow(P/a, 1/b)",
        "meanWeight": 32.6
      }
    ],
    "fr.ird.observe.entities.referential.common.Ocean": [
      {
        "topiaId": "fr.ird.referential.common.Ocean#1239832686151#0.17595105505051245",
        "topiaCreateDate": "2009-04-15T00:00:00.000Z",
        "lastUpdateDate": "2017-02-20T16:02:52.045Z",
        "code": "1",
        "needComment": false,
        "status": "enabled",
        "label1": "Atlantic",
        "label2": "Atlantique",
        "label3": "Atlántico"
      },
      {
        "topiaId": "fr.ird.referential.common.Ocean#1239832686152#0.8325731048817705",
        "topiaCreateDate": "2009-04-15T00:00:00.001Z",
        "lastUpdateDate": "2017-02-20T16:03:13.780Z",
        "code": "2",
        "needComment": false,
        "status": "enabled",
        "label1": "Indian",
        "label2": "Indien",
        "label3": "Índico"
      }
    ],
    "fr.ird.observe.entities.referential.common.Organism": [
      {
        "topiaId": "fr.ird.referential.common.Organism#1267835067241#0.6705236825871838",
        "topiaCreateDate": "2010-02-13T00:00:00.000Z",
        "lastUpdateDate": "2016-12-06T15:54:27.727Z",
        "code": "1",
        "needComment": false,
        "status": "enabled",
        "label1": "IRD",
        "label2": "IRD",
        "label3": "IRD",
        "country": "fr.ird.referential.common.Country#1239832675583#0.9493110781716075"
      },
      {
        "topiaId": "fr.ird.referential.common.Organism#1267835067241#0.14910700446959457",
        "topiaCreateDate": "2010-02-13T00:00:00.001Z",
        "lastUpdateDate": "2016-12-06T15:54:27.727Z",
        "code": "2",
        "needComment": false,
        "status": "enabled",
        "label1": "IEO",
        "label2": "IEO",
        "label3": "IEO",
        "country": "fr.ird.referential.common.Country#1239832675584#0.0783072255559325"
      }
    ],
    "fr.ird.observe.entities.referential.common.Person": [
      {
        "topiaId": "fr.ird.referential.common.Person#1576086329895#0.45159021904470087",
        "topiaCreateDate": "2019-12-11T18:45:03.086Z",
        "lastUpdateDate": "2019-12-11T18:45:29.894Z",
        "needComment": false,
        "status": "enabled",
        "lastName": "Le Merdy",
        "firstName": "Abel",
        "observer": true,
        "captain": false,
        "dataEntryOperator": true,
        "dataSource": false,
        "psSampler": false,
        "country": "fr.ird.referential.common.Country#1239832675583#0.9493110781716075"
      },
      {
        "topiaId": "fr.ird.referential.common.Person#1576086407596#0.881061737801715",
        "topiaCreateDate": "2019-12-11T18:46:24.468Z",
        "lastUpdateDate": "2019-12-11T18:46:47.596Z",
        "needComment": false,
        "status": "enabled",
        "lastName": "Lelaidier",
        "firstName": "Arnaud",
        "observer": true,
        "captain": false,
        "dataEntryOperator": true,
        "dataSource": false,
        "psSampler": false,
        "country": "fr.ird.referential.common.Country#1239832675583#0.9493110781716075"
      }
    ],
    "fr.ird.observe.entities.referential.common.Program": [
      {
        "topiaId": "fr.ird.referential.common.Program#1239832686262#0.3362184368606246",
        "topiaCreateDate": "2009-04-15T00:00:00.002Z",
        "lastUpdateDate": "2021-09-17T00:00:00.000Z",
        "code": "2",
        "needComment": false,
        "status": "disabled",
        "label1": "Patudo (IRD)",
        "label2": "Patudo (IRD)",
        "label3": "Patudo (IRD)",
        "organism": "fr.ird.referential.common.Organism#1267835067241#0.6705236825871838",
        "gearType": "seine",
        "observation": true,
        "logbook": false
      },
      {
        "topiaId": "fr.ird.referential.common.Program#1239832686262#0.714540816186228",
        "topiaCreateDate": "2009-04-15T00:00:00.003Z",
        "lastUpdateDate": "2021-09-17T00:00:00.000Z",
        "code": "4",
        "needComment": false,
        "status": "enabled",
        "label1": "SFA",
        "label2": "SFA",
        "label3": "SFA",
        "organism": "fr.ird.referential.common.Organism#1267835067241#0.06632537553306939",
        "gearType": "seine",
        "observation": true,
        "logbook": false
      }
    ],
    "fr.ird.observe.entities.referential.common.Sex": [
      {
        "topiaId": "fr.ird.referential.common.Sex#1239832686121#0.0",
        "topiaCreateDate": "2014-07-01T00:00:00.000Z",
        "lastUpdateDate": "2016-12-06T15:54:27.727Z",
        "code": "0",
        "needComment": false,
        "status": "enabled",
        "label1": "Undetermined",
        "label2": "Indéterminé",
        "label3": "Undetermined"
      },
      {
        "topiaId": "fr.ird.referential.common.Sex#1239832686122#0.2",
        "topiaCreateDate": "2014-07-01T00:00:00.000Z",
        "lastUpdateDate": "2016-12-06T15:54:27.727Z",
        "code": "1",
        "needComment": false,
        "status": "enabled",
        "label1": "Male",
        "label2": "Male",
        "label3": "Macho"
      }
    ],
    "fr.ird.observe.entities.referential.common.ShipOwner": [
      {
        "topiaId": "fr.ird.referential.common.ShipOwner#0#0",
        "topiaCreateDate": "2018-12-07T00:00:00.000Z",
        "lastUpdateDate": "2018-12-07T12:34:55.706Z",
        "code": "1",
        "needComment": false,
        "status": "enabled",
        "label": "SAUPIQUET",
        "country": "fr.ird.referential.common.Country#1239832675583#0.9493110781716075"
      },
      {
        "topiaId": "fr.ird.referential.common.ShipOwner#0#1",
        "topiaCreateDate": "2018-12-07T00:00:00.000Z",
        "lastUpdateDate": "2018-12-07T12:34:55.706Z",
        "code": "2",
        "needComment": false,
        "status": "enabled",
        "label": "SAPMER",
        "country": "fr.ird.referential.common.Country#1239832675583#0.9493110781716075"
      }
    ],
    "fr.ird.observe.entities.referential.common.SizeMeasureType": [
      {
        "topiaId": "fr.ird.referential.common.SizeMeasureType#1433499465700#0.0902433863375336",
        "topiaCreateDate": "2015-06-05T00:00:00.000Z",
        "lastUpdateDate": "2016-12-06T15:54:27.727Z",
        "code": "FL",
        "needComment": false,
        "status": "enabled",
        "label1": "Fork Length",
        "label2": "Fork Length",
        "label3": "Fork Length"
      },
      {
        "topiaId": "fr.ird.referential.common.SizeMeasureType#1433499465999#0.707568018231541",
        "topiaCreateDate": "2015-06-05T00:00:00.000Z",
        "lastUpdateDate": "2016-12-06T15:54:27.727Z",
        "code": "CFL",
        "needComment": false,
        "status": "enabled",
        "label1": "Curved Fork Length",
        "label2": "Curved Fork Length",
        "label3": "Curved Fork Length"
      }
    ],
    "fr.ird.observe.entities.referential.common.Species": [
      {
        "topiaId": "fr.ird.referential.common.Species#1551868196804#0.09929351272816189",
        "topiaCreateDate": "2019-03-06T11:23:55.155Z",
        "lastUpdateDate": "2020-10-01T00:00:00.000Z",
        "homeId": "DYL",
        "needComment": false,
        "status": "enabled",
        "label1": "Flying gunnard",
        "label2": "Grondin volant",
        "label3": "Alon volador",
        "speciesGroup": "fr.ird.referential.common.SpeciesGroup#1239832683689#0.12092280503502995",
        "ocean": [
          "fr.ird.referential.common.Ocean#1239832686151#0.17595105505051245"
        ],
        "faoCode": "DYL",
        "scientificLabel": "Dactylopterus volitans",
        "minLength": 5.0,
        "maxLength": 50.0,
        "minWeight": 0.0,
        "maxWeight": 2.0,
        "sizeMeasureType": "fr.ird.referential.common.SizeMeasureType#1433499466532#0.844473292818293",
        "weightMeasureType": "fr.ird.referential.common.WeightMeasureType#1239832686139#0.2"
      },
      {
        "topiaId": "fr.ird.referential.common.Species#1572515589438#0.6154029293302359",
        "topiaCreateDate": "2019-10-31T10:48:17.015Z",
        "lastUpdateDate": "2020-10-01T00:00:00.000Z",
        "homeId": "LXR",
        "needComment": false,
        "status": "enabled",
        "label1": "Orbicular batfish",
        "label2": "Poule d'eau",
        "label3": "Dalapugán",
        "speciesGroup": "fr.ird.referential.common.SpeciesGroup#1239832683689#0.12092280503502995",
        "ocean": [
          "fr.ird.referential.common.Ocean#1239832686152#0.8325731048817705"
        ],
        "faoCode": "LXR",
        "scientificLabel": "Platax orbicularis",
        "minLength": 4.0,
        "maxLength": 60.0,
        "minWeight": 0.01,
        "maxWeight": 9.0,
        "sizeMeasureType": "fr.ird.referential.common.SizeMeasureType#1433499466532#0.844473292818293",
        "weightMeasureType": "fr.ird.referential.common.WeightMeasureType#1239832686139#0.2"
      }
    ],
    "fr.ird.observe.entities.referential.common.SpeciesGroup": [
      {
        "topiaId": "fr.ird.referential.common.SpeciesGroup#1239832683689#0.17327457618202002",
        "topiaCreateDate": "2009-04-15T00:00:00.000Z",
        "lastUpdateDate": "2016-12-06T15:54:27.727Z",
        "code": "1",
        "needComment": false,
        "status": "enabled",
        "label1": "Billfishes",
        "label2": "Poissons porte épée",
        "label3": "Marlines",
        "speciesGroupReleaseMode": []
      },
      {
        "topiaId": "fr.ird.referential.common.SpeciesGroup#1239832683690#0.24333033683679461",
        "topiaCreateDate": "2009-04-15T00:00:00.003Z",
        "lastUpdateDate": "2016-12-06T15:54:27.727Z",
        "code": "4",
        "needComment": false,
        "status": "enabled",
        "label1": "Turtles",
        "label2": "Tortues",
        "label3": "Tortugas",
        "speciesGroupReleaseMode": [
          "fr.ird.referential.common.SpeciesGroupReleaseMode#0#10",
          "fr.ird.referential.common.SpeciesGroupReleaseMode#0#4"
        ]
      }
    ],
    "fr.ird.observe.entities.referential.common.SpeciesGroupReleaseMode": [
      {
        "topiaId": "fr.ird.referential.common.SpeciesGroupReleaseMode#0#1",
        "topiaCreateDate": "2018-12-07T00:00:00.000Z",
        "lastUpdateDate": "2021-09-17T00:00:00.000Z",
        "code": "1",
        "needComment": false,
        "status": "enabled",
        "label1": "par salabarde TODO",
        "label2": "par salabarde",
        "label3": "par salabarde TODO"
      },
      {
        "topiaId": "fr.ird.referential.common.SpeciesGroupReleaseMode#0#2",
        "topiaCreateDate": "2018-12-07T00:00:00.000Z",
        "lastUpdateDate": "2021-09-17T00:00:00.000Z",
        "code": "2",
        "needComment": false,
        "status": "enabled",
        "label1": "par civière, bâche, sarria, filet de cargo TODO",
        "label2": "par civière, bâche, sarria, filet de cargo",
        "label3": "par civière, bâche, sarria, filet de cargo TODO"
      }
    ],
    "fr.ird.observe.entities.referential.common.SpeciesList": [
      {
        "topiaId": "fr.ird.referential.common.SpeciesList#1239832675370#0.2",
        "topiaCreateDate": "2014-06-23T00:00:00.000Z",
        "lastUpdateDate": "2019-11-12T11:11:34.433Z",
        "code": "1",
        "needComment": false,
        "status": "enabled",
        "label1": "PS - Non target species",
        "label2": "PS - Faune associée (espèces non ciblée)",
        "label3": "PS - Non target species",
        "species": [
          "fr.ird.referential.common.Species#1239832683725#0.39445809291491807",
          "fr.ird.referential.common.Species#1239832683731#0.3892121873590658"
        ]
      },
      {
        "topiaId": "fr.ird.referential.common.SpeciesList#1239832675370#0.4",
        "topiaCreateDate": "2014-06-23T00:00:00.000Z",
        "lastUpdateDate": "2016-12-06T15:54:27.727Z",
        "code": "3",
        "needComment": false,
        "status": "enabled",
        "label1": "LL - Species for encounters",
        "label2": "LL - Espèces des rencontres",
        "label3": "LL - Species for encounters",
        "species": [
          "fr.ird.referential.common.Species#1239832683991#0.18251172983518738",
          "fr.ird.referential.common.Species#1239832684940#0.3941475292396889"
        ]
      }
    ],
    "fr.ird.observe.entities.referential.common.Vessel": [
      {
        "topiaId": "fr.ird.referential.common.Vessel#1239832676660#0.38397681020258445",
        "topiaCreateDate": "2009-04-15T00:00:00.008Z",
        "lastUpdateDate": "2016-12-06T15:54:27.727Z",
        "code": "25",
        "needComment": false,
        "status": "disabled",
        "label1": "BENIGUET",
        "label2": "BENIGUET",
        "label3": "BENIGUET",
        "vesselSizeCategory": "fr.ird.referential.common.VesselSizeCategory#1239832675540#0.8706856200939851",
        "vesselType": "fr.ird.referential.common.VesselType#1239832675734#0.4191950326431938",
        "flagCountry": "fr.ird.referential.common.Country#1239832675583#0.9493110781716075",
        "keelCode": 25.0,
        "fleetCountry": "fr.ird.referential.common.Country#1239832675583#0.9493110781716075",
        "yearService": 1958.0,
        "length": 24.75,
        "capacity": 110.0,
        "powerCv": 330.0,
        "comment": "Arrete fin 73"
      },
      {
        "topiaId": "fr.ird.referential.common.Vessel#1239832676671#0.47871457917337956",
        "topiaCreateDate": "2009-04-15T00:00:00.009Z",
        "lastUpdateDate": "2016-12-06T15:54:27.727Z",
        "code": "26",
        "needComment": false,
        "status": "disabled",
        "label1": "CHEVALIER BAYARD",
        "label2": "CHEVALIER BAYARD",
        "label3": "CHEVALIER BAYARD",
        "vesselSizeCategory": "fr.ird.referential.common.VesselSizeCategory#1239832675540#0.8706856200939851",
        "vesselType": "fr.ird.referential.common.VesselType#1239832675734#0.4191950326431938",
        "flagCountry": "fr.ird.referential.common.Country#1239832675583#0.9493110781716075",
        "keelCode": 26.0,
        "fleetCountry": "fr.ird.referential.common.Country#1239832675583#0.9493110781716075",
        "yearService": 1958.0,
        "length": 28.8,
        "nationalId": "CC194597"
      }
    ],
    "fr.ird.observe.entities.referential.common.VesselSizeCategory": [
      {
        "topiaId": "fr.ird.referential.common.VesselSizeCategory#1239832675543#0.4203494866534334",
        "topiaCreateDate": "2009-04-15T00:00:00.009Z",
        "lastUpdateDate": "2016-12-06T15:54:27.727Z",
        "code": "10",
        "needComment": false,
        "status": "disabled",
        "capacityLabel": "1601 - 1800 tonnes",
        "gaugeLabel": " + 2300 TX"
      },
      {
        "topiaId": "fr.ird.referential.common.VesselSizeCategory#1239832675544#0.22787925329212033",
        "topiaCreateDate": "2009-04-15T00:00:00.010Z",
        "lastUpdateDate": "2016-12-06T15:54:27.727Z",
        "code": "11",
        "needComment": false,
        "status": "disabled",
        "capacityLabel": "1801 - 2000 tonnes",
        "gaugeLabel": " + 2300 TX"
      }
    ],
    "fr.ird.observe.entities.referential.common.VesselType": [
      {
        "topiaId": "fr.ird.referential.common.VesselType#1239832675734#0.24685054061673772",
        "topiaCreateDate": "2009-04-15T00:00:00.000Z",
        "lastUpdateDate": "2016-12-06T15:54:27.727Z",
        "code": "1",
        "needComment": false,
        "status": "disabled",
        "label1": "Canne / glacier",
        "label2": "Canne / glacier",
        "label3": "Canne / glacier"
      },
      {
        "topiaId": "fr.ird.referential.common.VesselType#1239832675737#0.43324169605639407",
        "topiaCreateDate": "2009-04-15T00:00:00.009Z",
        "lastUpdateDate": "2016-12-06T15:54:27.727Z",
        "code": "10",
        "needComment": false,
        "status": "enabled",
        "label1": "Bateau d'assistance",
        "label2": "Supply",
        "label3": "Bateau d'assistance"
      }
    ],
    "fr.ird.observe.entities.referential.common.WeightMeasureMethod": [
      {
        "topiaId": "fr.ird.referential.common.WeightMeasureMethod#666#01",
        "topiaCreateDate": "2020-10-01T00:00:00.000Z",
        "lastUpdateDate": "2021-09-17T00:00:00.000Z",
        "code": "1",
        "needComment": false,
        "status": "enabled",
        "label1": "Hanging scale",
        "label2": "Peson",
        "label3": "Dinamómetro"
      },
      {
        "topiaId": "fr.ird.referential.common.WeightMeasureMethod#666#02",
        "topiaCreateDate": "2020-10-01T00:00:00.000Z",
        "lastUpdateDate": "2021-09-17T00:00:00.000Z",
        "code": "2",
        "needComment": false,
        "status": "enabled",
        "label1": "Weighting Scale",
        "label2": "Balance",
        "label3": "Balanza"
      }
    ],
    "fr.ird.observe.entities.referential.common.WeightMeasureType": [
      {
        "topiaId": "fr.ird.referential.common.WeightMeasureType#12398326861390.1",
        "topiaCreateDate": "2014-07-26T00:00:00.000Z",
        "lastUpdateDate": "2016-12-06T15:54:27.727Z",
        "code": "VDK",
        "needComment": false,
        "status": "enabled",
        "label1": "Gutted and beheaded",
        "label2": "Vidé et décapité",
        "label3": "Gutted and beheaded"
      },
      {
        "topiaId": "fr.ird.referential.common.WeightMeasureType#1239832686139#0.2",
        "topiaCreateDate": "2014-07-26T00:00:00.000Z",
        "lastUpdateDate": "2016-12-06T15:54:27.727Z",
        "code": "ENT",
        "needComment": false,
        "status": "enabled",
        "label1": "Whole fish",
        "label2": "Entier",
        "label3": "Whole fish"
      }
    ],
    "fr.ird.observe.entities.referential.common.Wind": [
      {
        "topiaId": "fr.ird.referential.common.Wind#1239832686604#0.6861700847985526",
        "topiaCreateDate": "2009-04-15T00:00:00.000Z",
        "lastUpdateDate": "2016-12-06T15:54:27.727Z",
        "code": "0",
        "needComment": false,
        "status": "enabled",
        "label1": "Calm",
        "label2": "Calme (Calme)",
        "label3": "Calma (Despejado)",
        "maxSpeed": 1.0,
        "minSwellHeight": 0.0,
        "maxSwellHeight": 0.0
      },
      {
        "topiaId": "fr.ird.referential.common.Wind#1239832686605#0.013889226172736802",
        "topiaCreateDate": "2009-04-15T00:00:00.001Z",
        "lastUpdateDate": "2016-12-06T15:54:27.727Z",
        "code": "1",
        "needComment": false,
        "status": "enabled",
        "label1": "Light air",
        "label2": "Très légère brise (Calme, ridée)",
        "label3": "Ventolina (Pequeñas olas, pero sin espuma)",
        "minSpeed": 1.0,
        "maxSpeed": 3.0,
        "minSwellHeight": 0.0,
        "maxSwellHeight": 0.1
      }
    ]
  }
}