{
  "path": "fr.ird.observe.navigation.tree.navigation.referential.ll.landing.ConservationNavigationTreeNode:fr.ird.referential.ll.landing.Conservation#666#01",
  "content": [
    {
      "topiaId": "fr.ird.referential.ll.landing.Conservation#666#01",
      "topiaCreateDate": "2020-10-01T00:00:00.000Z",
      "lastUpdateDate": "2020-10-01T00:00:00.000Z",
      "code": "FRESH",
      "uri": null,
      "homeId": null,
      "needComment": false,
      "status": "enabled",
      "label1": "Fresh",
      "label2": "Frais",
      "label3": "Frais #TODO",
      "label4": null,
      "label5": null,
      "label6": null,
      "label7": null,
      "label8": null
    }
  ]
}