{
  "path": "fr.ird.observe.tree.navigation.referential.ll.common.BaitSettingStatusNavigationTreeNode",
  "content": [
    {
      "topiaId": "fr.ird.referential.ll.common.BaitSettingStatus#1239832686123#0.1",
      "topiaCreateDate": "2014-07-26T00:00:00.000Z",
      "lastUpdateDate": "2016-12-06T15:54:27.727Z",
      "code": "FRO",
      "needComment": false,
      "status": "enabled",
      "label1": "Frozen",
      "label2": "Congelé",
      "label3": "Frozen"
    },
    {
      "topiaId": "fr.ird.referential.ll.common.BaitSettingStatus#1239832686123#0.2",
      "topiaCreateDate": "2014-07-26T00:00:00.000Z",
      "lastUpdateDate": "2016-12-06T15:54:27.727Z",
      "code": "DEF",
      "needComment": false,
      "status": "enabled",
      "label1": "Defrosted",
      "label2": "Décongelé",
      "label3": "Defrosted"
    }
  ]
}