{
  "content": {
    "fr.ird.observe.entities.referential.ps.common.AcquisitionStatus": [
      {
        "topiaId": "fr.ird.referential.ps.common.AcquisitionStatus#1464000000000#001",
        "topiaCreateDate": "2021-09-17T00:00:00.000Z",
        "lastUpdateDate": "2021-09-17T00:00:00.000Z",
        "code": "1",
        "uri": null,
        "homeId": null,
        "needComment": false,
        "status": "enabled",
        "label1": "Done",
        "label2": "Réalisé",
        "label3": "Done TODO",
        "label4": null,
        "label5": null,
        "label6": null,
        "label7": null,
        "label8": null,
        "observation": true,
        "logbook": true,
        "landing": true,
        "targetWellsSampling": true,
        "localMarket": true,
        "localMarketWellsSampling": true,
        "localMarketSurveySampling": true,
        "advancedSampling": true,
        "fieldEnabler": true
      },
      {
        "topiaId": "fr.ird.referential.ps.common.AcquisitionStatus#1464000000000#002",
        "topiaCreateDate": "2021-09-17T00:00:00.000Z",
        "lastUpdateDate": "2021-09-17T00:00:00.000Z",
        "code": "2",
        "uri": null,
        "homeId": null,
        "needComment": false,
        "status": "enabled",
        "label1": "Not done, insufficient loading (<100t)",
        "label2": "Non réalisé, chargement insuffisant (<100t)",
        "label3": "Not done, insufficient loading (<100t) TODO",
        "label4": null,
        "label5": null,
        "label6": null,
        "label7": null,
        "label8": null,
        "observation": false,
        "logbook": false,
        "landing": false,
        "targetWellsSampling": true,
        "localMarket": false,
        "localMarketWellsSampling": false,
        "localMarketSurveySampling": false,
        "advancedSampling": false,
        "fieldEnabler": false
      }
    ],
    "fr.ird.observe.entities.referential.ps.common.ObjectMaterial": [
      {
        "topiaId": "fr.ird.referential.ps.common.ObjectMaterial#0#1.3",
        "topiaCreateDate": "2018-11-12T00:00:00.000Z",
        "lastUpdateDate": "2021-09-17T00:00:00.000Z",
        "code": "",
        "uri": null,
        "homeId": null,
        "needComment": false,
        "status": "enabled",
        "label1": "FOB",
        "label2": "FOB",
        "label3": "FOB",
        "label4": null,
        "label5": null,
        "label6": null,
        "label7": null,
        "label8": null,
        "legacyCode": null,
        "standardCode": "FOB",
        "biodegradable": false,
        "nonEntangling": false,
        "childrenMultiSelectable": true,
        "childSelectionMandatory": true,
        "parent": null,
        "objectMaterialType": "fr.ird.referential.ps.common.ObjectMaterialType#0#0",
        "validation": null
      },
      {
        "topiaId": "fr.ird.referential.ps.common.ObjectMaterial#0#0.1",
        "topiaCreateDate": "2018-11-12T00:00:00.000Z",
        "lastUpdateDate": "2020-10-01T00:00:00.000Z",
        "code": "1",
        "uri": null,
        "homeId": null,
        "needComment": false,
        "status": "enabled",
        "label1": "FAD",
        "label2": "FAD",
        "label3": "FAD",
        "label4": null,
        "label5": null,
        "label6": null,
        "label7": null,
        "label8": null,
        "legacyCode": null,
        "standardCode": "FAD",
        "biodegradable": null,
        "nonEntangling": null,
        "childrenMultiSelectable": false,
        "childSelectionMandatory": false,
        "parent": "fr.ird.referential.ps.common.ObjectMaterial#0#1.3",
        "objectMaterialType": null,
        "validation": null
      }
    ],
    "fr.ird.observe.entities.referential.ps.common.ObjectMaterialType": [
      {
        "topiaId": "fr.ird.referential.ps.common.ObjectMaterialType#0#0",
        "topiaCreateDate": "2018-12-07T00:00:00.000Z",
        "lastUpdateDate": "2018-12-07T12:36:58.706Z",
        "code": "1",
        "uri": null,
        "homeId": null,
        "needComment": false,
        "status": "enabled",
        "label1": "Boolean",
        "label2": "Boolean",
        "label3": "Boolean TODO",
        "label4": null,
        "label5": null,
        "label6": null,
        "label7": null,
        "label8": null
      },
      {
        "topiaId": "fr.ird.referential.ps.common.ObjectMaterialType#0#1",
        "topiaCreateDate": "2018-12-07T00:00:00.000Z",
        "lastUpdateDate": "2018-12-07T12:36:58.706Z",
        "code": "2",
        "uri": null,
        "homeId": null,
        "needComment": false,
        "status": "enabled",
        "label1": "Decimal one digit",
        "label2": "Nombre décimal (précision une déciamle)",
        "label3": "Nombre décimal (précision une déciamle) TODO",
        "label4": null,
        "label5": null,
        "label6": null,
        "label7": null,
        "label8": null
      }
    ],
    "fr.ird.observe.entities.referential.ps.common.ObjectOperation": [
      {
        "topiaId": "fr.ird.referential.ps.common.ObjectOperation#0#1",
        "topiaCreateDate": "2018-12-07T00:00:00.000Z",
        "lastUpdateDate": "2018-12-07T12:36:58.706Z",
        "code": "1",
        "uri": null,
        "homeId": null,
        "needComment": false,
        "status": "enabled",
        "label1": "Deployment",
        "label2": "Mise à l'eau",
        "label3": "Mise à l'eau TODO",
        "label4": null,
        "label5": null,
        "label6": null,
        "label7": null,
        "label8": null,
        "whenArriving": false,
        "whenLeaving": true
      },
      {
        "topiaId": "fr.ird.referential.ps.common.ObjectOperation#0#10",
        "topiaCreateDate": "2018-12-07T00:00:00.000Z",
        "lastUpdateDate": "2018-12-07T12:36:58.706Z",
        "code": "10",
        "uri": null,
        "homeId": null,
        "needComment": true,
        "status": "enabled",
        "label1": "Other (to be precised)",
        "label2": "Autre (préciser dans les notes)",
        "label3": "Autre (préciser dans les notes) TODO",
        "label4": null,
        "label5": null,
        "label6": null,
        "label7": null,
        "label8": null,
        "whenArriving": true,
        "whenLeaving": true
      }
    ],
    "fr.ird.observe.entities.referential.ps.common.ObservedSystem": [
      {
        "topiaId": "fr.ird.referential.ps.common.ObservedSystem#1239832686426#0.6606964000652922",
        "topiaCreateDate": "2009-04-15T00:00:00.002Z",
        "lastUpdateDate": "2017-11-16T16:14:49.449Z",
        "code": "0",
        "uri": null,
        "homeId": null,
        "needComment": false,
        "status": "enabled",
        "label1": "No system detected",
        "label2": "Aucun système",
        "label3": "Aucun système",
        "label4": null,
        "label5": null,
        "label6": null,
        "label7": null,
        "label8": null,
        "schoolType": "fr.ird.referential.ps.common.SchoolType#0#0",
        "observation": true,
        "logbook": true
      },
      {
        "topiaId": "fr.ird.referential.ps.common.ObservedSystem#1239832686427#0.5015912524161882",
        "topiaCreateDate": "2009-04-15T00:00:00.003Z",
        "lastUpdateDate": "2017-11-16T16:15:06.126Z",
        "code": "1",
        "uri": null,
        "homeId": null,
        "needComment": false,
        "status": "enabled",
        "label1": "Tuna school (no details given on the type of school)",
        "label2": "Matte (pas de précision sur le type de banc)",
        "label3": "Matte (pas de précision sur le type de banc)",
        "label4": null,
        "label5": null,
        "label6": null,
        "label7": null,
        "label8": null,
        "schoolType": "fr.ird.referential.ps.common.SchoolType#0#2",
        "observation": true,
        "logbook": true
      }
    ],
    "fr.ird.observe.entities.referential.ps.common.Program": [
      {
        "topiaId": "fr.ird.referential.ps.common.Program#1539251726380#0.8022101576807099",
        "topiaCreateDate": "2018-10-11T11:54:44.663Z",
        "lastUpdateDate": "2021-09-17T00:00:00.000Z",
        "code": null,
        "uri": null,
        "homeId": null,
        "needComment": false,
        "status": "enabled",
        "label1": "DCF Seine (OD)",
        "label2": "DCF Senne (OD)",
        "label3": "DCF Seine (OD)",
        "label4": null,
        "label5": null,
        "label6": null,
        "label7": null,
        "label8": null,
        "organism": "fr.ird.referential.common.Organism#1267835067241#0.6705236825871838",
        "startDate": null,
        "endDate": null,
        "comment": null,
        "observation": true,
        "logbook": false
      },
      {
        "topiaId": "fr.ird.referential.ps.common.Program#1539949992432#0.4308822110391043",
        "topiaCreateDate": "2018-10-19T13:51:57.160Z",
        "lastUpdateDate": "2021-09-17T00:00:00.000Z",
        "code": null,
        "uri": null,
        "homeId": null,
        "needComment": false,
        "status": "enabled",
        "label1": "OOE (OD)",
        "label2": "OOE (OD)",
        "label3": "OOE (OD)",
        "label4": null,
        "label5": null,
        "label6": null,
        "label7": null,
        "label8": null,
        "organism": "fr.ird.referential.common.Organism#1539251468084#0.4304283149693777",
        "startDate": "2018-10-01T00:00:00.000Z",
        "endDate": null,
        "comment": null,
        "observation": true,
        "logbook": false
      }
    ],
    "fr.ird.observe.entities.referential.ps.common.ReasonForNoFishing": [
      {
        "topiaId": "fr.ird.referential.ps.common.ReasonForNoFishing#1239832683550#0.5793978455280235",
        "topiaCreateDate": "2009-04-15T00:00:00.000Z",
        "lastUpdateDate": "2017-11-16T16:11:42.902Z",
        "code": "0",
        "uri": null,
        "homeId": null,
        "needComment": false,
        "status": "enabled",
        "label1": "Nothing to be signalled (not observed)",
        "label2": "Rien à signaler (pas d'observation)",
        "label3": "Rien à signaler (pas d'observation)",
        "label4": null,
        "label5": null,
        "label6": null,
        "label7": null,
        "label8": null
      },
      {
        "topiaId": "fr.ird.referential.ps.common.ReasonForNoFishing#1239832683551#0.9835503687831603",
        "topiaCreateDate": "2009-04-15T00:00:00.001Z",
        "lastUpdateDate": "2017-11-16T16:11:50.158Z",
        "code": "1",
        "uri": null,
        "homeId": null,
        "needComment": false,
        "status": "enabled",
        "label1": "School too small",
        "label2": "Banc trop petit",
        "label3": "Banc trop petit",
        "label4": null,
        "label5": null,
        "label6": null,
        "label7": null,
        "label8": null
      }
    ],
    "fr.ird.observe.entities.referential.ps.common.ReasonForNullSet": [
      {
        "topiaId": "fr.ird.referential.ps.common.ReasonForNullSet#1239832683529#0.10743661058036036",
        "topiaCreateDate": "2009-04-15T00:00:00.000Z",
        "lastUpdateDate": "2017-11-16T16:22:20.729Z",
        "code": "0",
        "uri": null,
        "homeId": null,
        "needComment": false,
        "status": "enabled",
        "label1": "Unknown",
        "label2": "Inconnue",
        "label3": "Inconnue",
        "label4": null,
        "label5": null,
        "label6": null,
        "label7": null,
        "label8": null
      },
      {
        "topiaId": "fr.ird.referential.ps.common.ReasonForNullSet#1239832683530#0.1763093301083687",
        "topiaCreateDate": "2009-04-15T00:00:00.001Z",
        "lastUpdateDate": "2017-11-16T16:22:28.169Z",
        "code": "1",
        "uri": null,
        "homeId": null,
        "needComment": false,
        "status": "enabled",
        "label1": "Fish school sunk",
        "label2": "Poisson ayant coulé",
        "label3": "Poisson ayant coulé",
        "label4": null,
        "label5": null,
        "label6": null,
        "label7": null,
        "label8": null
      }
    ],
    "fr.ird.observe.entities.referential.ps.common.SampleType": [
      {
        "topiaId": "fr.ird.referential.ps.common.SampleType#1464000000000#01",
        "topiaCreateDate": "2021-09-17T00:00:00.000Z",
        "lastUpdateDate": "2021-09-17T00:00:00.000Z",
        "code": "1",
        "uri": null,
        "homeId": null,
        "needComment": false,
        "status": "enabled",
        "label1": "At landing",
        "label2": "Débarquement",
        "label3": "Débarquement #TODO",
        "label4": null,
        "label5": null,
        "label6": null,
        "label7": null,
        "label8": null,
        "localMarket": true,
        "logbook": true,
        "startDate": null,
        "endDate": null
      },
      {
        "topiaId": "fr.ird.referential.ps.common.SampleType#1464000000000#11",
        "topiaCreateDate": "2021-09-17T00:00:00.000Z",
        "lastUpdateDate": "2021-09-17T00:00:00.000Z",
        "code": "11",
        "uri": null,
        "homeId": null,
        "needComment": false,
        "status": "enabled",
        "label1": "At landing - fresh fish from bait boat",
        "label2": "Débarquement en frais (canneurs)",
        "label3": "Débarquement en frais (canneurs) #TODO",
        "label4": null,
        "label5": null,
        "label6": null,
        "label7": null,
        "label8": null,
        "localMarket": true,
        "logbook": false,
        "startDate": null,
        "endDate": null
      }
    ],
    "fr.ird.observe.entities.referential.ps.common.SchoolType": [
      {
        "topiaId": "fr.ird.referential.ps.common.SchoolType#0#0",
        "topiaCreateDate": "2020-10-01T00:00:00.000Z",
        "lastUpdateDate": "2020-10-01T00:00:00.000Z",
        "code": "0",
        "uri": null,
        "homeId": null,
        "needComment": false,
        "status": "enabled",
        "label1": "Undefined school type",
        "label2": "Banc indéterminé",
        "label3": "Banco indeterminado",
        "label4": null,
        "label5": null,
        "label6": null,
        "label7": null,
        "label8": null
      },
      {
        "topiaId": "fr.ird.referential.ps.common.SchoolType#0#1",
        "topiaCreateDate": "2020-10-01T00:00:00.000Z",
        "lastUpdateDate": "2020-10-01T00:00:00.000Z",
        "code": "1",
        "uri": null,
        "homeId": null,
        "needComment": false,
        "status": "enabled",
        "label1": "Object school type",
        "label2": "Banc objet",
        "label3": "Banco a objeto",
        "label4": null,
        "label5": null,
        "label6": null,
        "label7": null,
        "label8": null
      }
    ],
    "fr.ird.observe.entities.referential.ps.common.SpeciesFate": [
      {
        "topiaId": "fr.ird.referential.ps.common.SpeciesFate#1239832683618#0.06155887805368032",
        "topiaCreateDate": "2009-04-15T00:00:00.000Z",
        "lastUpdateDate": "2023-07-20T00:00:00.000Z",
        "code": "1",
        "uri": null,
        "homeId": null,
        "needComment": false,
        "status": "enabled",
        "label1": "Echappe du filet (pour requin-baleine et cétacés)",
        "label2": "Echappe du filet (pour requin-baleine et cétacés)",
        "label3": "Echappe du filet (pour requin-baleine et cétacés)",
        "label4": null,
        "label5": null,
        "label6": null,
        "label7": null,
        "label8": null,
        "discard": true,
        "weightRangeAllowed": false,
        "observation": true,
        "logbook": false
      },
      {
        "topiaId": "fr.ird.referential.ps.common.SpeciesFate#1467372855729#0.568287924081734",
        "topiaCreateDate": "2016-07-01T13:34:15.729Z",
        "lastUpdateDate": "2023-07-20T00:00:00.000Z",
        "code": "10",
        "uri": null,
        "homeId": null,
        "needComment": false,
        "status": "enabled",
        "label1": "Fins only",
        "label2": "Ailerons seulements",
        "label3": "Sólo alerones",
        "label4": null,
        "label5": null,
        "label6": null,
        "label7": null,
        "label8": null,
        "discard": null,
        "weightRangeAllowed": false,
        "observation": true,
        "logbook": false
      }
    ],
    "fr.ird.observe.entities.referential.ps.common.TransmittingBuoyOperation": [
      {
        "topiaId": "fr.ird.referential.ps.common.TransmittingBuoyOperation#1239832686237#0.4947461794167761",
        "topiaCreateDate": "2009-04-15T00:00:00.000Z",
        "lastUpdateDate": "2021-09-17T00:00:00.000Z",
        "code": "1",
        "uri": null,
        "homeId": null,
        "needComment": false,
        "status": "enabled",
        "label1": "Visit",
        "label2": "Visite",
        "label3": "Visite",
        "label4": null,
        "label5": null,
        "label6": null,
        "label7": null,
        "label8": null
      },
      {
        "topiaId": "fr.ird.referential.ps.common.TransmittingBuoyOperation#1239832686238#0.38090479793636556",
        "topiaCreateDate": "2009-04-15T00:00:00.001Z",
        "lastUpdateDate": "2021-09-17T00:00:00.000Z",
        "code": "2",
        "uri": null,
        "homeId": null,
        "needComment": false,
        "status": "enabled",
        "label1": "Grab",
        "label2": "Récuperation",
        "label3": "Récuperation",
        "label4": null,
        "label5": null,
        "label6": null,
        "label7": null,
        "label8": null
      }
    ],
    "fr.ird.observe.entities.referential.ps.common.TransmittingBuoyOwnership": [
      {
        "topiaId": "fr.ird.referential.ps.common.TransmittingBuoyOwnership#0#0",
        "topiaCreateDate": "2020-10-01T00:00:00.000Z",
        "lastUpdateDate": "2021-09-17T00:00:00.000Z",
        "code": "0",
        "uri": null,
        "homeId": null,
        "needComment": false,
        "status": "enabled",
        "label1": "Unknown vessel",
        "label2": "À un bateau inconnu",
        "label3": "Desconocido",
        "label4": null,
        "label5": null,
        "label6": null,
        "label7": null,
        "label8": null
      },
      {
        "topiaId": "fr.ird.referential.ps.common.TransmittingBuoyOwnership#0#1",
        "topiaCreateDate": "2020-10-01T00:00:00.000Z",
        "lastUpdateDate": "2021-09-17T00:00:00.000Z",
        "code": "1",
        "uri": null,
        "homeId": null,
        "needComment": false,
        "status": "disabled",
        "label1": "This vessel or its company",
        "label2": "À ce bateau ou à son armement",
        "label3": "Este barco o un barco del mismo armador",
        "label4": null,
        "label5": null,
        "label6": null,
        "label7": null,
        "label8": null
      }
    ],
    "fr.ird.observe.entities.referential.ps.common.TransmittingBuoyType": [
      {
        "topiaId": "fr.ird.referential.ps.common.TransmittingBuoyType#1239832686500#0.12631179181869223",
        "topiaCreateDate": "2009-04-15T00:00:00.000Z",
        "lastUpdateDate": "2023-07-20T00:00:00.000Z",
        "code": "1",
        "uri": null,
        "homeId": null,
        "needComment": false,
        "status": "disabled",
        "label1": "Radio direction finder",
        "label2": "Radiogoniomètre",
        "label3": "Radiogoniomètre",
        "label4": null,
        "label5": null,
        "label6": null,
        "label7": null,
        "label8": null,
        "technology": null,
        "regex": "[0-9]{1,10}"
      },
      {
        "topiaId": "fr.ird.referential.ps.common.TransmittingBuoyType#1276006170001#0.3963411788722657",
        "topiaCreateDate": "2010-06-08T00:00:00.010Z",
        "lastUpdateDate": "2023-07-20T00:00:00.000Z",
        "code": "10",
        "uri": null,
        "homeId": null,
        "needComment": true,
        "status": "disabled",
        "label1": "Satellite with other type of echosounder (to details in comments)",
        "label2": "Satellite + échosondeur autre",
        "label3": "Satellite + échosondeur autre",
        "label4": null,
        "label5": null,
        "label6": null,
        "label7": null,
        "label8": null,
        "technology": null,
        "regex": "[0-9]{1,10}"
      }
    ],
    "fr.ird.observe.entities.referential.ps.common.VesselActivity": [
      {
        "topiaId": "fr.ird.referential.ps.common.VesselActivity#1239832675349#0.363119635949572",
        "topiaCreateDate": "2009-04-15T00:00:00.006Z",
        "lastUpdateDate": "2023-07-20T00:00:00.000Z",
        "code": "0",
        "uri": null,
        "homeId": null,
        "needComment": false,
        "status": "enabled",
        "label1": "At port",
        "label2": "Au port",
        "label3": "Au port",
        "label4": null,
        "label5": null,
        "label6": null,
        "label7": null,
        "label8": null,
        "allowFad": false,
        "allowFpaZoneChange": false,
        "allowSet": false,
        "observation": true,
        "logbook": true
      },
      {
        "topiaId": "fr.ird.referential.ps.common.VesselActivity#1239832675368#0.976590514005213",
        "topiaCreateDate": "2009-04-15T00:00:00.007Z",
        "lastUpdateDate": "2023-07-20T00:00:00.000Z",
        "code": "1",
        "uri": null,
        "homeId": null,
        "needComment": false,
        "status": "enabled",
        "label1": "Transit (steaming without searching)",
        "label2": "Transit (route sans recherche)",
        "label3": "Transit (route sans recherche)",
        "label4": null,
        "label5": null,
        "label6": null,
        "label7": null,
        "label8": null,
        "allowFad": false,
        "allowFpaZoneChange": false,
        "allowSet": false,
        "observation": true,
        "logbook": true
      }
    ],
    "fr.ird.observe.entities.referential.ps.common.WeightCategory": [
      {
        "topiaId": "fr.ird.referential.ps.common.WeightCategory#1464000000000#1033",
        "topiaCreateDate": "2021-09-17T00:00:00.000Z",
        "lastUpdateDate": "2021-09-17T00:00:00.000Z",
        "code": "C-ALB-1",
        "uri": null,
        "homeId": null,
        "needComment": false,
        "status": "enabled",
        "label1": "ALB moins de 3 kg",
        "label2": "ALB moins de 3 kg",
        "label3": "ALB moins de 3 kg",
        "label4": null,
        "label5": null,
        "label6": null,
        "label7": null,
        "label8": null,
        "species": "fr.ird.referential.common.Species#1239832685476#0.5618871286604711",
        "minWeight": null,
        "maxWeight": 3.0,
        "meanWeight": null,
        "landing": false,
        "logbook": true,
        "wellPlan": false
      },
      {
        "topiaId": "fr.ird.referential.ps.common.WeightCategory#1464000000000#1041",
        "topiaCreateDate": "2021-09-17T00:00:00.000Z",
        "lastUpdateDate": "2021-09-17T00:00:00.000Z",
        "code": "C-ALB-10",
        "uri": null,
        "homeId": null,
        "needComment": false,
        "status": "enabled",
        "label1": "ALB moins de 10 kg",
        "label2": "ALB moins de 10 kg",
        "label3": "ALB moins de 10 kg",
        "label4": null,
        "label5": null,
        "label6": null,
        "label7": null,
        "label8": null,
        "species": "fr.ird.referential.common.Species#1239832685476#0.5618871286604711",
        "minWeight": null,
        "maxWeight": 10.0,
        "meanWeight": null,
        "landing": false,
        "logbook": true,
        "wellPlan": false
      }
    ],
    "fr.ird.observe.entities.referential.ps.observation.DetectionMode": [
      {
        "topiaId": "fr.ird.referential.ps.observation.DetectionMode#1239832686121#0.31798673746139705",
        "topiaCreateDate": "2009-04-15T00:00:00.000Z",
        "lastUpdateDate": "2017-11-16T16:10:01.714Z",
        "code": "0",
        "uri": null,
        "homeId": null,
        "needComment": false,
        "status": "enabled",
        "label1": "Unknown",
        "label2": "Mode de détection inconnu",
        "label3": "Mode de détection inconnu",
        "label4": null,
        "label5": null,
        "label6": null,
        "label7": null,
        "label8": null
      },
      {
        "topiaId": "fr.ird.referential.ps.observation.DetectionMode#1239832686122#0.3243132538654122",
        "topiaCreateDate": "2009-04-15T00:00:00.009Z",
        "lastUpdateDate": "2017-11-16T16:10:08.150Z",
        "code": "1",
        "uri": null,
        "homeId": null,
        "needComment": false,
        "status": "enabled",
        "label1": "Naked eye",
        "label2": "Oeil nu",
        "label3": "Oeil nu",
        "label4": null,
        "label5": null,
        "label6": null,
        "label7": null,
        "label8": null
      }
    ],
    "fr.ird.observe.entities.referential.ps.observation.InformationSource": [
      {
        "topiaId": "fr.ird.referential.ps.observation.InformationSource#1464000000000#01",
        "topiaCreateDate": "2021-09-17T00:00:00.000Z",
        "lastUpdateDate": "2021-09-17T00:00:00.000Z",
        "code": "O",
        "uri": null,
        "homeId": null,
        "needComment": false,
        "status": "enabled",
        "label1": "Observer",
        "label2": "Observateur",
        "label3": "Observateur #TODO",
        "label4": null,
        "label5": null,
        "label6": null,
        "label7": null,
        "label8": null
      },
      {
        "topiaId": "fr.ird.referential.ps.observation.InformationSource#1464000000000#02",
        "topiaCreateDate": "2021-09-17T00:00:00.000Z",
        "lastUpdateDate": "2021-09-17T00:00:00.000Z",
        "code": "P",
        "uri": null,
        "homeId": null,
        "needComment": false,
        "status": "enabled",
        "label1": "Crew with update by observer",
        "label2": "Equipage avec corrections de l'observateur",
        "label3": "Equipage avec corrections de l'observateur #TODO",
        "label4": null,
        "label5": null,
        "label6": null,
        "label7": null,
        "label8": null
      }
    ],
    "fr.ird.observe.entities.referential.ps.observation.NonTargetCatchReleaseConformity": [
      {
        "topiaId": "fr.ird.referential.ps.observation.NonTargetCatchReleaseConformity#0#1",
        "topiaCreateDate": "2018-12-07T00:00:00.000Z",
        "lastUpdateDate": "2018-12-07T12:44:49.445Z",
        "code": "C",
        "uri": null,
        "homeId": null,
        "needComment": false,
        "status": "enabled",
        "label1": "Conform",
        "label2": "Conforme",
        "label3": "Conforme",
        "label4": null,
        "label5": null,
        "label6": null,
        "label7": null,
        "label8": null
      },
      {
        "topiaId": "fr.ird.referential.ps.observation.NonTargetCatchReleaseConformity#0#3",
        "topiaCreateDate": "2018-12-07T00:00:00.000Z",
        "lastUpdateDate": "2018-12-07T12:44:49.445Z",
        "code": "NC-M",
        "uri": null,
        "homeId": null,
        "needComment": false,
        "status": "enabled",
        "label1": "Not conform M - Lack of material",
        "label2": "Non conforme M - Manque de matériel",
        "label3": "No conforme M - Falta de material",
        "label4": null,
        "label5": null,
        "label6": null,
        "label7": null,
        "label8": null
      }
    ],
    "fr.ird.observe.entities.referential.ps.observation.NonTargetCatchReleaseHandlingPlace": [
      {
        "topiaId": "fr.ird.referential.ps.observation.NonTargetCatchReleaseHandlingPlace#1464000000000#01",
        "topiaCreateDate": "2023-08-01T00:00:00.000Z",
        "lastUpdateDate": "2023-07-20T00:00:00.000Z",
        "code": "1",
        "uri": null,
        "homeId": null,
        "needComment": false,
        "status": "enabled",
        "label1": "Upper deck",
        "label2": "Pont supérieur",
        "label3": "Cubierta superior",
        "label4": null,
        "label5": null,
        "label6": null,
        "label7": null,
        "label8": null
      },
      {
        "topiaId": "fr.ird.referential.ps.observation.NonTargetCatchReleaseHandlingPlace#1464000000000#02",
        "topiaCreateDate": "2023-08-01T00:00:00.000Z",
        "lastUpdateDate": "2023-07-20T00:00:00.000Z",
        "code": "2",
        "uri": null,
        "homeId": null,
        "needComment": false,
        "status": "enabled",
        "label1": "Lower deck",
        "label2": "Faux pont",
        "label3": "Parque de pesca",
        "label4": null,
        "label5": null,
        "label6": null,
        "label7": null,
        "label8": null
      }
    ],
    "fr.ird.observe.entities.referential.ps.observation.NonTargetCatchReleaseStatus": [
      {
        "topiaId": "fr.ird.referential.ps.observation.NonTargetCatchReleaseStatus#0#2",
        "topiaCreateDate": "2018-12-07T00:00:00.000Z",
        "lastUpdateDate": "2018-12-07T12:44:49.268Z",
        "code": "B",
        "uri": null,
        "homeId": null,
        "needComment": false,
        "status": "enabled",
        "label1": "Good",
        "label2": "Bon",
        "label3": "Bueno",
        "label4": null,
        "label5": null,
        "label6": null,
        "label7": null,
        "label8": null
      },
      {
        "topiaId": "fr.ird.referential.ps.observation.NonTargetCatchReleaseStatus#0#6",
        "topiaCreateDate": "2018-12-07T00:00:00.000Z",
        "lastUpdateDate": "2018-12-07T12:44:55.649Z",
        "code": "C",
        "uri": null,
        "homeId": null,
        "needComment": false,
        "status": "enabled",
        "label1": "Correct",
        "label2": "Correct",
        "label3": "Correcto",
        "label4": null,
        "label5": null,
        "label6": null,
        "label7": null,
        "label8": null
      }
    ],
    "fr.ird.observe.entities.referential.ps.observation.NonTargetCatchReleasingTime": [
      {
        "topiaId": "fr.ird.referential.ps.observation.NonTargetCatchReleasingTime#0#4",
        "topiaCreateDate": "2018-12-07T00:00:00.000Z",
        "lastUpdateDate": "2018-12-07T12:44:49.445Z",
        "code": "A",
        "uri": null,
        "homeId": null,
        "needComment": false,
        "status": "enabled",
        "label1": "At the end of the set",
        "label2": "À la fin de la calée",
        "label3": "Tras fin de lance",
        "label4": null,
        "label5": null,
        "label6": null,
        "label7": null,
        "label8": null
      },
      {
        "topiaId": "fr.ird.referential.ps.observation.NonTargetCatchReleasingTime#0#2",
        "topiaCreateDate": "2018-12-07T00:00:00.000Z",
        "lastUpdateDate": "2018-12-07T12:44:49.445Z",
        "code": "B",
        "uri": null,
        "homeId": null,
        "needComment": false,
        "status": "enabled",
        "label1": "Before next brail",
        "label2": "Avant la salabarde suivante",
        "label3": "Antes del siguiente lance",
        "label4": null,
        "label5": null,
        "label6": null,
        "label7": null,
        "label8": null
      }
    ],
    "fr.ird.observe.entities.referential.ps.observation.ReasonForDiscard": [
      {
        "topiaId": "fr.ird.referential.ps.observation.ReasonForDiscard#1239832686292#0.2327417962534054",
        "topiaCreateDate": "2009-04-15T00:00:00.000Z",
        "lastUpdateDate": "2019-08-27T16:51:29.881Z",
        "code": "1",
        "uri": null,
        "homeId": null,
        "needComment": false,
        "status": "enabled",
        "label1": "Unwanted or protected species",
        "label2": "Espèce non désirée ou protégée",
        "label3": "Especies no deseadas o protegidas",
        "label4": null,
        "label5": null,
        "label6": null,
        "label7": null,
        "label8": null
      },
      {
        "topiaId": "fr.ird.referential.ps.observation.ReasonForDiscard#1239832686293#0.3952415543026304",
        "topiaCreateDate": "2009-04-15T00:00:00.001Z",
        "lastUpdateDate": "2017-11-16T16:30:21.783Z",
        "code": "2",
        "uri": null,
        "homeId": null,
        "needComment": false,
        "status": "enabled",
        "label1": "Size",
        "label2": "Taille",
        "label3": "Taille",
        "label4": null,
        "label5": null,
        "label6": null,
        "label7": null,
        "label8": null
      }
    ],
    "fr.ird.observe.entities.referential.ps.observation.SpeciesStatus": [
      {
        "topiaId": "fr.ird.referential.ps.observation.SpeciesStatus#1239832686390#0.056026648869705986",
        "topiaCreateDate": "2009-04-15T00:00:00.000Z",
        "lastUpdateDate": "2019-11-28T18:06:09.219Z",
        "code": "1",
        "uri": null,
        "homeId": null,
        "needComment": false,
        "status": "enabled",
        "label1": "Entangled, alive, fate unknown",
        "label2": "Maillée, vivante, destin inconnu",
        "label3": "Enmallada, que viven, destino desconocido",
        "label4": null,
        "label5": null,
        "label6": null,
        "label7": null,
        "label8": null
      },
      {
        "topiaId": "fr.ird.referential.ps.observation.SpeciesStatus#1239832686391#0.43313533290909123",
        "topiaCreateDate": "2009-04-15T00:00:00.001Z",
        "lastUpdateDate": "2019-06-26T17:21:38.383Z",
        "code": "2",
        "uri": null,
        "homeId": null,
        "needComment": false,
        "status": "enabled",
        "label1": "Entangled, dead",
        "label2": "Maillée, morte",
        "label3": "Enmallada, muerto",
        "label4": null,
        "label5": null,
        "label6": null,
        "label7": null,
        "label8": null
      }
    ],
    "fr.ird.observe.entities.referential.ps.observation.SurroundingActivity": [
      {
        "topiaId": "fr.ird.referential.ps.observation.SurroundingActivity#1239832675515#0.7689130226736774",
        "topiaCreateDate": "2009-04-15T00:00:00.000Z",
        "lastUpdateDate": "2017-11-16T16:07:02.284Z",
        "code": "0",
        "uri": null,
        "homeId": null,
        "needComment": false,
        "status": "enabled",
        "label1": "Unknown",
        "label2": "Indéterminé",
        "label3": "Indéterminé",
        "label4": null,
        "label5": null,
        "label6": null,
        "label7": null,
        "label8": null
      },
      {
        "topiaId": "fr.ird.referential.ps.observation.SurroundingActivity#1239832675515#0.16947202179029996",
        "topiaCreateDate": "2009-04-15T00:00:00.001Z",
        "lastUpdateDate": "2016-12-06T15:54:27.727Z",
        "code": "1",
        "uri": null,
        "homeId": null,
        "needComment": false,
        "status": "enabled",
        "label1": "Seul dans la zone",
        "label2": "Seul dans la zone",
        "label3": "Seul dans la zone",
        "label4": null,
        "label5": null,
        "label6": null,
        "label7": null,
        "label8": null
      }
    ],
    "fr.ird.observe.entities.referential.ps.logbook.InformationSource": [
      {
        "topiaId": "fr.ird.referential.ps.logbook.InformationSource#1464000000000#01",
        "topiaCreateDate": "2021-09-17T00:00:00.000Z",
        "lastUpdateDate": "2021-09-17T00:00:00.000Z",
        "code": "A",
        "uri": null,
        "homeId": null,
        "needComment": false,
        "status": "enabled",
        "label1": "AVDTH migration",
        "label2": "Migration AVDTH",
        "label3": "Migración de AVDTH",
        "label4": null,
        "label5": null,
        "label6": null,
        "label7": null,
        "label8": null
      },
      {
        "topiaId": "fr.ird.referential.ps.logbook.InformationSource#1464000000000#02",
        "topiaCreateDate": "2021-09-17T00:00:00.000Z",
        "lastUpdateDate": "2021-09-17T00:00:00.000Z",
        "code": "E",
        "uri": null,
        "homeId": null,
        "needComment": false,
        "status": "enabled",
        "label1": "Electronic Reporting System (ERS)",
        "label2": "Système de suivi électronique (ERS)",
        "label3": "Electronic Reporting System (ERS)",
        "label4": null,
        "label5": null,
        "label6": null,
        "label7": null,
        "label8": null
      }
    ],
    "fr.ird.observe.entities.referential.ps.logbook.SampleQuality": [
      {
        "topiaId": "fr.ird.referential.ps.logbook.SampleQuality#1464000000000#01",
        "topiaCreateDate": "2021-09-17T00:00:00.000Z",
        "lastUpdateDate": "2021-09-17T00:00:00.000Z",
        "code": "1",
        "uri": null,
        "homeId": null,
        "needComment": false,
        "status": "enabled",
        "label1": "Super - T3",
        "label2": "Super - T3",
        "label3": "Super #TODO",
        "label4": null,
        "label5": null,
        "label6": null,
        "label7": null,
        "label8": null
      },
      {
        "topiaId": "fr.ird.referential.ps.logbook.SampleQuality#1464000000000#02",
        "topiaCreateDate": "2021-09-17T00:00:00.000Z",
        "lastUpdateDate": "2021-09-17T00:00:00.000Z",
        "code": "2",
        "uri": null,
        "homeId": null,
        "needComment": false,
        "status": "enabled",
        "label1": "Biology - Size",
        "label2": "Biologie - Taille",
        "label3": "Biologie - Taille #TODO",
        "label4": null,
        "label5": null,
        "label6": null,
        "label7": null,
        "label8": null
      }
    ],
    "fr.ird.observe.entities.referential.ps.logbook.SetSuccessStatus": [
      {
        "topiaId": "fr.ird.referential.ps.logbook.SetSuccessStatus#1464000000000#00",
        "topiaCreateDate": "2021-09-17T00:00:00.000Z",
        "lastUpdateDate": "2021-09-17T00:00:00.000Z",
        "code": "0",
        "uri": null,
        "homeId": null,
        "needComment": false,
        "status": "enabled",
        "label1": "Null",
        "label2": "Nulle",
        "label3": "Null #TODO",
        "label4": null,
        "label5": null,
        "label6": null,
        "label7": null,
        "label8": null
      },
      {
        "topiaId": "fr.ird.referential.ps.logbook.SetSuccessStatus#1464000000000#01",
        "topiaCreateDate": "2021-09-17T00:00:00.000Z",
        "lastUpdateDate": "2021-09-17T00:00:00.000Z",
        "code": "1",
        "uri": null,
        "homeId": null,
        "needComment": false,
        "status": "enabled",
        "label1": "Positive",
        "label2": "Positive",
        "label3": "Positive #TODO",
        "label4": null,
        "label5": null,
        "label6": null,
        "label7": null,
        "label8": null
      }
    ],
    "fr.ird.observe.entities.referential.ps.logbook.WellContentStatus": [
      {
        "topiaId": "fr.ird.referential.ps.logbook.WellContentStatus#1464000000000#01",
        "topiaCreateDate": "2021-09-17T00:00:00.000Z",
        "lastUpdateDate": "2021-09-17T00:00:00.000Z",
        "code": "1",
        "uri": null,
        "homeId": null,
        "needComment": false,
        "status": "enabled",
        "label1": "Wells empty",
        "label2": "Cuves vides",
        "label3": "Wells empty #TODO",
        "label4": null,
        "label5": null,
        "label6": null,
        "label7": null,
        "label8": null
      },
      {
        "topiaId": "fr.ird.referential.ps.logbook.WellContentStatus#1464000000000#02",
        "topiaCreateDate": "2021-09-17T00:00:00.000Z",
        "lastUpdateDate": "2021-09-17T00:00:00.000Z",
        "code": "2",
        "uri": null,
        "homeId": null,
        "needComment": false,
        "status": "enabled",
        "label1": "Wells not empty",
        "label2": "Cuves non vides",
        "label3": "Wells not empty #TODO",
        "label4": null,
        "label5": null,
        "label6": null,
        "label7": null,
        "label8": null
      }
    ],
    "fr.ird.observe.entities.referential.ps.logbook.WellSamplingConformity": [
      {
        "topiaId": "fr.ird.referential.ps.logbook.WellSamplingConformity#1464000000000#01",
        "topiaCreateDate": "2021-09-17T00:00:00.000Z",
        "lastUpdateDate": "2021-09-17T00:00:00.000Z",
        "code": "1",
        "uri": null,
        "homeId": null,
        "needComment": false,
        "status": "enabled",
        "label1": "Compliant",
        "label2": "Conforme",
        "label3": "Compliant #TODO",
        "label4": null,
        "label5": null,
        "label6": null,
        "label7": null,
        "label8": null
      },
      {
        "topiaId": "fr.ird.referential.ps.logbook.WellSamplingConformity#1464000000000#02",
        "topiaCreateDate": "2021-09-17T00:00:00.000Z",
        "lastUpdateDate": "2021-09-17T00:00:00.000Z",
        "code": "2",
        "uri": null,
        "homeId": null,
        "needComment": false,
        "status": "enabled",
        "label1": "Non compliant",
        "label2": "Non conforme",
        "label3": "Non Compliant #TODO",
        "label4": null,
        "label5": null,
        "label6": null,
        "label7": null,
        "label8": null
      }
    ],
    "fr.ird.observe.entities.referential.ps.logbook.WellSamplingStatus": [
      {
        "topiaId": "fr.ird.referential.ps.logbook.WellSamplingStatus#1464000000000#01",
        "topiaCreateDate": "2021-09-17T00:00:00.000Z",
        "lastUpdateDate": "2021-09-17T00:00:00.000Z",
        "code": "1",
        "uri": null,
        "homeId": null,
        "needComment": false,
        "status": "enabled",
        "label1": "Sampled",
        "label2": "Échantillonnée",
        "label3": "Sampled#TODO",
        "label4": null,
        "label5": null,
        "label6": null,
        "label7": null,
        "label8": null
      },
      {
        "topiaId": "fr.ird.referential.ps.logbook.WellSamplingStatus#1464000000000#10",
        "topiaCreateDate": "2021-09-17T00:00:00.000Z",
        "lastUpdateDate": "2021-09-17T00:00:00.000Z",
        "code": "10",
        "uri": null,
        "homeId": null,
        "needComment": false,
        "status": "enabled",
        "label1": "Not sampled, not selected",
        "label2": "Non échantillonnée, non sélectionnée",
        "label3": "Not sampled, not selected #TODO",
        "label4": null,
        "label5": null,
        "label6": null,
        "label7": null,
        "label8": null
      }
    ],
    "fr.ird.observe.entities.referential.ps.landing.Destination": [
      {
        "topiaId": "fr.ird.referential.ps.landing.Destination#1464000000000#01",
        "topiaCreateDate": "2021-09-17T00:00:00.000Z",
        "lastUpdateDate": "2021-09-17T00:00:00.000Z",
        "code": "1",
        "uri": null,
        "homeId": null,
        "needComment": false,
        "status": "enabled",
        "label1": "Castelli TODO",
        "label2": "Castelli",
        "label3": "Castelli TODO",
        "label4": null,
        "label5": null,
        "label6": null,
        "label7": null,
        "label8": null
      },
      {
        "topiaId": "fr.ird.referential.ps.landing.Destination#1464000000000#10",
        "topiaCreateDate": "2021-09-17T00:00:00.000Z",
        "lastUpdateDate": "2021-09-17T00:00:00.000Z",
        "code": "10",
        "uri": null,
        "homeId": null,
        "needComment": false,
        "status": "enabled",
        "label1": "PIONNER FOOD CANNERY LTD TODO",
        "label2": "PIONNER FOOD CANNERY LTD",
        "label3": "PIONNER FOOD CANNERY LTD TODO",
        "label4": null,
        "label5": null,
        "label6": null,
        "label7": null,
        "label8": null
      }
    ],
    "fr.ird.observe.entities.referential.ps.landing.Fate": [
      {
        "topiaId": "fr.ird.referential.ps.landing.Fate#1464000000000#01",
        "topiaCreateDate": "2021-09-17T00:00:00.000Z",
        "lastUpdateDate": "2021-09-17T00:00:00.000Z",
        "code": "1",
        "uri": null,
        "homeId": null,
        "needComment": false,
        "status": "enabled",
        "label1": "Processed",
        "label2": "Traité",
        "label3": "Procesado",
        "label4": null,
        "label5": null,
        "label6": null,
        "label7": null,
        "label8": null,
        "discard": false
      },
      {
        "topiaId": "fr.ird.referential.ps.landing.Fate#1464000000000#02",
        "topiaCreateDate": "2021-09-17T00:00:00.000Z",
        "lastUpdateDate": "2021-09-17T00:00:00.000Z",
        "code": "2",
        "uri": null,
        "homeId": null,
        "needComment": false,
        "status": "enabled",
        "label1": "Discarded",
        "label2": "Rejeté",
        "label3": "Descartado",
        "label4": null,
        "label5": null,
        "label6": null,
        "label7": null,
        "label8": null,
        "discard": true
      }
    ],
    "fr.ird.observe.entities.referential.ps.localmarket.BatchComposition": [
      {
        "topiaId": "fr.ird.referential.ps.localmarket.BatchComposition#1464000000000#01",
        "topiaCreateDate": "2021-09-17T00:00:00.000Z",
        "lastUpdateDate": "2021-09-17T00:00:00.000Z",
        "code": "1",
        "uri": null,
        "homeId": null,
        "needComment": false,
        "status": "enabled",
        "label1": "Multi specific (survey)",
        "label2": "Multi spécifique (sondage)",
        "label3": "Multi specific (survey) #TODO",
        "label4": null,
        "label5": null,
        "label6": null,
        "label7": null,
        "label8": null
      },
      {
        "topiaId": "fr.ird.referential.ps.localmarket.BatchComposition#1464000000000#02",
        "topiaCreateDate": "2021-09-17T00:00:00.000Z",
        "lastUpdateDate": "2021-09-17T00:00:00.000Z",
        "code": "2",
        "uri": null,
        "homeId": null,
        "needComment": false,
        "status": "enabled",
        "label1": "Mono specific (no survey)",
        "label2": "Mono spécifique (pas de sondage)",
        "label3": "Mono specific (no survey) #TODO",
        "label4": null,
        "label5": null,
        "label6": null,
        "label7": null,
        "label8": null
      }
    ],
    "fr.ird.observe.entities.referential.ps.localmarket.BatchWeightType": [
      {
        "topiaId": "fr.ird.referential.ps.localmarket.BatchWeightType#1464000000000#01",
        "topiaCreateDate": "2021-09-17T00:00:00.000Z",
        "lastUpdateDate": "2021-09-17T00:00:00.000Z",
        "code": "1",
        "uri": null,
        "homeId": null,
        "needComment": false,
        "status": "enabled",
        "label1": "Weighing",
        "label2": "Pesée",
        "label3": "Weighing #TODO",
        "label4": null,
        "label5": null,
        "label6": null,
        "label7": null,
        "label8": null
      },
      {
        "topiaId": "fr.ird.referential.ps.localmarket.BatchWeightType#0#0",
        "topiaCreateDate": "2021-09-17T00:00:00.000Z",
        "lastUpdateDate": "2021-09-17T00:00:00.000Z",
        "code": "12",
        "uri": null,
        "homeId": null,
        "needComment": false,
        "status": "enabled",
        "label1": "Weighing 2",
        "label2": "Pesée 2",
        "label3": "Weighing #TODO 2",
        "label4": null,
        "label5": null,
        "label6": null,
        "label7": null,
        "label8": null
      }
    ],
    "fr.ird.observe.entities.referential.ps.localmarket.Buyer": [
      {
        "topiaId": "fr.ird.referential.ps.localmarket.Buyer#0#0",
        "topiaCreateDate": "2023-02-14T00:00:00.000Z",
        "lastUpdateDate": "2023-02-14T00:00:00.000Z",
        "code": "0",
        "uri": null,
        "homeId": null,
        "needComment": false,
        "status": "enabled",
        "label1": "Buyer 0",
        "label2": "Acheteur 0",
        "label3": "Pseo 0",
        "label4": null,
        "label5": null,
        "label6": null,
        "label7": null,
        "label8": null,
        "harbour": "fr.ird.referential.common.Harbour#11#0.1",
        "email": "email@email.gov",
        "phone": "07.00.11.22.33",
        "address": "No place found."
      },
      {
        "topiaId": "fr.ird.referential.ps.localmarket.Buyer#0#1",
        "topiaCreateDate": "2023-02-14T00:00:00.000Z",
        "lastUpdateDate": "2023-02-14T00:00:00.000Z",
        "code": "1",
        "uri": null,
        "homeId": null,
        "needComment": false,
        "status": "enabled",
        "label1": "Buyer 1",
        "label2": "Acheteur 1",
        "label3": "Pseo 1",
        "label4": null,
        "label5": null,
        "label6": null,
        "label7": null,
        "label8": null,
        "harbour": "fr.ird.referential.common.Harbour#11#0.1",
        "email": "email2@email.gov",
        "phone": "07.00.11.22.44",
        "address": "No place found 2."
      }
    ],
    "fr.ird.observe.entities.referential.ps.localmarket.Packaging": [
      {
        "topiaId": "fr.ird.referential.ps.localmarket.Packaging#1464000000000#001",
        "topiaCreateDate": "2021-09-17T00:00:00.000Z",
        "lastUpdateDate": "2021-09-17T00:00:00.000Z",
        "code": "1",
        "uri": null,
        "homeId": null,
        "needComment": false,
        "status": "enabled",
        "label1": "Poisson pièce Abidjan TODO",
        "label2": "Poisson pièce Abidjan",
        "label3": "Poisson pièce Abidjan TODO",
        "label4": null,
        "label5": null,
        "label6": null,
        "label7": null,
        "label8": null,
        "batchComposition": "fr.ird.referential.ps.localmarket.BatchComposition#1464000000000#02",
        "batchWeightType": "fr.ird.referential.ps.localmarket.BatchWeightType#1464000000000#02",
        "startDate": null,
        "endDate": null,
        "meanWeight": null,
        "harbour": "fr.ird.referential.common.Harbour#11#0.1"
      },
      {
        "topiaId": "fr.ird.referential.ps.localmarket.Packaging#1464000000000#006",
        "topiaCreateDate": "2021-09-17T00:00:00.000Z",
        "lastUpdateDate": "2021-09-17T00:00:00.000Z",
        "code": "10",
        "uri": null,
        "homeId": null,
        "needComment": false,
        "status": "enabled",
        "label1": "Bachée Abidjan TODO",
        "label2": "Bachée Abidjan",
        "label3": "Bachée Abidjan TODO",
        "label4": null,
        "label5": null,
        "label6": null,
        "label7": null,
        "label8": null,
        "batchComposition": "fr.ird.referential.ps.localmarket.BatchComposition#1464000000000#01",
        "batchWeightType": "fr.ird.referential.ps.localmarket.BatchWeightType#1464000000000#03",
        "startDate": "1983-01-01T00:00:00.000Z",
        "endDate": "1984-12-31T00:00:00.000Z",
        "meanWeight": 1.5,
        "harbour": "fr.ird.referential.common.Harbour#11#0.1"
      }
    ]
  }
}