{
  "path": "fr.ird.observe.tree.navigation.referential.ps.observation.SpeciesStatusNavigationTreeNode",
  "content": [
    {
      "topiaId": "fr.ird.referential.ps.observation.SpeciesStatus#1239832686391#0.9485129645120297",
      "topiaCreateDate": "2009-04-15T00:00:00.002Z",
      "lastUpdateDate": "2016-12-06T15:54:27.727Z",
      "code": "3",
      "needComment": false,
      "status": "enabled",
      "label1": "Around the FAD (alive, free)",
      "label2": "Autour du DCP (vivante, libre)",
      "label3": "Alrededor del DCP (que viven, libre)"
    },
    {
      "topiaId": "fr.ird.referential.ps.observation.SpeciesStatus#1239832686390#0.056026648869705986",
      "topiaCreateDate": "2009-04-15T00:00:00.000Z",
      "lastUpdateDate": "2019-11-28T18:06:09.219Z",
      "code": "1",
      "needComment": false,
      "status": "enabled",
      "label1": "Entangled, alive, fate unknown",
      "label2": "Maillée, vivante, destin inconnu",
      "label3": "Enmallada, que viven, destino desconocido"
    }
  ]
}