{
  "url": "/api/public/referential/ll/observation/HookPosition/fr.ird.referential.ll.observation.HookPosition-1239832686150-0.1",
  "method": "PUT",
  "headers": {
    "authenticationToken": "XXX",
    "Content-Type": "application/json"
  },
  "parameters": {},
  "payload": {
    "code": "UNK",
    "uri": null,
    "homeId": null,
    "needComment": false,
    "status": "enabled",
    "label1": "Unknown",
    "label2": "Inconnu",
    "label3": "Unknown",
    "label4": null,
    "label5": null,
    "label6": null,
    "label7": null,
    "label8": null
  }
}