{
  "topiaId": "fr.ird.data.ps.observation.TransmittingBuoy#1612860069136#0.39922787297738194",
  "topiaCreateDate": "2021-02-09T09:40:56.924Z",
  "lastUpdateDate": "2021-02-09T09:41:09.117Z",
  "homeId": null,
  "comment": "aaza",
  "code": "12",
  "transmittingBuoyOwnership": "fr.ird.referential.ps.common.TransmittingBuoyOwnership#0#3",
  "transmittingBuoyType": "fr.ird.referential.ps.common.TransmittingBuoyType#1239832686500#0.7406749287430566",
  "transmittingBuoyOperation": "fr.ird.referential.ps.common.TransmittingBuoyOperation#1239832686238#0.4755624782839416",
  "country": "fr.ird.referential.common.Country#1239832675583#0.9493110781716075",
  "vessel": "fr.ird.referential.common.Vessel#1239832677756#0.4935293150142165",
  "latitude": null,
  "longitude": null
}