{
  "url": "/api/public/referential/ll/observation",
  "method": "GET",
  "headers": {
    "authenticationToken": "XXX"
  },
  "parameters": {
    "config.prettyPrint": "true",
    "referentialLocale": "FR"
  }
}