{
  "path": "fr.ird.observe.tree.navigation.referential.ll.observation.ItemVerticalPositionNavigationTreeNode",
  "content": [
    {
      "topiaId": "fr.ird.referential.ll.observation.ItemVerticalPosition#1239832686154#0.1",
      "topiaCreateDate": "2014-07-26T00:00:00.000Z",
      "lastUpdateDate": "2016-12-06T15:54:27.727Z",
      "code": "1",
      "needComment": false,
      "status": "enabled",
      "label1": "Mainline (basket)",
      "label2": "Haute",
      "label3": "Mainline (basket)"
    },
    {
      "topiaId": "fr.ird.referential.ll.observation.ItemVerticalPosition#1239832686154#0.2",
      "topiaCreateDate": "2014-07-26T00:00:00.000Z",
      "lastUpdateDate": "2016-12-06T15:54:27.727Z",
      "code": "2",
      "needComment": false,
      "status": "enabled",
      "label1": "Traceline",
      "label2": "Intermédiaire",
      "label3": "Traceline"
    }
  ]
}