{
  "path": "fr.ird.observe.tree.navigation.referential.ll.observation.EncounterTypeNavigationTreeNode:fr.ird.referential.ll.observation.EncounterType#1239832686126#0.1",
  "content": [
    {
      "topiaId": "fr.ird.referential.ll.observation.EncounterType#1239832686126#0.1",
      "topiaCreateDate": "2014-07-26T00:00:00.000Z",
      "lastUpdateDate": "2016-12-06T15:54:27.727Z",
      "code": "01",
      "uri": null,
      "homeId": null,
      "needComment": false,
      "status": "enabled",
      "label1": "Spotted, no precision",
      "label2": "Vu sans précisions",
      "label3": "Spotted, no precision",
      "label4": null,
      "label5": null,
      "label6": null,
      "label7": null,
      "label8": null
    }
  ]
}