{
  "url": "/api/public/data/ps/landing/Landing/fr.ird.data.ps.landing.Landing-1616955391466-0.9083548924412933",
  "method": "GET",
  "headers": {
    "authenticationToken": "XXX"
  },
  "parameters": {
    "config.recursive": "true",
    "config.prettyPrint": "true",
    "config.serializeNulls": "true"
  }
}