{
  "url": "/api/public/data/ps/landing/Landing/fr.ird.data.ps.landing.Landing-1616955391466-0.9083548924412933",
  "method": "PUT",
  "headers": {
    "authenticationToken": "XXX",
    "Content-Type": "application/json"
  },
  "parameters": {},
  "payload": {
    "homeId": null,
    "date": null,
    "species": "fr.ird.referential.common.Species#1239832685475#0.13349466123905152",
    "weightCategory": "fr.ird.referential.ps.common.WeightCategory#1464000000000#027",
    "destination": "fr.ird.referential.ps.landing.Destination#1464000000000#02",
    "fate": "fr.ird.referential.ps.landing.Fate#1464000000000#02",
    "fateVessel": "fr.ird.referential.common.Vessel#1239832678461#0.8848371349192811",
    "weight": 122.0
  }
}