{
  "url": "/api/public/data/ll/observation/SensorUsed/fr.ird.data.ll.observation.SensorUsed-1613391670014-0.7726146766512088",
  "method": "GET",
  "headers": {
    "authenticationToken": "XXX"
  },
  "parameters": {
    "config.recursive": "true",
    "config.prettyPrint": "true",
    "config.serializeNulls": "true"
  }
}