{
  "path": "fr.ird.observe.navigation.tree.navigation.referential.common.HarbourNavigationTreeNode",
  "content": [
    {
      "topiaId": "fr.ird.referential.common.Harbour#11#0.0",
      "topiaCreateDate": "2015-01-07T00:00:00.000Z",
      "lastUpdateDate": "2021-09-17T00:00:00.000Z",
      "code": "1",
      "uri": null,
      "homeId": null,
      "needComment": false,
      "status": "enabled",
      "label1": "POINTE NOIRE",
      "label2": "POINTE NOIRE",
      "label3": "POINTE NOIRE",
      "label4": null,
      "label5": null,
      "label6": null,
      "label7": null,
      "label8": null,
      "country": "fr.ird.referential.common.Country#1308140312730#0.23814082967457195",
      "locode": "CGPNR",
      "latitude": -4.47,
      "longitude": 11.5
    },
    {
      "topiaId": "fr.ird.referential.common.Harbour#11#0.9",
      "topiaCreateDate": "2015-01-07T00:00:00.000Z",
      "lastUpdateDate": "2016-12-06T15:54:27.727Z",
      "code": "10",
      "uri": null,
      "homeId": null,
      "needComment": false,
      "status": "enabled",
      "label1": "TEMA",
      "label2": "TEMA",
      "label3": "TEMA",
      "label4": null,
      "label5": null,
      "label6": null,
      "label7": null,
      "label8": null,
      "country": "fr.ird.referential.common.Country#1239832675590#0.8642150406061876",
      "locode": "GHTEM",
      "latitude": 5.38,
      "longitude": 0.01
    }
  ]
}