{
  "path": "fr.ird.observe.navigation.tree.navigation.data.ps.observation.RouteNavigationTreeNode:fr.ird.data.ps.observation.Route#1554106229992#0.7639861071473422",
  "content": [
    {
      "topiaId": "fr.ird.data.ps.observation.Route#1554106229992#0.7639861071473422",
      "topiaCreateDate": "2019-04-01T08:10:29.930Z",
      "lastUpdateDate": "2021-02-09T11:56:00.502Z",
      "homeId": null,
      "comment": "Trois calées sur bancs libres dont deux positives et une nulle; dans la zone avec des cargos; journée ensoleillée, une petite brise accompagnée d'une mer belle (vaguelettes)",
      "date": "2019-04-01T00:00:00.000Z",
      "startLogValue": 198.0,
      "endLogValue": 270.0,
      "activity": [
        {
          "topiaId": "fr.ird.data.ps.observation.Activity#1554106269335#0.10377482387565495",
          "topiaCreateDate": "2019-04-01T08:11:09.335Z",
          "lastUpdateDate": "2019-04-01T08:11:09.335Z",
          "homeId": null,
          "comment": null,
          "time": "1970-01-01T06:15:34.000Z",
          "latitude": 3.9833,
          "longitude": -5.3167,
          "vesselSpeed": 9.0,
          "seaSurfaceTemperature": 30.0,
          "observedSystemDistance": null,
          "ersId": null,
          "vesselActivity": "fr.ird.referential.ps.common.VesselActivity#1239832675368#0.23635552874754517",
          "surroundingActivity": "fr.ird.referential.ps.observation.SurroundingActivity#1239832675515#0.16947202179029996",
          "wind": "fr.ird.referential.common.Wind#1239832686605#0.756896053766457",
          "detectionMode": null,
          "reasonForNoFishing": null,
          "set": null,
          "floatingObject": [],
          "observedSystem": [
            "fr.ird.referential.ps.common.ObservedSystem#1239832686426#0.6606964000652922"
          ],
          "currentFpaZone": "fr.ird.referential.common.FpaZone#1239832686122#1.1",
          "previousFpaZone": null,
          "nextFpaZone": null,
          "dataQuality": "fr.ird.referential.common.DataQuality#0#1"
        },
        {
          "topiaId": "fr.ird.data.ps.observation.Activity#1554106320792#0.9098832586354385",
          "topiaCreateDate": "2019-04-01T08:12:00.792Z",
          "lastUpdateDate": "2019-04-01T08:12:00.792Z",
          "homeId": null,
          "comment": "",
          "time": "1970-01-01T07:43:15.000Z",
          "latitude": 3.8333,
          "longitude": -5.2667,
          "vesselSpeed": 7.0,
          "seaSurfaceTemperature": 30.0,
          "observedSystemDistance": 0.3,
          "ersId": null,
          "vesselActivity": "fr.ird.referential.ps.common.VesselActivity#1239832675369#0.08910085510139154",
          "surroundingActivity": "fr.ird.referential.ps.observation.SurroundingActivity#1239832675515#0.16947202179029996",
          "wind": "fr.ird.referential.common.Wind#1239832686605#0.756896053766457",
          "detectionMode": "fr.ird.referential.ps.observation.DetectionMode#1239832686124#0.20721072808839902",
          "reasonForNoFishing": "fr.ird.referential.ps.common.ReasonForNoFishing#1239832683551#0.44213405530673244",
          "set": null,
          "floatingObject": [],
          "observedSystem": [
            "fr.ird.referential.ps.common.ObservedSystem#1239832686427#0.725007998980404",
            "fr.ird.referential.ps.common.ObservedSystem#1239832686427#0.7251934343058472"
          ],
          "currentFpaZone": "fr.ird.referential.common.FpaZone#1239832686122#1.1",
          "previousFpaZone": null,
          "nextFpaZone": null,
          "dataQuality": "fr.ird.referential.common.DataQuality#0#1"
        }
      ]
    }
  ]
}