{
  "code": "1",
  "uri": null,
  "homeId": null,
  "needComment": false,
  "status": "enabled",
  "label1": "With brail",
  "label2": "par salabarde",
  "label3": "par salabarde TODO",
  "label4": null,
  "label5": null,
  "label6": null,
  "label7": null,
  "label8": null
}