{
  "url": "/api/public/data/ll/observation/WeightMeasure",
  "method": "POST",
  "headers": {
    "authenticationToken": "XXX",
    "Content-Type": "application/json"
  },
  "parameters": {},
  "payload": {
    "homeId": null,
    "weight": 12.0,
    "weightMeasureType": "fr.ird.referential.common.WeightMeasureType#1239832686139#0.2"
  }
}