{
  "path": "fr.ird.observe.tree.navigation.referential.ll.landing.ConservationNavigationTreeNode",
  "content": [
    {
      "topiaId": "fr.ird.referential.ll.landing.Conservation#666#01",
      "topiaCreateDate": "2020-10-01T00:00:00.000Z",
      "lastUpdateDate": "2020-10-01T00:00:00.000Z",
      "code": "FRESH",
      "needComment": false,
      "status": "enabled",
      "label1": "Fresh",
      "label2": "Frais",
      "label3": "Frais #TODO"
    },
    {
      "topiaId": "fr.ird.referential.ll.landing.Conservation#666#02",
      "topiaCreateDate": "2020-10-01T00:00:00.000Z",
      "lastUpdateDate": "2020-10-01T00:00:00.000Z",
      "code": "FROZEN",
      "needComment": false,
      "status": "enabled",
      "label1": "Frozen",
      "label2": "Congelé",
      "label3": "Congelé #TODO"
    }
  ]
}