{
  "url": "/api/public/referential/ps/common/WeightCategory/fr.ird.referential.ps.common.WeightCategory-1464000000000-001",
  "method": "PUT",
  "headers": {
    "authenticationToken": "XXX",
    "Content-Type": "application/json"
  },
  "parameters": {},
  "payload": {
    "code": "L-YFT-1",
    "uri": null,
    "homeId": null,
    "needComment": false,
    "status": "enabled",
    "label1": "[SOVETCO: Albacore -10] - [STARKIST: Yellowfin R1 + R2+ R3]",
    "label2": "[SOVETCO: Albacore -10] - [STARKIST: Yellowfin R1 + R2+ R3]",
    "label3": "[SOVETCO: Albacore -10] - [STARKIST: Yellowfin R1 + R2+ R3]",
    "label4": null,
    "label5": null,
    "label6": null,
    "label7": null,
    "label8": null,
    "species": "fr.ird.referential.common.Species#1239832685474#0.8943253454598569",
    "minWeight": null,
    "maxWeight": 10.0,
    "meanWeight": null,
    "landing": true,
    "logbook": false,
    "wellPlan": false
  }
}