{
  "path": "fr.ird.observe.navigation.tree.navigation.referential.ps.observation.ReasonForDiscardNavigationTreeNode:fr.ird.referential.ps.observation.ReasonForDiscard#1239832686293#0.8068644206295019",
  "content": [
    {
      "topiaId": "fr.ird.referential.ps.observation.ReasonForDiscard#1239832686293#0.8068644206295019",
      "topiaCreateDate": "2009-04-15T00:00:00.003Z",
      "lastUpdateDate": "2016-12-06T15:54:27.727Z",
      "code": "4",
      "uri": null,
      "homeId": null,
      "needComment": false,
      "status": "enabled",
      "label1": "Fish damaged or unfit for human consumption",
      "label2": "Poisson abîmé ou impropre à la consommation humaine",
      "label3": "Fish dañado o no aptos para el consumo humano",
      "label4": null,
      "label5": null,
      "label6": null,
      "label7": null,
      "label8": null
    }
  ]
}