{
  "url": "/api/public/referential/ps/common/ObservedSystem",
  "method": "POST",
  "headers": {
    "authenticationToken": "XXX",
    "Content-Type": "application/json"
  },
  "parameters": {},
  "payload": true
}