{
  "url": "/api/public/data/ll/logbook/BranchlinesComposition/fr.ird.data.ll.logbook.BranchlinesComposition-1619857303908-0.463973082762536",
  "method": "DELETE",
  "headers": {
    "authenticationToken": "XXX"
  },
  "parameters": {}
}