{
  "url": "/api/public/data/ps/logbook/WellActivity/fr.ird.data.ps.logbook.WellActivity-0-0",
  "method": "GET",
  "headers": {
    "authenticationToken": "XXX"
  },
  "parameters": {
    "config.recursive": "true",
    "config.prettyPrint": "true",
    "config.serializeNulls": "true"
  }
}