{
  "url": "/api/public/data/ps/observation/ObjectSchoolEstimate/fr.ird.data.ps.observation.ObjectSchoolEstimate-1612860112430-0.9202212602076519",
  "method": "GET",
  "headers": {
    "authenticationToken": "XXX"
  },
  "parameters": {
    "config.recursive": "true",
    "config.prettyPrint": "true",
    "config.serializeNulls": "true"
  }
}