{
  "url": "/api/public/data/ll/observation/Branchline",
  "method": "POST",
  "headers": {
    "authenticationToken": "XXX",
    "Content-Type": "application/json"
  },
  "parameters": {},
  "payload": {
    "homeId": null,
    "comment": null,
    "settingIdentifier": 5.0,
    "haulingIdentifier": 3.0,
    "depthRecorder": false,
    "timer": false,
    "timeSinceContact": null,
    "hookOffset": null,
    "branchlineLength": null,
    "weightedSwivel": false,
    "timerTimeOnBoard": null,
    "weightedSnap": false,
    "swivelWeight": null,
    "snapWeight": null,
    "tracelineLength": null,
    "hookLost": false,
    "traceCutOff": false,
    "hookType": null,
    "baitType": null,
    "topType": null,
    "tracelineType": null,
    "baitSettingStatus": null,
    "baitHaulingStatus": null,
    "hookSize": null,
    "parentId": null
  }
}