{
  "homeId": "String",
  "number": "Integer",
  "comment": "String",
  "well": "String",
  "sampleType": "fr.ird.observe.entities.referential.ps.common.SampleType",
  "sampleQuality": "fr.ird.observe.entities.referential.ps.logbook.SampleQuality",
  "superSample": "boolean",
  "smallsWeight": "Float",
  "bigsWeight": "Float",
  "totalWeight": "Float",
  "weightsComputed": "boolean",
  "person": "java.util.Set:fr.ird.observe.entities.referential.common.Person",
  "sampleActivity": "java.util.Set:fr.ird.observe.entities.data.ps.logbook.SampleActivity",
  "sampleSpecies": "java.util.List:fr.ird.observe.entities.data.ps.logbook.SampleSpecies"
}