{
  "url": "/api/public/data/ll/observation/Section",
  "method": "GET",
  "headers": {
    "authenticationToken": "XXX"
  },
  "parameters": {
    "config.recursive": "true",
    "config.prettyPrint": "true",
    "config.serializeNulls": "true",
    "filters.lastUpdateDate": "2021-02-15T13:22:07.231Z"
  }
}