{
  "url": "/api/public/data/ps/localmarket/Batch/fr.ird.data.ps.localmarket.Batch-1617103690104-0.11538487864349034",
  "method": "GET",
  "headers": {
    "authenticationToken": "XXX"
  },
  "parameters": {
    "config.recursive": "true",
    "config.prettyPrint": "true",
    "config.serializeNulls": "true"
  }
}