{
  "url": "/api/public/referential/ll/common/TripType/fr.ird.referential.ll.common.TripType-1464000000000-01",
  "method": "GET",
  "headers": {
    "authenticationToken": "XXX"
  },
  "parameters": {
    "config.recursive": "true",
    "config.prettyPrint": "true",
    "config.serializeNulls": "true"
  }
}