{
  "url": "/api/public/data/ps/observation/Activity/fr.ird.data.ps.observation.Activity-1554113237260-0.6013473195166136",
  "method": "PUT",
  "headers": {
    "authenticationToken": "XXX",
    "Content-Type": "application/json"
  },
  "parameters": {},
  "payload": {
    "homeId": null,
    "comment": null,
    "time": "1970-01-01T09:41:26.000Z",
    "latitude": 3.9167,
    "longitude": -5.25,
    "vesselSpeed": 11.0,
    "seaSurfaceTemperature": 30.0,
    "observedSystemDistance": 0.1,
    "ersId": null,
    "vesselActivity": "fr.ird.referential.ps.common.VesselActivity#1239832675369#0.12552908048322586",
    "surroundingActivity": "fr.ird.referential.ps.observation.SurroundingActivity#1239832675515#0.16947202179029996",
    "wind": "fr.ird.referential.common.Wind#1239832686605#0.561188597983181",
    "detectionMode": "fr.ird.referential.ps.observation.DetectionMode#1239832686122#0.11073840364502163",
    "reasonForNoFishing": null,
    "set": {
      "homeId": null,
      "comment": "yep",
      "startTime": "1970-01-01T09:41:00.000Z",
      "haulingStartTimeStamp": null,
      "haulingEndTimeStamp": "2019-04-01T10:11:00.000Z",
      "endTimeStamp": "2019-04-01T11:53:00.000Z",
      "maxGearDepth": null,
      "currentSpeed": 0.9,
      "currentDirection": 47.0,
      "schoolTopDepth": null,
      "schoolMeanDepth": null,
      "schoolThickness": null,
      "supportVesselName": null,
      "currentMeasureDepth": 20.0,
      "schoolType": "fr.ird.referential.ps.common.SchoolType#0#1",
      "reasonForNullSet": null,
      "schoolEstimate": [
        {
          "homeId": null,
          "totalWeight": 12.0,
          "meanWeight": 1.0,
          "species": "fr.ird.referential.common.Species#1239832685476#0.5618871286604711",
          "weightMeasureMethod": "fr.ird.referential.common.WeightMeasureMethod#666#04"
        },
        {
          "homeId": null,
          "totalWeight": 12.0,
          "meanWeight": 12.0,
          "species": "fr.ird.referential.common.Species#1239832685475#0.13349466123905152",
          "weightMeasureMethod": "fr.ird.referential.common.WeightMeasureMethod#666#04"
        }
      ],
      "catches": [
        {
          "homeId": null,
          "comment": null,
          "catchWeight": 0.0584,
          "catchWeightComputedSource": "fromData",
          "minWeight": null,
          "meanWeight": 29.2,
          "maxWeight": null,
          "meanWeightComputedSource": "fromData",
          "meanLength": 188.0,
          "meanLengthComputedSource": null,
          "totalCount": 2.0,
          "totalCountComputedSource": null,
          "well": null,
          "reasonForDiscard": null,
          "informationSource": "fr.ird.referential.ps.observation.InformationSource#1464000000000#01",
          "species": "fr.ird.referential.common.Species#1239832683743#0.8616022446692306",
          "weightMeasureMethod": null,
          "sizeMeasureMethod": null,
          "speciesFate": "fr.ird.referential.ps.common.SpeciesFate#1239832683619#0.5722739932065866"
        },
        {
          "homeId": null,
          "comment": null,
          "catchWeight": 123.0,
          "catchWeightComputedSource": null,
          "minWeight": null,
          "meanWeight": null,
          "maxWeight": null,
          "meanWeightComputedSource": null,
          "meanLength": null,
          "meanLengthComputedSource": null,
          "totalCount": null,
          "totalCountComputedSource": null,
          "well": null,
          "reasonForDiscard": "fr.ird.referential.ps.observation.ReasonForDiscard#1239832686292#0.2327417962534054",
          "informationSource": "fr.ird.referential.ps.observation.InformationSource#1464000000000#01",
          "species": "fr.ird.referential.common.Species#1239832685476#0.5618871286604711",
          "weightMeasureMethod": "fr.ird.referential.common.WeightMeasureMethod#666#01",
          "sizeMeasureMethod": null,
          "speciesFate": "fr.ird.referential.ps.common.SpeciesFate#1239832683619#0.6250731662108877"
        }
      ],
      "sample": [
        {
          "homeId": null,
          "comment": null,
          "sampleMeasure": [
            {
              "homeId": null,
              "length": 12.0,
              "isLengthComputed": false,
              "picturesReferences": null,
              "weight": 12.0,
              "isWeightComputed": false,
              "count": 1.0,
              "acquisitionMode": 1.0,
              "tagNumber": "1",
              "species": "fr.ird.referential.common.Species#1239832685477#0.5989181185528589",
              "sex": "fr.ird.referential.common.Sex#1239832686121#0.0",
              "speciesFate": "fr.ird.referential.ps.common.SpeciesFate#1239832683619#0.5722739932065866",
              "sizeMeasureType": "fr.ird.referential.common.SizeMeasureType#1433499465700#0.0902433863375336",
              "weightMeasureType": "fr.ird.referential.common.WeightMeasureType#1239832686139#0.2",
              "weightMeasureMethod": "fr.ird.referential.common.WeightMeasureMethod#666#01",
              "sizeMeasureMethod": "fr.ird.referential.common.SizeMeasureMethod#666#01"
            },
            {
              "homeId": null,
              "length": 13.0,
              "isLengthComputed": false,
              "picturesReferences": null,
              "weight": 14.0,
              "isWeightComputed": false,
              "count": 1.0,
              "acquisitionMode": 1.0,
              "tagNumber": "2",
              "species": "fr.ird.referential.common.Species#1239832685477#0.5989181185528589",
              "sex": "fr.ird.referential.common.Sex#1239832686121#0.0",
              "speciesFate": "fr.ird.referential.ps.common.SpeciesFate#1239832683619#0.5722739932065866",
              "sizeMeasureType": "fr.ird.referential.common.SizeMeasureType#1433499465700#0.0902433863375336",
              "weightMeasureType": "fr.ird.referential.common.WeightMeasureType#1239832686139#0.2",
              "weightMeasureMethod": "fr.ird.referential.common.WeightMeasureMethod#666#02",
              "sizeMeasureMethod": "fr.ird.referential.common.SizeMeasureMethod#666#01"
            }
          ]
        },
        {
          "homeId": null,
          "comment": null,
          "sampleMeasure": [
            {
              "homeId": null,
              "length": 12.0,
              "isLengthComputed": false,
              "picturesReferences": null,
              "weight": null,
              "isWeightComputed": false,
              "count": 12.0,
              "acquisitionMode": 0.0,
              "tagNumber": null,
              "species": "fr.ird.referential.common.Species#1239832685476#0.5618871286604711",
              "sex": "fr.ird.referential.common.Sex#1239832686121#0.0",
              "speciesFate": "fr.ird.referential.ps.common.SpeciesFate#1239832683619#0.6250731662108877",
              "sizeMeasureType": "fr.ird.referential.common.SizeMeasureType#1433499465700#0.0902433863375336",
              "weightMeasureType": null,
              "weightMeasureMethod": null,
              "sizeMeasureMethod": "fr.ird.referential.common.SizeMeasureMethod#666#01"
            },
            {
              "homeId": null,
              "length": 12.0,
              "isLengthComputed": false,
              "picturesReferences": null,
              "weight": null,
              "isWeightComputed": false,
              "count": 1.0,
              "acquisitionMode": 0.0,
              "tagNumber": null,
              "species": "fr.ird.referential.common.Species#1239832685475#0.13349466123905152",
              "sex": "fr.ird.referential.common.Sex#1239832686121#0.0",
              "speciesFate": "fr.ird.referential.ps.common.SpeciesFate#1239832683619#0.6250731662108877",
              "sizeMeasureType": "fr.ird.referential.common.SizeMeasureType#1433499465700#0.0902433863375336",
              "weightMeasureType": null,
              "weightMeasureMethod": null,
              "sizeMeasureMethod": "fr.ird.referential.common.SizeMeasureMethod#666#02"
            }
          ]
        }
      ],
      "nonTargetCatchRelease": [
        {
          "homeId": null,
          "comment": null,
          "length": 12.0,
          "count": 1.0,
          "brailNumber": null,
          "acquisitionMode": 1.0,
          "species": "fr.ird.referential.common.Species#1239832683846#0.9864285434180587",
          "status": "fr.ird.referential.ps.observation.NonTargetCatchReleaseStatus#0#2",
          "sex": "fr.ird.referential.common.Sex#1239832686121#0.0",
          "speciesGroupReleaseMode": "fr.ird.referential.common.SpeciesGroupReleaseMode#0#1",
          "conformity": "fr.ird.referential.ps.observation.NonTargetCatchReleaseConformity#0#1",
          "handlingPlace": null,
          "releasingTime": "fr.ird.referential.ps.observation.NonTargetCatchReleasingTime#0#4",
          "sizeMeasureMethod": "fr.ird.referential.common.SizeMeasureMethod#666#01"
        },
        {
          "homeId": null,
          "comment": null,
          "length": 123.0,
          "count": 1.0,
          "brailNumber": null,
          "acquisitionMode": 1.0,
          "species": "fr.ird.referential.common.Species#201007241100#0.12345246",
          "status": "fr.ird.referential.ps.observation.NonTargetCatchReleaseStatus#0#1",
          "sex": "fr.ird.referential.common.Sex#1239832686121#0.0",
          "speciesGroupReleaseMode": "fr.ird.referential.common.SpeciesGroupReleaseMode#0#2",
          "conformity": "fr.ird.referential.ps.observation.NonTargetCatchReleaseConformity#0#4",
          "handlingPlace": null,
          "releasingTime": "fr.ird.referential.ps.observation.NonTargetCatchReleasingTime#0#1",
          "sizeMeasureMethod": "fr.ird.referential.common.SizeMeasureMethod#666#04"
        }
      ]
    },
    "floatingObject": [
      {
        "homeId": null,
        "comment": null,
        "objectSchoolEstimate": [
          {
            "homeId": null,
            "totalWeight": 12.0,
            "species": "fr.ird.referential.common.Species#1239832685476#0.5618871286604711",
            "weightMeasureMethod": "fr.ird.referential.common.WeightMeasureMethod#666#04"
          },
          {
            "homeId": null,
            "totalWeight": 1.0,
            "species": "fr.ird.referential.common.Species#1239832685475#0.13349466123905152",
            "weightMeasureMethod": "fr.ird.referential.common.WeightMeasureMethod#666#04"
          }
        ],
        "objectObservedSpecies": [
          {
            "homeId": null,
            "count": 3.0,
            "species": "fr.ird.referential.common.Species#1308738639113#0.434038308601438",
            "speciesStatus": "fr.ird.referential.ps.observation.SpeciesStatus#1239832686390#0.056026648869705986"
          },
          {
            "homeId": null,
            "count": 5.0,
            "species": "fr.ird.referential.common.Species#201007241100#0.12345370",
            "speciesStatus": "fr.ird.referential.ps.observation.SpeciesStatus#1239832686390#0.056026648869705986"
          }
        ],
        "objectOperation": "fr.ird.referential.ps.common.ObjectOperation#0#1",
        "supportVesselName": "yo",
        "transmittingBuoy": [
          {
            "homeId": null,
            "comment": "aaza",
            "code": "12",
            "transmittingBuoyOwnership": "fr.ird.referential.ps.common.TransmittingBuoyOwnership#0#3",
            "transmittingBuoyType": "fr.ird.referential.ps.common.TransmittingBuoyType#1239832686500#0.7406749287430566",
            "transmittingBuoyOperation": "fr.ird.referential.ps.common.TransmittingBuoyOperation#1239832686238#0.4755624782839416",
            "country": "fr.ird.referential.common.Country#1239832675583#0.9493110781716075",
            "vessel": "fr.ird.referential.common.Vessel#1239832677756#0.4935293150142165",
            "latitude": null,
            "longitude": null
          }
        ],
        "floatingObjectPart": [
          {
            "homeId": null,
            "whenArriving": null,
            "whenLeaving": "true",
            "objectMaterial": "fr.ird.referential.ps.common.ObjectMaterial#0#0.39"
          },
          {
            "homeId": null,
            "whenArriving": null,
            "whenLeaving": "true",
            "objectMaterial": "fr.ird.referential.ps.common.ObjectMaterial#0#0.3"
          }
        ],
        "computedWhenArrivingBiodegradable": null,
        "computedWhenArrivingNonEntangling": null,
        "computedWhenArrivingSimplifiedObjectType": null,
        "computedWhenLeavingBiodegradable": "FALSE",
        "computedWhenLeavingNonEntangling": "TRUE",
        "computedWhenLeavingSimplifiedObjectType": "DFAD"
      }
    ],
    "observedSystem": [
      "fr.ird.referential.ps.common.ObservedSystem#0#1.2",
      "fr.ird.referential.ps.common.ObservedSystem#1239832686427#0.6223326827132584"
    ],
    "currentFpaZone": "fr.ird.referential.common.FpaZone#1239832686122#1.1",
    "previousFpaZone": null,
    "nextFpaZone": null,
    "dataQuality": "fr.ird.referential.common.DataQuality#0#1"
  }
}