{
  "url": "/api/public/data/ps/logbook/SampleSpeciesMeasure/fr.ird.data.ps.logbook.SampleSpeciesMeasure-1617096998980-0.055388598211617346",
  "method": "DELETE",
  "headers": {
    "authenticationToken": "XXX"
  },
  "parameters": {}
}