{
  "path": "fr.ird.observe.navigation.tree.navigation.RootNavigationTreeNode:fr.ird.data.ps.logbook.SampleSpeciesMeasure#1617096998980#0.055388598211617346",
  "content": [
    {
      "topiaId": "fr.ird.data.ps.logbook.SampleSpeciesMeasure#1617096998980#0.055388598211617346",
      "topiaCreateDate": "2021-03-30T11:36:28.045Z",
      "lastUpdateDate": "2021-03-30T11:36:38.967Z",
      "homeId": null,
      "sizeClass": 1.0,
      "count": 12.0
    }
  ]
}