{
  "homeId": "String",
  "distance": "Float",
  "count": "Integer",
  "encounterType": "fr.ird.observe.entities.referential.ll.observation.EncounterType",
  "species": "fr.ird.observe.entities.referential.common.Species"
}