{
  "url": "/api/public/data/ps/logbook/SampleSpecies/fr.ird.data.ps.logbook.SampleSpecies-1617096981782-0.17042072657028862",
  "method": "DELETE",
  "headers": {
    "authenticationToken": "XXX"
  },
  "parameters": {}
}