{
  "url": "/api/public/data/ps/common/GearUseFeaturesMeasurement/fr.ird.data.ps.common.GearUseFeaturesMeasurement-1612698996149-0.4415127885939093",
  "method": "GET",
  "headers": {
    "authenticationToken": "XXX"
  },
  "parameters": {
    "config.recursive": "true",
    "config.prettyPrint": "true",
    "config.serializeNulls": "true"
  }
}