{
  "url": "/api/public/referential/ps/observation/NonTargetCatchReleaseStatus/fr.ird.referential.ps.observation.NonTargetCatchReleaseStatus-0-5",
  "method": "PUT",
  "headers": {
    "authenticationToken": "XXX",
    "Content-Type": "application/json"
  },
  "parameters": {},
  "payload": {
    "code": "I",
    "uri": null,
    "homeId": null,
    "needComment": false,
    "status": "enabled",
    "label1": "Unacceptable",
    "label2": "Inacceptable",
    "label3": "Inaceptable",
    "label4": null,
    "label5": null,
    "label6": null,
    "label7": null,
    "label8": null
  }
}