{
  "path": "fr.ird.observe.navigation.tree.navigation.referential.ps.common.SampleTypeNavigationTreeNode:fr.ird.referential.ps.common.SampleType#1464000000000#01",
  "content": [
    {
      "topiaId": "fr.ird.referential.ps.common.SampleType#1464000000000#01",
      "topiaCreateDate": "2021-09-17T00:00:00.000Z",
      "lastUpdateDate": "2021-09-17T00:00:00.000Z",
      "code": "1",
      "uri": null,
      "homeId": null,
      "needComment": false,
      "status": "enabled",
      "label1": "At landing",
      "label2": "Débarquement",
      "label3": "Débarquement #TODO",
      "label4": null,
      "label5": null,
      "label6": null,
      "label7": null,
      "label8": null,
      "localMarket": true,
      "logbook": true,
      "startDate": null,
      "endDate": null
    }
  ]
}