{
  "url": "/api/public/referential/ps/common/ObjectMaterialType/fr.ird.referential.ps.common.ObjectMaterialType-0-0",
  "method": "PUT",
  "headers": {
    "authenticationToken": "XXX",
    "Content-Type": "application/json"
  },
  "parameters": {},
  "payload": {
    "code": "1",
    "uri": null,
    "homeId": null,
    "needComment": false,
    "status": "enabled",
    "label1": "Boolean",
    "label2": "Boolean",
    "label3": "Boolean TODO",
    "label4": null,
    "label5": null,
    "label6": null,
    "label7": null,
    "label8": null
  }
}