{
  "path": "fr.ird.observe.tree.navigation.referential.common.GearCharacteristicNavigationTreeNode",
  "content": [
    {
      "topiaId": "fr.ird.referential.common.GearCharacteristic#1239832686124#0.11",
      "topiaCreateDate": "2015-03-28T00:00:00.000Z",
      "lastUpdateDate": "2016-12-06T15:54:27.727Z",
      "code": "1",
      "needComment": false,
      "status": "enabled",
      "label1": "sack mesh size",
      "label2": "Maille de poche",
      "label3": "malla del saco",
      "unit": "mm",
      "gearCharacteristicType": "fr.ird.referential.common.GearCharacteristicType#1239832686123#0.5"
    },
    {
      "topiaId": "fr.ird.referential.common.GearCharacteristic#1239832686124#0.12",
      "topiaCreateDate": "2015-03-28T00:00:00.000Z",
      "lastUpdateDate": "2016-12-06T15:54:27.727Z",
      "code": "2",
      "needComment": false,
      "status": "enabled",
      "label1": "other mesh size",
      "label2": "Autre taille de maille",
      "label3": "otro tamaño de malla",
      "unit": "mm",
      "gearCharacteristicType": "fr.ird.referential.common.GearCharacteristicType#1239832686123#0.5"
    }
  ]
}