{
  "url": "/api/public/referential/ps/localmarket/Packaging",
  "method": "POST",
  "headers": {
    "authenticationToken": "XXX",
    "Content-Type": "application/json"
  },
  "parameters": {},
  "payload": {
    "code": "1",
    "uri": null,
    "homeId": null,
    "needComment": false,
    "status": "enabled",
    "label1": "Poisson pièce Abidjan TODO",
    "label2": "Poisson pièce Abidjan",
    "label3": "Poisson pièce Abidjan TODO",
    "label4": null,
    "label5": null,
    "label6": null,
    "label7": null,
    "label8": null,
    "batchComposition": "fr.ird.referential.ps.localmarket.BatchComposition#1464000000000#02",
    "batchWeightType": "fr.ird.referential.ps.localmarket.BatchWeightType#1464000000000#02",
    "startDate": null,
    "endDate": null,
    "meanWeight": null,
    "harbour": "fr.ird.referential.common.Harbour#11#0.1"
  }
}