{
  "path": "fr.ird.observe.navigation.tree.navigation.referential.ll.observation.MaturityStatusNavigationTreeNode",
  "content": [
    {
      "topiaId": "fr.ird.referential.ll.observation.MaturityStatus#1239832686182#0.1",
      "topiaCreateDate": "2014-07-26T00:00:00.000Z",
      "lastUpdateDate": "2016-12-06T15:54:27.727Z",
      "code": "1",
      "uri": null,
      "homeId": null,
      "needComment": false,
      "status": "enabled",
      "label1": "1",
      "label2": "1",
      "label3": "1",
      "label4": null,
      "label5": null,
      "label6": null,
      "label7": null,
      "label8": null,
      "lowerValue": "1",
      "upperValue": "1"
    },
    {
      "topiaId": "fr.ird.referential.ll.observation.MaturityStatus#1239832686182#0.2",
      "topiaCreateDate": "2014-07-26T00:00:00.000Z",
      "lastUpdateDate": "2016-12-06T15:54:27.727Z",
      "code": "1-2",
      "uri": null,
      "homeId": null,
      "needComment": false,
      "status": "enabled",
      "label1": "1-2",
      "label2": "1-2",
      "label3": "1-2",
      "label4": null,
      "label5": null,
      "label6": null,
      "label7": null,
      "label8": null,
      "lowerValue": "1",
      "upperValue": "2"
    }
  ]
}