{
  "url": "/api/public/data/ll/observation/Catch",
  "method": "POST",
  "headers": {
    "authenticationToken": "XXX",
    "Content-Type": "application/json"
  },
  "parameters": {},
  "payload": {
    "homeId": null,
    "comment": "s",
    "count": 1.0,
    "totalWeight": null,
    "hookWhenDiscarded": false,
    "depredated": true,
    "beatDiameter": 34.0,
    "gonadeWeight": 12.0,
    "photoReferences": "12",
    "number": 12.0,
    "acquisitionMode": 0.0,
    "tagNumber": "12",
    "section": null,
    "basket": null,
    "branchline": "fr.ird.data.ll.observation.Branchline#1613391727344#0.8268423721739928",
    "catchFate": "fr.ird.referential.ll.common.CatchFate#1239832686125#0.4",
    "discardHealthStatus": "fr.ird.referential.ll.common.HealthStatus#1239832686128#0.1",
    "sizeMeasure": [
      {
        "homeId": null,
        "size": 12.0,
        "sizeMeasureType": "fr.ird.referential.common.SizeMeasureType#1433499469115#0.42996318358928"
      },
      {
        "homeId": null,
        "size": 45.0,
        "sizeMeasureType": "fr.ird.referential.common.SizeMeasureType#1433499465700#0.0902433863375336"
      }
    ],
    "species": "fr.ird.referential.common.Species#1239832683737#0.9054429876194163",
    "predator": [
      "fr.ird.referential.common.Species#1239832685107#0.34538015098950847",
      "fr.ird.referential.common.Species#201007241100#0.12345601"
    ],
    "maturityStatus": "fr.ird.referential.ll.observation.MaturityStatus#1239832686182#0.7",
    "stomachFullness": "fr.ird.referential.ll.observation.StomachFullness#1239832686135#0.2",
    "hookPosition": "fr.ird.referential.ll.observation.HookPosition#1239832686150#0.7",
    "weightMeasure": [
      {
        "homeId": null,
        "weight": 12.0,
        "weightMeasureType": "fr.ird.referential.common.WeightMeasureType#1239832686139#0.2"
      },
      {
        "homeId": null,
        "weight": 45.0,
        "weightMeasureType": "fr.ird.referential.common.WeightMeasureType#1239832686139#0.3"
      }
    ],
    "catchHealthStatus": "fr.ird.referential.ll.common.HealthStatus#1239832686128#0.3",
    "sex": "fr.ird.referential.common.Sex#1239832686122#0.2",
    "weightMeasureMethod": null
  }
}