{
  "url": "/api/public/referential/ps/landing/Destination/fr.ird.referential.ps.landing.Destination-1464000000000-01",
  "method": "GET",
  "headers": {
    "authenticationToken": "XXX"
  },
  "parameters": {
    "config.recursive": "true",
    "config.prettyPrint": "true",
    "config.serializeNulls": "true"
  }
}